ISO-10303-21;
HEADER;
FILE_DESCRIPTION(('FreeCAD Model'),'2;1');
FILE_NAME(
'W:/vault/_altium_/libraries/openvault/mechanics/__frecad__
/CAPC2012X85.step','2020-07-29T21:30:02',('Author'),(''),
  'Open CASCADE STEP processor 7.3','FreeCAD','Unknown');
FILE_SCHEMA(('AUTOMOTIVE_DESIGN { 1 0 10303 214 1 1 1 1 }'));
ENDSEC;
DATA;
#1 = APPLICATION_PROTOCOL_DEFINITION('international standard',
  'automotive_design',2000,#2);
#2 = APPLICATION_CONTEXT(
  'core data for automotive mechanical design processes');
#3 = SHAPE_DEFINITION_REPRESENTATION(#4,#10);
#4 = PRODUCT_DEFINITION_SHAPE('','',#5);
#5 = PRODUCT_DEFINITION('design','',#6,#9);
#6 = PRODUCT_DEFINITION_FORMATION('','',#7);
#7 = PRODUCT('Compound','Compound','',(#8));
#8 = PRODUCT_CONTEXT('',#2,'mechanical');
#9 = PRODUCT_DEFINITION_CONTEXT('part definition',#2,'design');
#10 = SHAPE_REPRESENTATION('',(#11,#15,#469,#923),#1213);
#11 = AXIS2_PLACEMENT_3D('',#12,#13,#14);
#12 = CARTESIAN_POINT('',(0.,0.,0.));
#13 = DIRECTION('',(0.,0.,1.));
#14 = DIRECTION('',(1.,0.,-0.));
#15 = MANIFOLD_SOLID_BREP('',#16);
#16 = CLOSED_SHELL('',(#17,#57,#90,#123,#156,#189,#206,#223,#254,#285,
    #302,#333,#350,#381,#399,#417,#445,#457));
#17 = ADVANCED_FACE('',(#18),#52,.F.);
#18 = FACE_BOUND('',#19,.F.);
#19 = EDGE_LOOP('',(#20,#30,#38,#46));
#20 = ORIENTED_EDGE('',*,*,#21,.F.);
#21 = EDGE_CURVE('',#22,#24,#26,.T.);
#22 = VERTEX_POINT('',#23);
#23 = CARTESIAN_POINT('',(-6.938893903907E-18,5.E-02,5.E-02));
#24 = VERTEX_POINT('',#25);
#25 = CARTESIAN_POINT('',(-6.938893903907E-18,5.E-02,0.8));
#26 = LINE('',#27,#28);
#27 = CARTESIAN_POINT('',(-6.938893903907E-18,5.E-02,0.));
#28 = VECTOR('',#29,1.);
#29 = DIRECTION('',(0.,0.,1.));
#30 = ORIENTED_EDGE('',*,*,#31,.T.);
#31 = EDGE_CURVE('',#22,#32,#34,.T.);
#32 = VERTEX_POINT('',#33);
#33 = CARTESIAN_POINT('',(-6.938893903907E-18,1.2,5.E-02));
#34 = LINE('',#35,#36);
#35 = CARTESIAN_POINT('',(-6.938893903907E-18,0.,5.E-02));
#36 = VECTOR('',#37,1.);
#37 = DIRECTION('',(0.,1.,0.));
#38 = ORIENTED_EDGE('',*,*,#39,.T.);
#39 = EDGE_CURVE('',#32,#40,#42,.T.);
#40 = VERTEX_POINT('',#41);
#41 = CARTESIAN_POINT('',(-6.938893903907E-18,1.2,0.8));
#42 = LINE('',#43,#44);
#43 = CARTESIAN_POINT('',(-6.938893903907E-18,1.2,0.));
#44 = VECTOR('',#45,1.);
#45 = DIRECTION('',(0.,0.,1.));
#46 = ORIENTED_EDGE('',*,*,#47,.F.);
#47 = EDGE_CURVE('',#24,#40,#48,.T.);
#48 = LINE('',#49,#50);
#49 = CARTESIAN_POINT('',(-6.938893903907E-18,0.,0.8));
#50 = VECTOR('',#51,1.);
#51 = DIRECTION('',(0.,1.,0.));
#52 = PLANE('',#53);
#53 = AXIS2_PLACEMENT_3D('',#54,#55,#56);
#54 = CARTESIAN_POINT('',(0.,0.,0.));
#55 = DIRECTION('',(1.,0.,0.));
#56 = DIRECTION('',(0.,0.,1.));
#57 = ADVANCED_FACE('',(#58),#85,.T.);
#58 = FACE_BOUND('',#59,.T.);
#59 = EDGE_LOOP('',(#60,#61,#70,#78));
#60 = ORIENTED_EDGE('',*,*,#21,.F.);
#61 = ORIENTED_EDGE('',*,*,#62,.T.);
#62 = EDGE_CURVE('',#22,#63,#65,.T.);
#63 = VERTEX_POINT('',#64);
#64 = CARTESIAN_POINT('',(5.E-02,-6.938893903907E-18,5.E-02));
#65 = CIRCLE('',#66,5.E-02);
#66 = AXIS2_PLACEMENT_3D('',#67,#68,#69);
#67 = CARTESIAN_POINT('',(5.E-02,5.E-02,5.E-02));
#68 = DIRECTION('',(0.,0.,1.));
#69 = DIRECTION('',(-1.,0.,0.));
#70 = ORIENTED_EDGE('',*,*,#71,.T.);
#71 = EDGE_CURVE('',#63,#72,#74,.T.);
#72 = VERTEX_POINT('',#73);
#73 = CARTESIAN_POINT('',(5.E-02,-6.938893903907E-18,0.8));
#74 = LINE('',#75,#76);
#75 = CARTESIAN_POINT('',(5.E-02,-6.938893903907E-18,0.));
#76 = VECTOR('',#77,1.);
#77 = DIRECTION('',(0.,0.,1.));
#78 = ORIENTED_EDGE('',*,*,#79,.F.);
#79 = EDGE_CURVE('',#24,#72,#80,.T.);
#80 = CIRCLE('',#81,5.E-02);
#81 = AXIS2_PLACEMENT_3D('',#82,#83,#84);
#82 = CARTESIAN_POINT('',(5.E-02,5.E-02,0.8));
#83 = DIRECTION('',(0.,0.,1.));
#84 = DIRECTION('',(-1.,0.,0.));
#85 = CYLINDRICAL_SURFACE('',#86,5.E-02);
#86 = AXIS2_PLACEMENT_3D('',#87,#88,#89);
#87 = CARTESIAN_POINT('',(5.E-02,5.E-02,0.));
#88 = DIRECTION('',(0.,0.,1.));
#89 = DIRECTION('',(-1.,0.,0.));
#90 = ADVANCED_FACE('',(#91),#118,.T.);
#91 = FACE_BOUND('',#92,.F.);
#92 = EDGE_LOOP('',(#93,#102,#110,#117));
#93 = ORIENTED_EDGE('',*,*,#94,.F.);
#94 = EDGE_CURVE('',#95,#22,#97,.T.);
#95 = VERTEX_POINT('',#96);
#96 = CARTESIAN_POINT('',(5.E-02,5.E-02,0.));
#97 = CIRCLE('',#98,5.E-02);
#98 = AXIS2_PLACEMENT_3D('',#99,#100,#101);
#99 = CARTESIAN_POINT('',(5.E-02,5.E-02,5.E-02));
#100 = DIRECTION('',(0.,1.,-0.));
#101 = DIRECTION('',(-1.,0.,0.));
#102 = ORIENTED_EDGE('',*,*,#103,.T.);
#103 = EDGE_CURVE('',#95,#104,#106,.T.);
#104 = VERTEX_POINT('',#105);
#105 = CARTESIAN_POINT('',(5.E-02,1.2,0.));
#106 = LINE('',#107,#108);
#107 = CARTESIAN_POINT('',(5.E-02,0.,-6.938893903907E-18));
#108 = VECTOR('',#109,1.);
#109 = DIRECTION('',(0.,1.,0.));
#110 = ORIENTED_EDGE('',*,*,#111,.T.);
#111 = EDGE_CURVE('',#104,#32,#112,.T.);
#112 = CIRCLE('',#113,5.E-02);
#113 = AXIS2_PLACEMENT_3D('',#114,#115,#116);
#114 = CARTESIAN_POINT('',(5.E-02,1.2,5.E-02));
#115 = DIRECTION('',(0.,1.,-0.));
#116 = DIRECTION('',(-1.,0.,0.));
#117 = ORIENTED_EDGE('',*,*,#31,.F.);
#118 = CYLINDRICAL_SURFACE('',#119,5.E-02);
#119 = AXIS2_PLACEMENT_3D('',#120,#121,#122);
#120 = CARTESIAN_POINT('',(5.E-02,0.,5.E-02));
#121 = DIRECTION('',(0.,1.,0.));
#122 = DIRECTION('',(-1.,0.,0.));
#123 = ADVANCED_FACE('',(#124),#151,.T.);
#124 = FACE_BOUND('',#125,.T.);
#125 = EDGE_LOOP('',(#126,#135,#143,#150));
#126 = ORIENTED_EDGE('',*,*,#127,.F.);
#127 = EDGE_CURVE('',#128,#24,#130,.T.);
#128 = VERTEX_POINT('',#129);
#129 = CARTESIAN_POINT('',(5.E-02,5.E-02,0.85));
#130 = CIRCLE('',#131,5.E-02);
#131 = AXIS2_PLACEMENT_3D('',#132,#133,#134);
#132 = CARTESIAN_POINT('',(5.E-02,5.E-02,0.8));
#133 = DIRECTION('',(0.,-1.,0.));
#134 = DIRECTION('',(-1.,0.,0.));
#135 = ORIENTED_EDGE('',*,*,#136,.T.);
#136 = EDGE_CURVE('',#128,#137,#139,.T.);
#137 = VERTEX_POINT('',#138);
#138 = CARTESIAN_POINT('',(5.E-02,1.2,0.85));
#139 = LINE('',#140,#141);
#140 = CARTESIAN_POINT('',(5.E-02,0.,0.85));
#141 = VECTOR('',#142,1.);
#142 = DIRECTION('',(0.,1.,0.));
#143 = ORIENTED_EDGE('',*,*,#144,.F.);
#144 = EDGE_CURVE('',#40,#137,#145,.T.);
#145 = CIRCLE('',#146,5.E-02);
#146 = AXIS2_PLACEMENT_3D('',#147,#148,#149);
#147 = CARTESIAN_POINT('',(5.E-02,1.2,0.8));
#148 = DIRECTION('',(0.,1.,-0.));
#149 = DIRECTION('',(-1.,0.,0.));
#150 = ORIENTED_EDGE('',*,*,#47,.F.);
#151 = CYLINDRICAL_SURFACE('',#152,5.E-02);
#152 = AXIS2_PLACEMENT_3D('',#153,#154,#155);
#153 = CARTESIAN_POINT('',(5.E-02,0.,0.8));
#154 = DIRECTION('',(0.,1.,0.));
#155 = DIRECTION('',(-1.,0.,0.));
#156 = ADVANCED_FACE('',(#157),#184,.T.);
#157 = FACE_BOUND('',#158,.F.);
#158 = EDGE_LOOP('',(#159,#160,#169,#177));
#159 = ORIENTED_EDGE('',*,*,#39,.F.);
#160 = ORIENTED_EDGE('',*,*,#161,.T.);
#161 = EDGE_CURVE('',#32,#162,#164,.T.);
#162 = VERTEX_POINT('',#163);
#163 = CARTESIAN_POINT('',(5.E-02,1.25,5.E-02));
#164 = CIRCLE('',#165,5.E-02);
#165 = AXIS2_PLACEMENT_3D('',#166,#167,#168);
#166 = CARTESIAN_POINT('',(5.E-02,1.2,5.E-02));
#167 = DIRECTION('',(0.,0.,-1.));
#168 = DIRECTION('',(-1.,0.,0.));
#169 = ORIENTED_EDGE('',*,*,#170,.T.);
#170 = EDGE_CURVE('',#162,#171,#173,.T.);
#171 = VERTEX_POINT('',#172);
#172 = CARTESIAN_POINT('',(5.E-02,1.25,0.8));
#173 = LINE('',#174,#175);
#174 = CARTESIAN_POINT('',(5.E-02,1.25,0.));
#175 = VECTOR('',#176,1.);
#176 = DIRECTION('',(0.,0.,1.));
#177 = ORIENTED_EDGE('',*,*,#178,.T.);
#178 = EDGE_CURVE('',#171,#40,#179,.T.);
#179 = CIRCLE('',#180,5.E-02);
#180 = AXIS2_PLACEMENT_3D('',#181,#182,#183);
#181 = CARTESIAN_POINT('',(5.E-02,1.2,0.8));
#182 = DIRECTION('',(0.,0.,1.));
#183 = DIRECTION('',(-1.,0.,0.));
#184 = CYLINDRICAL_SURFACE('',#185,5.E-02);
#185 = AXIS2_PLACEMENT_3D('',#186,#187,#188);
#186 = CARTESIAN_POINT('',(5.E-02,1.2,0.));
#187 = DIRECTION('',(0.,0.,1.));
#188 = DIRECTION('',(-1.,0.,0.));
#189 = ADVANCED_FACE('',(#190),#201,.T.);
#190 = FACE_BOUND('',#191,.T.);
#191 = EDGE_LOOP('',(#192,#193,#200));
#192 = ORIENTED_EDGE('',*,*,#94,.F.);
#193 = ORIENTED_EDGE('',*,*,#194,.T.);
#194 = EDGE_CURVE('',#95,#63,#195,.T.);
#195 = CIRCLE('',#196,5.E-02);
#196 = AXIS2_PLACEMENT_3D('',#197,#198,#199);
#197 = CARTESIAN_POINT('',(5.E-02,5.E-02,5.E-02));
#198 = DIRECTION('',(-1.,6.123233995737E-17,0.));
#199 = DIRECTION('',(-6.123233995737E-17,-1.,0.));
#200 = ORIENTED_EDGE('',*,*,#62,.F.);
#201 = SPHERICAL_SURFACE('',#202,5.E-02);
#202 = AXIS2_PLACEMENT_3D('',#203,#204,#205);
#203 = CARTESIAN_POINT('',(5.E-02,5.E-02,5.E-02));
#204 = DIRECTION('',(0.,0.,1.));
#205 = DIRECTION('',(-1.,0.,0.));
#206 = ADVANCED_FACE('',(#207),#218,.T.);
#207 = FACE_BOUND('',#208,.F.);
#208 = EDGE_LOOP('',(#209,#210,#217));
#209 = ORIENTED_EDGE('',*,*,#127,.F.);
#210 = ORIENTED_EDGE('',*,*,#211,.T.);
#211 = EDGE_CURVE('',#128,#72,#212,.T.);
#212 = CIRCLE('',#213,5.E-02);
#213 = AXIS2_PLACEMENT_3D('',#214,#215,#216);
#214 = CARTESIAN_POINT('',(5.E-02,5.E-02,0.8));
#215 = DIRECTION('',(1.,-6.123233995737E-17,0.));
#216 = DIRECTION('',(-6.123233995737E-17,-1.,0.));
#217 = ORIENTED_EDGE('',*,*,#79,.F.);
#218 = SPHERICAL_SURFACE('',#219,5.E-02);
#219 = AXIS2_PLACEMENT_3D('',#220,#221,#222);
#220 = CARTESIAN_POINT('',(5.E-02,5.E-02,0.8));
#221 = DIRECTION('',(-0.,-0.,-1.));
#222 = DIRECTION('',(-1.,0.,0.));
#223 = ADVANCED_FACE('',(#224),#249,.F.);
#224 = FACE_BOUND('',#225,.F.);
#225 = EDGE_LOOP('',(#226,#236,#242,#243));
#226 = ORIENTED_EDGE('',*,*,#227,.F.);
#227 = EDGE_CURVE('',#228,#230,#232,.T.);
#228 = VERTEX_POINT('',#229);
#229 = CARTESIAN_POINT('',(0.5,-6.938893903907E-18,5.E-02));
#230 = VERTEX_POINT('',#231);
#231 = CARTESIAN_POINT('',(0.5,-6.938893903907E-18,0.8));
#232 = LINE('',#233,#234);
#233 = CARTESIAN_POINT('',(0.5,0.,0.));
#234 = VECTOR('',#235,1.);
#235 = DIRECTION('',(0.,0.,1.));
#236 = ORIENTED_EDGE('',*,*,#237,.F.);
#237 = EDGE_CURVE('',#63,#228,#238,.T.);
#238 = LINE('',#239,#240);
#239 = CARTESIAN_POINT('',(0.,-6.938893903907E-18,5.E-02));
#240 = VECTOR('',#241,1.);
#241 = DIRECTION('',(1.,0.,0.));
#242 = ORIENTED_EDGE('',*,*,#71,.T.);
#243 = ORIENTED_EDGE('',*,*,#244,.T.);
#244 = EDGE_CURVE('',#72,#230,#245,.T.);
#245 = LINE('',#246,#247);
#246 = CARTESIAN_POINT('',(0.,-6.938893903907E-18,0.8));
#247 = VECTOR('',#248,1.);
#248 = DIRECTION('',(1.,0.,0.));
#249 = PLANE('',#250);
#250 = AXIS2_PLACEMENT_3D('',#251,#252,#253);
#251 = CARTESIAN_POINT('',(0.,0.,0.));
#252 = DIRECTION('',(0.,1.,0.));
#253 = DIRECTION('',(0.,0.,1.));
#254 = ADVANCED_FACE('',(#255),#280,.F.);
#255 = FACE_BOUND('',#256,.F.);
#256 = EDGE_LOOP('',(#257,#267,#273,#274));
#257 = ORIENTED_EDGE('',*,*,#258,.T.);
#258 = EDGE_CURVE('',#259,#261,#263,.T.);
#259 = VERTEX_POINT('',#260);
#260 = CARTESIAN_POINT('',(0.5,5.E-02,-6.938893903907E-18));
#261 = VERTEX_POINT('',#262);
#262 = CARTESIAN_POINT('',(0.5,1.2,-6.938893903907E-18));
#263 = LINE('',#264,#265);
#264 = CARTESIAN_POINT('',(0.5,0.,0.));
#265 = VECTOR('',#266,1.);
#266 = DIRECTION('',(0.,1.,0.));
#267 = ORIENTED_EDGE('',*,*,#268,.F.);
#268 = EDGE_CURVE('',#104,#261,#269,.T.);
#269 = LINE('',#270,#271);
#270 = CARTESIAN_POINT('',(0.,1.2,-6.938893903907E-18));
#271 = VECTOR('',#272,1.);
#272 = DIRECTION('',(1.,0.,0.));
#273 = ORIENTED_EDGE('',*,*,#103,.F.);
#274 = ORIENTED_EDGE('',*,*,#275,.T.);
#275 = EDGE_CURVE('',#95,#259,#276,.T.);
#276 = LINE('',#277,#278);
#277 = CARTESIAN_POINT('',(0.,5.E-02,-6.938893903907E-18));
#278 = VECTOR('',#279,1.);
#279 = DIRECTION('',(1.,0.,0.));
#280 = PLANE('',#281);
#281 = AXIS2_PLACEMENT_3D('',#282,#283,#284);
#282 = CARTESIAN_POINT('',(0.,0.,0.));
#283 = DIRECTION('',(0.,0.,1.));
#284 = DIRECTION('',(1.,0.,0.));
#285 = ADVANCED_FACE('',(#286),#297,.T.);
#286 = FACE_BOUND('',#287,.F.);
#287 = EDGE_LOOP('',(#288,#289,#296));
#288 = ORIENTED_EDGE('',*,*,#111,.F.);
#289 = ORIENTED_EDGE('',*,*,#290,.T.);
#290 = EDGE_CURVE('',#104,#162,#291,.T.);
#291 = CIRCLE('',#292,5.E-02);
#292 = AXIS2_PLACEMENT_3D('',#293,#294,#295);
#293 = CARTESIAN_POINT('',(5.E-02,1.2,5.E-02));
#294 = DIRECTION('',(1.,6.123233995737E-17,-0.));
#295 = DIRECTION('',(-6.123233995737E-17,1.,0.));
#296 = ORIENTED_EDGE('',*,*,#161,.F.);
#297 = SPHERICAL_SURFACE('',#298,5.E-02);
#298 = AXIS2_PLACEMENT_3D('',#299,#300,#301);
#299 = CARTESIAN_POINT('',(5.E-02,1.2,5.E-02));
#300 = DIRECTION('',(0.,0.,1.));
#301 = DIRECTION('',(-1.,0.,0.));
#302 = ADVANCED_FACE('',(#303),#328,.T.);
#303 = FACE_BOUND('',#304,.T.);
#304 = EDGE_LOOP('',(#305,#315,#321,#322));
#305 = ORIENTED_EDGE('',*,*,#306,.T.);
#306 = EDGE_CURVE('',#307,#309,#311,.T.);
#307 = VERTEX_POINT('',#308);
#308 = CARTESIAN_POINT('',(0.5,5.E-02,0.85));
#309 = VERTEX_POINT('',#310);
#310 = CARTESIAN_POINT('',(0.5,1.2,0.85));
#311 = LINE('',#312,#313);
#312 = CARTESIAN_POINT('',(0.5,0.,0.85));
#313 = VECTOR('',#314,1.);
#314 = DIRECTION('',(0.,1.,0.));
#315 = ORIENTED_EDGE('',*,*,#316,.F.);
#316 = EDGE_CURVE('',#137,#309,#317,.T.);
#317 = LINE('',#318,#319);
#318 = CARTESIAN_POINT('',(0.,1.2,0.85));
#319 = VECTOR('',#320,1.);
#320 = DIRECTION('',(1.,0.,0.));
#321 = ORIENTED_EDGE('',*,*,#136,.F.);
#322 = ORIENTED_EDGE('',*,*,#323,.T.);
#323 = EDGE_CURVE('',#128,#307,#324,.T.);
#324 = LINE('',#325,#326);
#325 = CARTESIAN_POINT('',(0.,5.E-02,0.85));
#326 = VECTOR('',#327,1.);
#327 = DIRECTION('',(1.,0.,0.));
#328 = PLANE('',#329);
#329 = AXIS2_PLACEMENT_3D('',#330,#331,#332);
#330 = CARTESIAN_POINT('',(0.,0.,0.85));
#331 = DIRECTION('',(0.,0.,1.));
#332 = DIRECTION('',(1.,0.,0.));
#333 = ADVANCED_FACE('',(#334),#345,.T.);
#334 = FACE_BOUND('',#335,.F.);
#335 = EDGE_LOOP('',(#336,#337,#344));
#336 = ORIENTED_EDGE('',*,*,#178,.F.);
#337 = ORIENTED_EDGE('',*,*,#338,.T.);
#338 = EDGE_CURVE('',#171,#137,#339,.T.);
#339 = CIRCLE('',#340,5.E-02);
#340 = AXIS2_PLACEMENT_3D('',#341,#342,#343);
#341 = CARTESIAN_POINT('',(5.E-02,1.2,0.8));
#342 = DIRECTION('',(1.,0.,6.123233995737E-17));
#343 = DIRECTION('',(-6.123233995737E-17,0.,1.));
#344 = ORIENTED_EDGE('',*,*,#144,.F.);
#345 = SPHERICAL_SURFACE('',#346,5.E-02);
#346 = AXIS2_PLACEMENT_3D('',#347,#348,#349);
#347 = CARTESIAN_POINT('',(5.E-02,1.2,0.8));
#348 = DIRECTION('',(-0.,-1.,-0.));
#349 = DIRECTION('',(-1.,0.,0.));
#350 = ADVANCED_FACE('',(#351),#376,.T.);
#351 = FACE_BOUND('',#352,.T.);
#352 = EDGE_LOOP('',(#353,#363,#369,#370));
#353 = ORIENTED_EDGE('',*,*,#354,.F.);
#354 = EDGE_CURVE('',#355,#357,#359,.T.);
#355 = VERTEX_POINT('',#356);
#356 = CARTESIAN_POINT('',(0.5,1.25,5.E-02));
#357 = VERTEX_POINT('',#358);
#358 = CARTESIAN_POINT('',(0.5,1.25,0.8));
#359 = LINE('',#360,#361);
#360 = CARTESIAN_POINT('',(0.5,1.25,0.));
#361 = VECTOR('',#362,1.);
#362 = DIRECTION('',(0.,0.,1.));
#363 = ORIENTED_EDGE('',*,*,#364,.F.);
#364 = EDGE_CURVE('',#162,#355,#365,.T.);
#365 = LINE('',#366,#367);
#366 = CARTESIAN_POINT('',(0.,1.25,5.E-02));
#367 = VECTOR('',#368,1.);
#368 = DIRECTION('',(1.,0.,0.));
#369 = ORIENTED_EDGE('',*,*,#170,.T.);
#370 = ORIENTED_EDGE('',*,*,#371,.T.);
#371 = EDGE_CURVE('',#171,#357,#372,.T.);
#372 = LINE('',#373,#374);
#373 = CARTESIAN_POINT('',(0.,1.25,0.8));
#374 = VECTOR('',#375,1.);
#375 = DIRECTION('',(1.,0.,0.));
#376 = PLANE('',#377);
#377 = AXIS2_PLACEMENT_3D('',#378,#379,#380);
#378 = CARTESIAN_POINT('',(0.,1.25,0.));
#379 = DIRECTION('',(0.,1.,0.));
#380 = DIRECTION('',(0.,0.,1.));
#381 = ADVANCED_FACE('',(#382),#394,.T.);
#382 = FACE_BOUND('',#383,.T.);
#383 = EDGE_LOOP('',(#384,#385,#386,#393));
#384 = ORIENTED_EDGE('',*,*,#194,.F.);
#385 = ORIENTED_EDGE('',*,*,#275,.T.);
#386 = ORIENTED_EDGE('',*,*,#387,.F.);
#387 = EDGE_CURVE('',#228,#259,#388,.T.);
#388 = CIRCLE('',#389,5.E-02);
#389 = AXIS2_PLACEMENT_3D('',#390,#391,#392);
#390 = CARTESIAN_POINT('',(0.5,5.E-02,5.E-02));
#391 = DIRECTION('',(1.,0.,-0.));
#392 = DIRECTION('',(0.,0.,1.));
#393 = ORIENTED_EDGE('',*,*,#237,.F.);
#394 = CYLINDRICAL_SURFACE('',#395,5.E-02);
#395 = AXIS2_PLACEMENT_3D('',#396,#397,#398);
#396 = CARTESIAN_POINT('',(0.,5.E-02,5.E-02));
#397 = DIRECTION('',(1.,0.,0.));
#398 = DIRECTION('',(0.,-1.,0.));
#399 = ADVANCED_FACE('',(#400),#412,.T.);
#400 = FACE_BOUND('',#401,.F.);
#401 = EDGE_LOOP('',(#402,#403,#404,#411));
#402 = ORIENTED_EDGE('',*,*,#211,.F.);
#403 = ORIENTED_EDGE('',*,*,#323,.T.);
#404 = ORIENTED_EDGE('',*,*,#405,.F.);
#405 = EDGE_CURVE('',#230,#307,#406,.T.);
#406 = CIRCLE('',#407,5.E-02);
#407 = AXIS2_PLACEMENT_3D('',#408,#409,#410);
#408 = CARTESIAN_POINT('',(0.5,5.E-02,0.8));
#409 = DIRECTION('',(-1.,0.,0.));
#410 = DIRECTION('',(0.,0.,1.));
#411 = ORIENTED_EDGE('',*,*,#244,.F.);
#412 = CYLINDRICAL_SURFACE('',#413,5.E-02);
#413 = AXIS2_PLACEMENT_3D('',#414,#415,#416);
#414 = CARTESIAN_POINT('',(0.,5.E-02,0.8));
#415 = DIRECTION('',(1.,0.,0.));
#416 = DIRECTION('',(0.,-1.,0.));
#417 = ADVANCED_FACE('',(#418),#440,.T.);
#418 = FACE_BOUND('',#419,.T.);
#419 = EDGE_LOOP('',(#420,#421,#422,#423,#430,#431,#438,#439));
#420 = ORIENTED_EDGE('',*,*,#227,.F.);
#421 = ORIENTED_EDGE('',*,*,#387,.T.);
#422 = ORIENTED_EDGE('',*,*,#258,.T.);
#423 = ORIENTED_EDGE('',*,*,#424,.F.);
#424 = EDGE_CURVE('',#355,#261,#425,.T.);
#425 = CIRCLE('',#426,5.E-02);
#426 = AXIS2_PLACEMENT_3D('',#427,#428,#429);
#427 = CARTESIAN_POINT('',(0.5,1.2,5.E-02));
#428 = DIRECTION('',(-1.,0.,0.));
#429 = DIRECTION('',(0.,0.,1.));
#430 = ORIENTED_EDGE('',*,*,#354,.T.);
#431 = ORIENTED_EDGE('',*,*,#432,.T.);
#432 = EDGE_CURVE('',#357,#309,#433,.T.);
#433 = CIRCLE('',#434,5.E-02);
#434 = AXIS2_PLACEMENT_3D('',#435,#436,#437);
#435 = CARTESIAN_POINT('',(0.5,1.2,0.8));
#436 = DIRECTION('',(1.,0.,-0.));
#437 = DIRECTION('',(0.,0.,1.));
#438 = ORIENTED_EDGE('',*,*,#306,.F.);
#439 = ORIENTED_EDGE('',*,*,#405,.F.);
#440 = PLANE('',#441);
#441 = AXIS2_PLACEMENT_3D('',#442,#443,#444);
#442 = CARTESIAN_POINT('',(0.5,0.,0.));
#443 = DIRECTION('',(1.,0.,0.));
#444 = DIRECTION('',(0.,0.,1.));
#445 = ADVANCED_FACE('',(#446),#452,.T.);
#446 = FACE_BOUND('',#447,.F.);
#447 = EDGE_LOOP('',(#448,#449,#450,#451));
#448 = ORIENTED_EDGE('',*,*,#290,.F.);
#449 = ORIENTED_EDGE('',*,*,#268,.T.);
#450 = ORIENTED_EDGE('',*,*,#424,.F.);
#451 = ORIENTED_EDGE('',*,*,#364,.F.);
#452 = CYLINDRICAL_SURFACE('',#453,5.E-02);
#453 = AXIS2_PLACEMENT_3D('',#454,#455,#456);
#454 = CARTESIAN_POINT('',(0.,1.2,5.E-02));
#455 = DIRECTION('',(1.,0.,0.));
#456 = DIRECTION('',(0.,1.,0.));
#457 = ADVANCED_FACE('',(#458),#464,.T.);
#458 = FACE_BOUND('',#459,.T.);
#459 = EDGE_LOOP('',(#460,#461,#462,#463));
#460 = ORIENTED_EDGE('',*,*,#338,.T.);
#461 = ORIENTED_EDGE('',*,*,#316,.T.);
#462 = ORIENTED_EDGE('',*,*,#432,.F.);
#463 = ORIENTED_EDGE('',*,*,#371,.F.);
#464 = CYLINDRICAL_SURFACE('',#465,5.E-02);
#465 = AXIS2_PLACEMENT_3D('',#466,#467,#468);
#466 = CARTESIAN_POINT('',(0.,1.2,0.8));
#467 = DIRECTION('',(1.,0.,0.));
#468 = DIRECTION('',(0.,1.,0.));
#469 = MANIFOLD_SOLID_BREP('',#470);
#470 = CLOSED_SHELL('',(#471,#547,#578,#603,#628,#652,#676,#701,#726,
    #743,#776,#793,#810,#835,#860,#877,#894,#911));
#471 = ADVANCED_FACE('',(#472),#542,.F.);
#472 = FACE_BOUND('',#473,.F.);
#473 = EDGE_LOOP('',(#474,#484,#493,#501,#510,#518,#527,#535));
#474 = ORIENTED_EDGE('',*,*,#475,.F.);
#475 = EDGE_CURVE('',#476,#478,#480,.T.);
#476 = VERTEX_POINT('',#477);
#477 = CARTESIAN_POINT('',(1.5,-6.938893903907E-18,5.E-02));
#478 = VERTEX_POINT('',#479);
#479 = CARTESIAN_POINT('',(1.5,-6.938893903907E-18,0.8));
#480 = LINE('',#481,#482);
#481 = CARTESIAN_POINT('',(1.5,0.,0.));
#482 = VECTOR('',#483,1.);
#483 = DIRECTION('',(0.,0.,1.));
#484 = ORIENTED_EDGE('',*,*,#485,.T.);
#485 = EDGE_CURVE('',#476,#486,#488,.T.);
#486 = VERTEX_POINT('',#487);
#487 = CARTESIAN_POINT('',(1.5,5.E-02,-6.938893903907E-18));
#488 = CIRCLE('',#489,5.E-02);
#489 = AXIS2_PLACEMENT_3D('',#490,#491,#492);
#490 = CARTESIAN_POINT('',(1.5,5.E-02,5.E-02));
#491 = DIRECTION('',(1.,0.,-0.));
#492 = DIRECTION('',(0.,0.,1.));
#493 = ORIENTED_EDGE('',*,*,#494,.T.);
#494 = EDGE_CURVE('',#486,#495,#497,.T.);
#495 = VERTEX_POINT('',#496);
#496 = CARTESIAN_POINT('',(1.5,1.2,-6.938893903907E-18));
#497 = LINE('',#498,#499);
#498 = CARTESIAN_POINT('',(1.5,0.,0.));
#499 = VECTOR('',#500,1.);
#500 = DIRECTION('',(0.,1.,0.));
#501 = ORIENTED_EDGE('',*,*,#502,.F.);
#502 = EDGE_CURVE('',#503,#495,#505,.T.);
#503 = VERTEX_POINT('',#504);
#504 = CARTESIAN_POINT('',(1.5,1.25,5.E-02));
#505 = CIRCLE('',#506,5.E-02);
#506 = AXIS2_PLACEMENT_3D('',#507,#508,#509);
#507 = CARTESIAN_POINT('',(1.5,1.2,5.E-02));
#508 = DIRECTION('',(-1.,0.,0.));
#509 = DIRECTION('',(0.,0.,1.));
#510 = ORIENTED_EDGE('',*,*,#511,.T.);
#511 = EDGE_CURVE('',#503,#512,#514,.T.);
#512 = VERTEX_POINT('',#513);
#513 = CARTESIAN_POINT('',(1.5,1.25,0.8));
#514 = LINE('',#515,#516);
#515 = CARTESIAN_POINT('',(1.5,1.25,0.));
#516 = VECTOR('',#517,1.);
#517 = DIRECTION('',(0.,0.,1.));
#518 = ORIENTED_EDGE('',*,*,#519,.T.);
#519 = EDGE_CURVE('',#512,#520,#522,.T.);
#520 = VERTEX_POINT('',#521);
#521 = CARTESIAN_POINT('',(1.5,1.2,0.85));
#522 = CIRCLE('',#523,5.E-02);
#523 = AXIS2_PLACEMENT_3D('',#524,#525,#526);
#524 = CARTESIAN_POINT('',(1.5,1.2,0.8));
#525 = DIRECTION('',(1.,0.,-0.));
#526 = DIRECTION('',(0.,0.,1.));
#527 = ORIENTED_EDGE('',*,*,#528,.F.);
#528 = EDGE_CURVE('',#529,#520,#531,.T.);
#529 = VERTEX_POINT('',#530);
#530 = CARTESIAN_POINT('',(1.5,5.E-02,0.85));
#531 = LINE('',#532,#533);
#532 = CARTESIAN_POINT('',(1.5,0.,0.85));
#533 = VECTOR('',#534,1.);
#534 = DIRECTION('',(0.,1.,0.));
#535 = ORIENTED_EDGE('',*,*,#536,.F.);
#536 = EDGE_CURVE('',#478,#529,#537,.T.);
#537 = CIRCLE('',#538,5.E-02);
#538 = AXIS2_PLACEMENT_3D('',#539,#540,#541);
#539 = CARTESIAN_POINT('',(1.5,5.E-02,0.8));
#540 = DIRECTION('',(-1.,0.,0.));
#541 = DIRECTION('',(0.,0.,1.));
#542 = PLANE('',#543);
#543 = AXIS2_PLACEMENT_3D('',#544,#545,#546);
#544 = CARTESIAN_POINT('',(1.5,0.,0.));
#545 = DIRECTION('',(1.,0.,0.));
#546 = DIRECTION('',(0.,0.,1.));
#547 = ADVANCED_FACE('',(#548),#573,.F.);
#548 = FACE_BOUND('',#549,.F.);
#549 = EDGE_LOOP('',(#550,#551,#559,#567));
#550 = ORIENTED_EDGE('',*,*,#475,.T.);
#551 = ORIENTED_EDGE('',*,*,#552,.T.);
#552 = EDGE_CURVE('',#478,#553,#555,.T.);
#553 = VERTEX_POINT('',#554);
#554 = CARTESIAN_POINT('',(1.95,-6.938893903907E-18,0.8));
#555 = LINE('',#556,#557);
#556 = CARTESIAN_POINT('',(1.5,-6.938893903907E-18,0.8));
#557 = VECTOR('',#558,1.);
#558 = DIRECTION('',(1.,0.,0.));
#559 = ORIENTED_EDGE('',*,*,#560,.F.);
#560 = EDGE_CURVE('',#561,#553,#563,.T.);
#561 = VERTEX_POINT('',#562);
#562 = CARTESIAN_POINT('',(1.95,-6.938893903907E-18,5.E-02));
#563 = LINE('',#564,#565);
#564 = CARTESIAN_POINT('',(1.95,-6.938893903907E-18,0.));
#565 = VECTOR('',#566,1.);
#566 = DIRECTION('',(0.,0.,1.));
#567 = ORIENTED_EDGE('',*,*,#568,.F.);
#568 = EDGE_CURVE('',#476,#561,#569,.T.);
#569 = LINE('',#570,#571);
#570 = CARTESIAN_POINT('',(1.5,-6.938893903907E-18,5.E-02));
#571 = VECTOR('',#572,1.);
#572 = DIRECTION('',(1.,0.,0.));
#573 = PLANE('',#574);
#574 = AXIS2_PLACEMENT_3D('',#575,#576,#577);
#575 = CARTESIAN_POINT('',(1.5,0.,0.));
#576 = DIRECTION('',(0.,1.,0.));
#577 = DIRECTION('',(0.,0.,1.));
#578 = ADVANCED_FACE('',(#579),#598,.T.);
#579 = FACE_BOUND('',#580,.T.);
#580 = EDGE_LOOP('',(#581,#582,#590,#597));
#581 = ORIENTED_EDGE('',*,*,#485,.T.);
#582 = ORIENTED_EDGE('',*,*,#583,.T.);
#583 = EDGE_CURVE('',#486,#584,#586,.T.);
#584 = VERTEX_POINT('',#585);
#585 = CARTESIAN_POINT('',(1.95,5.E-02,0.));
#586 = LINE('',#587,#588);
#587 = CARTESIAN_POINT('',(1.5,5.E-02,-6.938893903907E-18));
#588 = VECTOR('',#589,1.);
#589 = DIRECTION('',(1.,0.,0.));
#590 = ORIENTED_EDGE('',*,*,#591,.T.);
#591 = EDGE_CURVE('',#584,#561,#592,.T.);
#592 = CIRCLE('',#593,5.E-02);
#593 = AXIS2_PLACEMENT_3D('',#594,#595,#596);
#594 = CARTESIAN_POINT('',(1.95,5.E-02,5.E-02));
#595 = DIRECTION('',(-1.,-6.123233995737E-17,0.));
#596 = DIRECTION('',(6.123233995737E-17,-1.,0.));
#597 = ORIENTED_EDGE('',*,*,#568,.F.);
#598 = CYLINDRICAL_SURFACE('',#599,5.E-02);
#599 = AXIS2_PLACEMENT_3D('',#600,#601,#602);
#600 = CARTESIAN_POINT('',(1.5,5.E-02,5.E-02));
#601 = DIRECTION('',(1.,0.,0.));
#602 = DIRECTION('',(0.,-1.,0.));
#603 = ADVANCED_FACE('',(#604),#623,.T.);
#604 = FACE_BOUND('',#605,.F.);
#605 = EDGE_LOOP('',(#606,#607,#615,#622));
#606 = ORIENTED_EDGE('',*,*,#536,.T.);
#607 = ORIENTED_EDGE('',*,*,#608,.T.);
#608 = EDGE_CURVE('',#529,#609,#611,.T.);
#609 = VERTEX_POINT('',#610);
#610 = CARTESIAN_POINT('',(1.95,5.E-02,0.85));
#611 = LINE('',#612,#613);
#612 = CARTESIAN_POINT('',(1.5,5.E-02,0.85));
#613 = VECTOR('',#614,1.);
#614 = DIRECTION('',(1.,0.,0.));
#615 = ORIENTED_EDGE('',*,*,#616,.T.);
#616 = EDGE_CURVE('',#609,#553,#617,.T.);
#617 = CIRCLE('',#618,5.E-02);
#618 = AXIS2_PLACEMENT_3D('',#619,#620,#621);
#619 = CARTESIAN_POINT('',(1.95,5.E-02,0.8));
#620 = DIRECTION('',(1.,6.123233995737E-17,0.));
#621 = DIRECTION('',(6.123233995737E-17,-1.,0.));
#622 = ORIENTED_EDGE('',*,*,#552,.F.);
#623 = CYLINDRICAL_SURFACE('',#624,5.E-02);
#624 = AXIS2_PLACEMENT_3D('',#625,#626,#627);
#625 = CARTESIAN_POINT('',(1.5,5.E-02,0.8));
#626 = DIRECTION('',(1.,0.,0.));
#627 = DIRECTION('',(0.,-1.,0.));
#628 = ADVANCED_FACE('',(#629),#647,.F.);
#629 = FACE_BOUND('',#630,.F.);
#630 = EDGE_LOOP('',(#631,#632,#633,#641));
#631 = ORIENTED_EDGE('',*,*,#494,.F.);
#632 = ORIENTED_EDGE('',*,*,#583,.T.);
#633 = ORIENTED_EDGE('',*,*,#634,.T.);
#634 = EDGE_CURVE('',#584,#635,#637,.T.);
#635 = VERTEX_POINT('',#636);
#636 = CARTESIAN_POINT('',(1.95,1.2,0.));
#637 = LINE('',#638,#639);
#638 = CARTESIAN_POINT('',(1.95,0.,-6.938893903907E-18));
#639 = VECTOR('',#640,1.);
#640 = DIRECTION('',(0.,1.,0.));
#641 = ORIENTED_EDGE('',*,*,#642,.F.);
#642 = EDGE_CURVE('',#495,#635,#643,.T.);
#643 = LINE('',#644,#645);
#644 = CARTESIAN_POINT('',(1.5,1.2,-6.938893903907E-18));
#645 = VECTOR('',#646,1.);
#646 = DIRECTION('',(1.,0.,0.));
#647 = PLANE('',#648);
#648 = AXIS2_PLACEMENT_3D('',#649,#650,#651);
#649 = CARTESIAN_POINT('',(1.5,0.,0.));
#650 = DIRECTION('',(0.,0.,1.));
#651 = DIRECTION('',(1.,0.,0.));
#652 = ADVANCED_FACE('',(#653),#671,.T.);
#653 = FACE_BOUND('',#654,.T.);
#654 = EDGE_LOOP('',(#655,#656,#657,#665));
#655 = ORIENTED_EDGE('',*,*,#528,.F.);
#656 = ORIENTED_EDGE('',*,*,#608,.T.);
#657 = ORIENTED_EDGE('',*,*,#658,.T.);
#658 = EDGE_CURVE('',#609,#659,#661,.T.);
#659 = VERTEX_POINT('',#660);
#660 = CARTESIAN_POINT('',(1.95,1.2,0.85));
#661 = LINE('',#662,#663);
#662 = CARTESIAN_POINT('',(1.95,0.,0.85));
#663 = VECTOR('',#664,1.);
#664 = DIRECTION('',(0.,1.,0.));
#665 = ORIENTED_EDGE('',*,*,#666,.F.);
#666 = EDGE_CURVE('',#520,#659,#667,.T.);
#667 = LINE('',#668,#669);
#668 = CARTESIAN_POINT('',(1.5,1.2,0.85));
#669 = VECTOR('',#670,1.);
#670 = DIRECTION('',(1.,0.,0.));
#671 = PLANE('',#672);
#672 = AXIS2_PLACEMENT_3D('',#673,#674,#675);
#673 = CARTESIAN_POINT('',(1.5,0.,0.85));
#674 = DIRECTION('',(0.,0.,1.));
#675 = DIRECTION('',(1.,0.,0.));
#676 = ADVANCED_FACE('',(#677),#696,.T.);
#677 = FACE_BOUND('',#678,.F.);
#678 = EDGE_LOOP('',(#679,#680,#681,#690));
#679 = ORIENTED_EDGE('',*,*,#502,.T.);
#680 = ORIENTED_EDGE('',*,*,#642,.T.);
#681 = ORIENTED_EDGE('',*,*,#682,.T.);
#682 = EDGE_CURVE('',#635,#683,#685,.T.);
#683 = VERTEX_POINT('',#684);
#684 = CARTESIAN_POINT('',(1.95,1.25,5.E-02));
#685 = CIRCLE('',#686,5.E-02);
#686 = AXIS2_PLACEMENT_3D('',#687,#688,#689);
#687 = CARTESIAN_POINT('',(1.95,1.2,5.E-02));
#688 = DIRECTION('',(1.,-6.123233995737E-17,0.));
#689 = DIRECTION('',(6.123233995737E-17,1.,0.));
#690 = ORIENTED_EDGE('',*,*,#691,.F.);
#691 = EDGE_CURVE('',#503,#683,#692,.T.);
#692 = LINE('',#693,#694);
#693 = CARTESIAN_POINT('',(1.5,1.25,5.E-02));
#694 = VECTOR('',#695,1.);
#695 = DIRECTION('',(1.,0.,0.));
#696 = CYLINDRICAL_SURFACE('',#697,5.E-02);
#697 = AXIS2_PLACEMENT_3D('',#698,#699,#700);
#698 = CARTESIAN_POINT('',(1.5,1.2,5.E-02));
#699 = DIRECTION('',(1.,0.,0.));
#700 = DIRECTION('',(0.,1.,0.));
#701 = ADVANCED_FACE('',(#702),#721,.T.);
#702 = FACE_BOUND('',#703,.T.);
#703 = EDGE_LOOP('',(#704,#705,#706,#715));
#704 = ORIENTED_EDGE('',*,*,#519,.T.);
#705 = ORIENTED_EDGE('',*,*,#666,.T.);
#706 = ORIENTED_EDGE('',*,*,#707,.F.);
#707 = EDGE_CURVE('',#708,#659,#710,.T.);
#708 = VERTEX_POINT('',#709);
#709 = CARTESIAN_POINT('',(1.95,1.25,0.8));
#710 = CIRCLE('',#711,5.E-02);
#711 = AXIS2_PLACEMENT_3D('',#712,#713,#714);
#712 = CARTESIAN_POINT('',(1.95,1.2,0.8));
#713 = DIRECTION('',(1.,0.,-6.123233995737E-17));
#714 = DIRECTION('',(6.123233995737E-17,0.,1.));
#715 = ORIENTED_EDGE('',*,*,#716,.F.);
#716 = EDGE_CURVE('',#512,#708,#717,.T.);
#717 = LINE('',#718,#719);
#718 = CARTESIAN_POINT('',(1.5,1.25,0.8));
#719 = VECTOR('',#720,1.);
#720 = DIRECTION('',(1.,0.,0.));
#721 = CYLINDRICAL_SURFACE('',#722,5.E-02);
#722 = AXIS2_PLACEMENT_3D('',#723,#724,#725);
#723 = CARTESIAN_POINT('',(1.5,1.2,0.8));
#724 = DIRECTION('',(1.,0.,0.));
#725 = DIRECTION('',(0.,1.,0.));
#726 = ADVANCED_FACE('',(#727),#738,.T.);
#727 = FACE_BOUND('',#728,.T.);
#728 = EDGE_LOOP('',(#729,#730,#731,#737));
#729 = ORIENTED_EDGE('',*,*,#511,.T.);
#730 = ORIENTED_EDGE('',*,*,#716,.T.);
#731 = ORIENTED_EDGE('',*,*,#732,.F.);
#732 = EDGE_CURVE('',#683,#708,#733,.T.);
#733 = LINE('',#734,#735);
#734 = CARTESIAN_POINT('',(1.95,1.25,0.));
#735 = VECTOR('',#736,1.);
#736 = DIRECTION('',(0.,0.,1.));
#737 = ORIENTED_EDGE('',*,*,#691,.F.);
#738 = PLANE('',#739);
#739 = AXIS2_PLACEMENT_3D('',#740,#741,#742);
#740 = CARTESIAN_POINT('',(1.5,1.25,0.));
#741 = DIRECTION('',(0.,1.,0.));
#742 = DIRECTION('',(0.,0.,1.));
#743 = ADVANCED_FACE('',(#744),#771,.T.);
#744 = FACE_BOUND('',#745,.F.);
#745 = EDGE_LOOP('',(#746,#756,#763,#764));
#746 = ORIENTED_EDGE('',*,*,#747,.F.);
#747 = EDGE_CURVE('',#748,#750,#752,.T.);
#748 = VERTEX_POINT('',#749);
#749 = CARTESIAN_POINT('',(2.,5.E-02,5.E-02));
#750 = VERTEX_POINT('',#751);
#751 = CARTESIAN_POINT('',(2.,5.E-02,0.8));
#752 = LINE('',#753,#754);
#753 = CARTESIAN_POINT('',(2.,5.E-02,0.));
#754 = VECTOR('',#755,1.);
#755 = DIRECTION('',(0.,0.,1.));
#756 = ORIENTED_EDGE('',*,*,#757,.T.);
#757 = EDGE_CURVE('',#748,#561,#758,.T.);
#758 = CIRCLE('',#759,5.E-02);
#759 = AXIS2_PLACEMENT_3D('',#760,#761,#762);
#760 = CARTESIAN_POINT('',(1.95,5.E-02,5.E-02));
#761 = DIRECTION('',(0.,0.,-1.));
#762 = DIRECTION('',(1.,0.,0.));
#763 = ORIENTED_EDGE('',*,*,#560,.T.);
#764 = ORIENTED_EDGE('',*,*,#765,.F.);
#765 = EDGE_CURVE('',#750,#553,#766,.T.);
#766 = CIRCLE('',#767,5.E-02);
#767 = AXIS2_PLACEMENT_3D('',#768,#769,#770);
#768 = CARTESIAN_POINT('',(1.95,5.E-02,0.8));
#769 = DIRECTION('',(0.,0.,-1.));
#770 = DIRECTION('',(1.,0.,0.));
#771 = CYLINDRICAL_SURFACE('',#772,5.E-02);
#772 = AXIS2_PLACEMENT_3D('',#773,#774,#775);
#773 = CARTESIAN_POINT('',(1.95,5.E-02,0.));
#774 = DIRECTION('',(0.,0.,1.));
#775 = DIRECTION('',(1.,0.,0.));
#776 = ADVANCED_FACE('',(#777),#788,.T.);
#777 = FACE_BOUND('',#778,.F.);
#778 = EDGE_LOOP('',(#779,#786,#787));
#779 = ORIENTED_EDGE('',*,*,#780,.F.);
#780 = EDGE_CURVE('',#584,#748,#781,.T.);
#781 = CIRCLE('',#782,5.E-02);
#782 = AXIS2_PLACEMENT_3D('',#783,#784,#785);
#783 = CARTESIAN_POINT('',(1.95,5.E-02,5.E-02));
#784 = DIRECTION('',(0.,-1.,0.));
#785 = DIRECTION('',(1.,0.,0.));
#786 = ORIENTED_EDGE('',*,*,#591,.T.);
#787 = ORIENTED_EDGE('',*,*,#757,.F.);
#788 = SPHERICAL_SURFACE('',#789,5.E-02);
#789 = AXIS2_PLACEMENT_3D('',#790,#791,#792);
#790 = CARTESIAN_POINT('',(1.95,5.E-02,5.E-02));
#791 = DIRECTION('',(0.,0.,1.));
#792 = DIRECTION('',(1.,0.,0.));
#793 = ADVANCED_FACE('',(#794),#805,.T.);
#794 = FACE_BOUND('',#795,.T.);
#795 = EDGE_LOOP('',(#796,#803,#804));
#796 = ORIENTED_EDGE('',*,*,#797,.F.);
#797 = EDGE_CURVE('',#609,#750,#798,.T.);
#798 = CIRCLE('',#799,5.E-02);
#799 = AXIS2_PLACEMENT_3D('',#800,#801,#802);
#800 = CARTESIAN_POINT('',(1.95,5.E-02,0.8));
#801 = DIRECTION('',(-0.,1.,0.));
#802 = DIRECTION('',(1.,0.,0.));
#803 = ORIENTED_EDGE('',*,*,#616,.T.);
#804 = ORIENTED_EDGE('',*,*,#765,.F.);
#805 = SPHERICAL_SURFACE('',#806,5.E-02);
#806 = AXIS2_PLACEMENT_3D('',#807,#808,#809);
#807 = CARTESIAN_POINT('',(1.95,5.E-02,0.8));
#808 = DIRECTION('',(-0.,-0.,-1.));
#809 = DIRECTION('',(1.,0.,0.));
#810 = ADVANCED_FACE('',(#811),#830,.T.);
#811 = FACE_BOUND('',#812,.T.);
#812 = EDGE_LOOP('',(#813,#814,#815,#824));
#813 = ORIENTED_EDGE('',*,*,#780,.F.);
#814 = ORIENTED_EDGE('',*,*,#634,.T.);
#815 = ORIENTED_EDGE('',*,*,#816,.T.);
#816 = EDGE_CURVE('',#635,#817,#819,.T.);
#817 = VERTEX_POINT('',#818);
#818 = CARTESIAN_POINT('',(2.,1.2,5.E-02));
#819 = CIRCLE('',#820,5.E-02);
#820 = AXIS2_PLACEMENT_3D('',#821,#822,#823);
#821 = CARTESIAN_POINT('',(1.95,1.2,5.E-02));
#822 = DIRECTION('',(0.,-1.,0.));
#823 = DIRECTION('',(1.,0.,0.));
#824 = ORIENTED_EDGE('',*,*,#825,.F.);
#825 = EDGE_CURVE('',#748,#817,#826,.T.);
#826 = LINE('',#827,#828);
#827 = CARTESIAN_POINT('',(2.,0.,5.E-02));
#828 = VECTOR('',#829,1.);
#829 = DIRECTION('',(0.,1.,0.));
#830 = CYLINDRICAL_SURFACE('',#831,5.E-02);
#831 = AXIS2_PLACEMENT_3D('',#832,#833,#834);
#832 = CARTESIAN_POINT('',(1.95,0.,5.E-02));
#833 = DIRECTION('',(0.,1.,0.));
#834 = DIRECTION('',(1.,0.,0.));
#835 = ADVANCED_FACE('',(#836),#855,.T.);
#836 = FACE_BOUND('',#837,.F.);
#837 = EDGE_LOOP('',(#838,#839,#840,#849));
#838 = ORIENTED_EDGE('',*,*,#797,.F.);
#839 = ORIENTED_EDGE('',*,*,#658,.T.);
#840 = ORIENTED_EDGE('',*,*,#841,.F.);
#841 = EDGE_CURVE('',#842,#659,#844,.T.);
#842 = VERTEX_POINT('',#843);
#843 = CARTESIAN_POINT('',(2.,1.2,0.8));
#844 = CIRCLE('',#845,5.E-02);
#845 = AXIS2_PLACEMENT_3D('',#846,#847,#848);
#846 = CARTESIAN_POINT('',(1.95,1.2,0.8));
#847 = DIRECTION('',(0.,-1.,0.));
#848 = DIRECTION('',(1.,0.,0.));
#849 = ORIENTED_EDGE('',*,*,#850,.F.);
#850 = EDGE_CURVE('',#750,#842,#851,.T.);
#851 = LINE('',#852,#853);
#852 = CARTESIAN_POINT('',(2.,0.,0.8));
#853 = VECTOR('',#854,1.);
#854 = DIRECTION('',(0.,1.,0.));
#855 = CYLINDRICAL_SURFACE('',#856,5.E-02);
#856 = AXIS2_PLACEMENT_3D('',#857,#858,#859);
#857 = CARTESIAN_POINT('',(1.95,0.,0.8));
#858 = DIRECTION('',(0.,1.,0.));
#859 = DIRECTION('',(1.,0.,0.));
#860 = ADVANCED_FACE('',(#861),#872,.T.);
#861 = FACE_BOUND('',#862,.T.);
#862 = EDGE_LOOP('',(#863,#864,#865));
#863 = ORIENTED_EDGE('',*,*,#816,.F.);
#864 = ORIENTED_EDGE('',*,*,#682,.T.);
#865 = ORIENTED_EDGE('',*,*,#866,.F.);
#866 = EDGE_CURVE('',#817,#683,#867,.T.);
#867 = CIRCLE('',#868,5.E-02);
#868 = AXIS2_PLACEMENT_3D('',#869,#870,#871);
#869 = CARTESIAN_POINT('',(1.95,1.2,5.E-02));
#870 = DIRECTION('',(0.,0.,1.));
#871 = DIRECTION('',(1.,0.,0.));
#872 = SPHERICAL_SURFACE('',#873,5.E-02);
#873 = AXIS2_PLACEMENT_3D('',#874,#875,#876);
#874 = CARTESIAN_POINT('',(1.95,1.2,5.E-02));
#875 = DIRECTION('',(0.,0.,1.));
#876 = DIRECTION('',(1.,0.,0.));
#877 = ADVANCED_FACE('',(#878),#889,.T.);
#878 = FACE_BOUND('',#879,.T.);
#879 = EDGE_LOOP('',(#880,#887,#888));
#880 = ORIENTED_EDGE('',*,*,#881,.F.);
#881 = EDGE_CURVE('',#708,#842,#882,.T.);
#882 = CIRCLE('',#883,5.E-02);
#883 = AXIS2_PLACEMENT_3D('',#884,#885,#886);
#884 = CARTESIAN_POINT('',(1.95,1.2,0.8));
#885 = DIRECTION('',(0.,0.,-1.));
#886 = DIRECTION('',(1.,0.,0.));
#887 = ORIENTED_EDGE('',*,*,#707,.T.);
#888 = ORIENTED_EDGE('',*,*,#841,.F.);
#889 = SPHERICAL_SURFACE('',#890,5.E-02);
#890 = AXIS2_PLACEMENT_3D('',#891,#892,#893);
#891 = CARTESIAN_POINT('',(1.95,1.2,0.8));
#892 = DIRECTION('',(-0.,-1.,-0.));
#893 = DIRECTION('',(1.,0.,0.));
#894 = ADVANCED_FACE('',(#895),#906,.T.);
#895 = FACE_BOUND('',#896,.T.);
#896 = EDGE_LOOP('',(#897,#903,#904,#905));
#897 = ORIENTED_EDGE('',*,*,#898,.F.);
#898 = EDGE_CURVE('',#817,#842,#899,.T.);
#899 = LINE('',#900,#901);
#900 = CARTESIAN_POINT('',(2.,1.2,0.));
#901 = VECTOR('',#902,1.);
#902 = DIRECTION('',(0.,0.,1.));
#903 = ORIENTED_EDGE('',*,*,#866,.T.);
#904 = ORIENTED_EDGE('',*,*,#732,.T.);
#905 = ORIENTED_EDGE('',*,*,#881,.T.);
#906 = CYLINDRICAL_SURFACE('',#907,5.E-02);
#907 = AXIS2_PLACEMENT_3D('',#908,#909,#910);
#908 = CARTESIAN_POINT('',(1.95,1.2,0.));
#909 = DIRECTION('',(0.,0.,1.));
#910 = DIRECTION('',(1.,0.,0.));
#911 = ADVANCED_FACE('',(#912),#918,.T.);
#912 = FACE_BOUND('',#913,.T.);
#913 = EDGE_LOOP('',(#914,#915,#916,#917));
#914 = ORIENTED_EDGE('',*,*,#747,.F.);
#915 = ORIENTED_EDGE('',*,*,#825,.T.);
#916 = ORIENTED_EDGE('',*,*,#898,.T.);
#917 = ORIENTED_EDGE('',*,*,#850,.F.);
#918 = PLANE('',#919);
#919 = AXIS2_PLACEMENT_3D('',#920,#921,#922);
#920 = CARTESIAN_POINT('',(2.,0.,0.));
#921 = DIRECTION('',(1.,0.,0.));
#922 = DIRECTION('',(0.,0.,1.));
#923 = MANIFOLD_SOLID_BREP('',#924);
#924 = CLOSED_SHELL('',(#925,#1001,#1032,#1057,#1082,#1106,#1130,#1155,
    #1180,#1197));
#925 = ADVANCED_FACE('',(#926),#996,.F.);
#926 = FACE_BOUND('',#927,.F.);
#927 = EDGE_LOOP('',(#928,#938,#947,#955,#964,#972,#981,#989));
#928 = ORIENTED_EDGE('',*,*,#929,.F.);
#929 = EDGE_CURVE('',#930,#932,#934,.T.);
#930 = VERTEX_POINT('',#931);
#931 = CARTESIAN_POINT('',(0.5,-6.938893903907E-18,5.E-02));
#932 = VERTEX_POINT('',#933);
#933 = CARTESIAN_POINT('',(0.5,-6.938893903907E-18,0.8));
#934 = LINE('',#935,#936);
#935 = CARTESIAN_POINT('',(0.5,0.,0.));
#936 = VECTOR('',#937,1.);
#937 = DIRECTION('',(0.,0.,1.));
#938 = ORIENTED_EDGE('',*,*,#939,.T.);
#939 = EDGE_CURVE('',#930,#940,#942,.T.);
#940 = VERTEX_POINT('',#941);
#941 = CARTESIAN_POINT('',(0.5,5.E-02,-6.938893903907E-18));
#942 = CIRCLE('',#943,5.E-02);
#943 = AXIS2_PLACEMENT_3D('',#944,#945,#946);
#944 = CARTESIAN_POINT('',(0.5,5.E-02,5.E-02));
#945 = DIRECTION('',(1.,0.,-0.));
#946 = DIRECTION('',(0.,0.,1.));
#947 = ORIENTED_EDGE('',*,*,#948,.T.);
#948 = EDGE_CURVE('',#940,#949,#951,.T.);
#949 = VERTEX_POINT('',#950);
#950 = CARTESIAN_POINT('',(0.5,1.2,-6.938893903907E-18));
#951 = LINE('',#952,#953);
#952 = CARTESIAN_POINT('',(0.5,0.,0.));
#953 = VECTOR('',#954,1.);
#954 = DIRECTION('',(0.,1.,0.));
#955 = ORIENTED_EDGE('',*,*,#956,.F.);
#956 = EDGE_CURVE('',#957,#949,#959,.T.);
#957 = VERTEX_POINT('',#958);
#958 = CARTESIAN_POINT('',(0.5,1.25,5.E-02));
#959 = CIRCLE('',#960,5.E-02);
#960 = AXIS2_PLACEMENT_3D('',#961,#962,#963);
#961 = CARTESIAN_POINT('',(0.5,1.2,5.E-02));
#962 = DIRECTION('',(-1.,0.,0.));
#963 = DIRECTION('',(0.,0.,1.));
#964 = ORIENTED_EDGE('',*,*,#965,.T.);
#965 = EDGE_CURVE('',#957,#966,#968,.T.);
#966 = VERTEX_POINT('',#967);
#967 = CARTESIAN_POINT('',(0.5,1.25,0.8));
#968 = LINE('',#969,#970);
#969 = CARTESIAN_POINT('',(0.5,1.25,0.));
#970 = VECTOR('',#971,1.);
#971 = DIRECTION('',(0.,0.,1.));
#972 = ORIENTED_EDGE('',*,*,#973,.T.);
#973 = EDGE_CURVE('',#966,#974,#976,.T.);
#974 = VERTEX_POINT('',#975);
#975 = CARTESIAN_POINT('',(0.5,1.2,0.85));
#976 = CIRCLE('',#977,5.E-02);
#977 = AXIS2_PLACEMENT_3D('',#978,#979,#980);
#978 = CARTESIAN_POINT('',(0.5,1.2,0.8));
#979 = DIRECTION('',(1.,0.,-0.));
#980 = DIRECTION('',(0.,0.,1.));
#981 = ORIENTED_EDGE('',*,*,#982,.F.);
#982 = EDGE_CURVE('',#983,#974,#985,.T.);
#983 = VERTEX_POINT('',#984);
#984 = CARTESIAN_POINT('',(0.5,5.E-02,0.85));
#985 = LINE('',#986,#987);
#986 = CARTESIAN_POINT('',(0.5,0.,0.85));
#987 = VECTOR('',#988,1.);
#988 = DIRECTION('',(0.,1.,0.));
#989 = ORIENTED_EDGE('',*,*,#990,.F.);
#990 = EDGE_CURVE('',#932,#983,#991,.T.);
#991 = CIRCLE('',#992,5.E-02);
#992 = AXIS2_PLACEMENT_3D('',#993,#994,#995);
#993 = CARTESIAN_POINT('',(0.5,5.E-02,0.8));
#994 = DIRECTION('',(-1.,0.,0.));
#995 = DIRECTION('',(0.,0.,1.));
#996 = PLANE('',#997);
#997 = AXIS2_PLACEMENT_3D('',#998,#999,#1000);
#998 = CARTESIAN_POINT('',(0.5,0.,0.));
#999 = DIRECTION('',(1.,0.,0.));
#1000 = DIRECTION('',(0.,0.,1.));
#1001 = ADVANCED_FACE('',(#1002),#1027,.F.);
#1002 = FACE_BOUND('',#1003,.F.);
#1003 = EDGE_LOOP('',(#1004,#1014,#1020,#1021));
#1004 = ORIENTED_EDGE('',*,*,#1005,.F.);
#1005 = EDGE_CURVE('',#1006,#1008,#1010,.T.);
#1006 = VERTEX_POINT('',#1007);
#1007 = CARTESIAN_POINT('',(1.5,-6.938893903907E-18,5.E-02));
#1008 = VERTEX_POINT('',#1009);
#1009 = CARTESIAN_POINT('',(1.5,-6.938893903907E-18,0.8));
#1010 = LINE('',#1011,#1012);
#1011 = CARTESIAN_POINT('',(1.5,0.,0.));
#1012 = VECTOR('',#1013,1.);
#1013 = DIRECTION('',(0.,0.,1.));
#1014 = ORIENTED_EDGE('',*,*,#1015,.F.);
#1015 = EDGE_CURVE('',#930,#1006,#1016,.T.);
#1016 = LINE('',#1017,#1018);
#1017 = CARTESIAN_POINT('',(0.5,-6.938893903907E-18,5.E-02));
#1018 = VECTOR('',#1019,1.);
#1019 = DIRECTION('',(1.,0.,0.));
#1020 = ORIENTED_EDGE('',*,*,#929,.T.);
#1021 = ORIENTED_EDGE('',*,*,#1022,.T.);
#1022 = EDGE_CURVE('',#932,#1008,#1023,.T.);
#1023 = LINE('',#1024,#1025);
#1024 = CARTESIAN_POINT('',(0.5,-6.938893903907E-18,0.8));
#1025 = VECTOR('',#1026,1.);
#1026 = DIRECTION('',(1.,0.,0.));
#1027 = PLANE('',#1028);
#1028 = AXIS2_PLACEMENT_3D('',#1029,#1030,#1031);
#1029 = CARTESIAN_POINT('',(0.5,0.,0.));
#1030 = DIRECTION('',(0.,1.,0.));
#1031 = DIRECTION('',(0.,0.,1.));
#1032 = ADVANCED_FACE('',(#1033),#1052,.T.);
#1033 = FACE_BOUND('',#1034,.T.);
#1034 = EDGE_LOOP('',(#1035,#1036,#1044,#1051));
#1035 = ORIENTED_EDGE('',*,*,#939,.T.);
#1036 = ORIENTED_EDGE('',*,*,#1037,.T.);
#1037 = EDGE_CURVE('',#940,#1038,#1040,.T.);
#1038 = VERTEX_POINT('',#1039);
#1039 = CARTESIAN_POINT('',(1.5,5.E-02,-6.938893903907E-18));
#1040 = LINE('',#1041,#1042);
#1041 = CARTESIAN_POINT('',(0.5,5.E-02,-6.938893903907E-18));
#1042 = VECTOR('',#1043,1.);
#1043 = DIRECTION('',(1.,0.,0.));
#1044 = ORIENTED_EDGE('',*,*,#1045,.F.);
#1045 = EDGE_CURVE('',#1006,#1038,#1046,.T.);
#1046 = CIRCLE('',#1047,5.E-02);
#1047 = AXIS2_PLACEMENT_3D('',#1048,#1049,#1050);
#1048 = CARTESIAN_POINT('',(1.5,5.E-02,5.E-02));
#1049 = DIRECTION('',(1.,0.,-0.));
#1050 = DIRECTION('',(0.,0.,1.));
#1051 = ORIENTED_EDGE('',*,*,#1015,.F.);
#1052 = CYLINDRICAL_SURFACE('',#1053,5.E-02);
#1053 = AXIS2_PLACEMENT_3D('',#1054,#1055,#1056);
#1054 = CARTESIAN_POINT('',(0.5,5.E-02,5.E-02));
#1055 = DIRECTION('',(1.,0.,0.));
#1056 = DIRECTION('',(0.,-1.,0.));
#1057 = ADVANCED_FACE('',(#1058),#1077,.T.);
#1058 = FACE_BOUND('',#1059,.F.);
#1059 = EDGE_LOOP('',(#1060,#1061,#1069,#1076));
#1060 = ORIENTED_EDGE('',*,*,#990,.T.);
#1061 = ORIENTED_EDGE('',*,*,#1062,.T.);
#1062 = EDGE_CURVE('',#983,#1063,#1065,.T.);
#1063 = VERTEX_POINT('',#1064);
#1064 = CARTESIAN_POINT('',(1.5,5.E-02,0.85));
#1065 = LINE('',#1066,#1067);
#1066 = CARTESIAN_POINT('',(0.5,5.E-02,0.85));
#1067 = VECTOR('',#1068,1.);
#1068 = DIRECTION('',(1.,0.,0.));
#1069 = ORIENTED_EDGE('',*,*,#1070,.F.);
#1070 = EDGE_CURVE('',#1008,#1063,#1071,.T.);
#1071 = CIRCLE('',#1072,5.E-02);
#1072 = AXIS2_PLACEMENT_3D('',#1073,#1074,#1075);
#1073 = CARTESIAN_POINT('',(1.5,5.E-02,0.8));
#1074 = DIRECTION('',(-1.,0.,0.));
#1075 = DIRECTION('',(0.,0.,1.));
#1076 = ORIENTED_EDGE('',*,*,#1022,.F.);
#1077 = CYLINDRICAL_SURFACE('',#1078,5.E-02);
#1078 = AXIS2_PLACEMENT_3D('',#1079,#1080,#1081);
#1079 = CARTESIAN_POINT('',(0.5,5.E-02,0.8));
#1080 = DIRECTION('',(1.,0.,0.));
#1081 = DIRECTION('',(0.,-1.,0.));
#1082 = ADVANCED_FACE('',(#1083),#1101,.F.);
#1083 = FACE_BOUND('',#1084,.F.);
#1084 = EDGE_LOOP('',(#1085,#1086,#1087,#1095));
#1085 = ORIENTED_EDGE('',*,*,#948,.F.);
#1086 = ORIENTED_EDGE('',*,*,#1037,.T.);
#1087 = ORIENTED_EDGE('',*,*,#1088,.T.);
#1088 = EDGE_CURVE('',#1038,#1089,#1091,.T.);
#1089 = VERTEX_POINT('',#1090);
#1090 = CARTESIAN_POINT('',(1.5,1.2,-6.938893903907E-18));
#1091 = LINE('',#1092,#1093);
#1092 = CARTESIAN_POINT('',(1.5,0.,0.));
#1093 = VECTOR('',#1094,1.);
#1094 = DIRECTION('',(0.,1.,0.));
#1095 = ORIENTED_EDGE('',*,*,#1096,.F.);
#1096 = EDGE_CURVE('',#949,#1089,#1097,.T.);
#1097 = LINE('',#1098,#1099);
#1098 = CARTESIAN_POINT('',(0.5,1.2,-6.938893903907E-18));
#1099 = VECTOR('',#1100,1.);
#1100 = DIRECTION('',(1.,0.,0.));
#1101 = PLANE('',#1102);
#1102 = AXIS2_PLACEMENT_3D('',#1103,#1104,#1105);
#1103 = CARTESIAN_POINT('',(0.5,0.,0.));
#1104 = DIRECTION('',(0.,0.,1.));
#1105 = DIRECTION('',(1.,0.,0.));
#1106 = ADVANCED_FACE('',(#1107),#1125,.T.);
#1107 = FACE_BOUND('',#1108,.T.);
#1108 = EDGE_LOOP('',(#1109,#1110,#1111,#1119));
#1109 = ORIENTED_EDGE('',*,*,#982,.F.);
#1110 = ORIENTED_EDGE('',*,*,#1062,.T.);
#1111 = ORIENTED_EDGE('',*,*,#1112,.T.);
#1112 = EDGE_CURVE('',#1063,#1113,#1115,.T.);
#1113 = VERTEX_POINT('',#1114);
#1114 = CARTESIAN_POINT('',(1.5,1.2,0.85));
#1115 = LINE('',#1116,#1117);
#1116 = CARTESIAN_POINT('',(1.5,0.,0.85));
#1117 = VECTOR('',#1118,1.);
#1118 = DIRECTION('',(0.,1.,0.));
#1119 = ORIENTED_EDGE('',*,*,#1120,.F.);
#1120 = EDGE_CURVE('',#974,#1113,#1121,.T.);
#1121 = LINE('',#1122,#1123);
#1122 = CARTESIAN_POINT('',(0.5,1.2,0.85));
#1123 = VECTOR('',#1124,1.);
#1124 = DIRECTION('',(1.,0.,0.));
#1125 = PLANE('',#1126);
#1126 = AXIS2_PLACEMENT_3D('',#1127,#1128,#1129);
#1127 = CARTESIAN_POINT('',(0.5,0.,0.85));
#1128 = DIRECTION('',(0.,0.,1.));
#1129 = DIRECTION('',(1.,0.,0.));
#1130 = ADVANCED_FACE('',(#1131),#1150,.T.);
#1131 = FACE_BOUND('',#1132,.F.);
#1132 = EDGE_LOOP('',(#1133,#1134,#1135,#1144));
#1133 = ORIENTED_EDGE('',*,*,#956,.T.);
#1134 = ORIENTED_EDGE('',*,*,#1096,.T.);
#1135 = ORIENTED_EDGE('',*,*,#1136,.F.);
#1136 = EDGE_CURVE('',#1137,#1089,#1139,.T.);
#1137 = VERTEX_POINT('',#1138);
#1138 = CARTESIAN_POINT('',(1.5,1.25,5.E-02));
#1139 = CIRCLE('',#1140,5.E-02);
#1140 = AXIS2_PLACEMENT_3D('',#1141,#1142,#1143);
#1141 = CARTESIAN_POINT('',(1.5,1.2,5.E-02));
#1142 = DIRECTION('',(-1.,0.,0.));
#1143 = DIRECTION('',(0.,0.,1.));
#1144 = ORIENTED_EDGE('',*,*,#1145,.F.);
#1145 = EDGE_CURVE('',#957,#1137,#1146,.T.);
#1146 = LINE('',#1147,#1148);
#1147 = CARTESIAN_POINT('',(0.5,1.25,5.E-02));
#1148 = VECTOR('',#1149,1.);
#1149 = DIRECTION('',(1.,0.,0.));
#1150 = CYLINDRICAL_SURFACE('',#1151,5.E-02);
#1151 = AXIS2_PLACEMENT_3D('',#1152,#1153,#1154);
#1152 = CARTESIAN_POINT('',(0.5,1.2,5.E-02));
#1153 = DIRECTION('',(1.,0.,0.));
#1154 = DIRECTION('',(0.,1.,0.));
#1155 = ADVANCED_FACE('',(#1156),#1175,.T.);
#1156 = FACE_BOUND('',#1157,.T.);
#1157 = EDGE_LOOP('',(#1158,#1159,#1160,#1169));
#1158 = ORIENTED_EDGE('',*,*,#973,.T.);
#1159 = ORIENTED_EDGE('',*,*,#1120,.T.);
#1160 = ORIENTED_EDGE('',*,*,#1161,.F.);
#1161 = EDGE_CURVE('',#1162,#1113,#1164,.T.);
#1162 = VERTEX_POINT('',#1163);
#1163 = CARTESIAN_POINT('',(1.5,1.25,0.8));
#1164 = CIRCLE('',#1165,5.E-02);
#1165 = AXIS2_PLACEMENT_3D('',#1166,#1167,#1168);
#1166 = CARTESIAN_POINT('',(1.5,1.2,0.8));
#1167 = DIRECTION('',(1.,0.,-0.));
#1168 = DIRECTION('',(0.,0.,1.));
#1169 = ORIENTED_EDGE('',*,*,#1170,.F.);
#1170 = EDGE_CURVE('',#966,#1162,#1171,.T.);
#1171 = LINE('',#1172,#1173);
#1172 = CARTESIAN_POINT('',(0.5,1.25,0.8));
#1173 = VECTOR('',#1174,1.);
#1174 = DIRECTION('',(1.,0.,0.));
#1175 = CYLINDRICAL_SURFACE('',#1176,5.E-02);
#1176 = AXIS2_PLACEMENT_3D('',#1177,#1178,#1179);
#1177 = CARTESIAN_POINT('',(0.5,1.2,0.8));
#1178 = DIRECTION('',(1.,0.,0.));
#1179 = DIRECTION('',(0.,1.,0.));
#1180 = ADVANCED_FACE('',(#1181),#1192,.T.);
#1181 = FACE_BOUND('',#1182,.T.);
#1182 = EDGE_LOOP('',(#1183,#1189,#1190,#1191));
#1183 = ORIENTED_EDGE('',*,*,#1184,.F.);
#1184 = EDGE_CURVE('',#1137,#1162,#1185,.T.);
#1185 = LINE('',#1186,#1187);
#1186 = CARTESIAN_POINT('',(1.5,1.25,0.));
#1187 = VECTOR('',#1188,1.);
#1188 = DIRECTION('',(0.,0.,1.));
#1189 = ORIENTED_EDGE('',*,*,#1145,.F.);
#1190 = ORIENTED_EDGE('',*,*,#965,.T.);
#1191 = ORIENTED_EDGE('',*,*,#1170,.T.);
#1192 = PLANE('',#1193);
#1193 = AXIS2_PLACEMENT_3D('',#1194,#1195,#1196);
#1194 = CARTESIAN_POINT('',(0.5,1.25,0.));
#1195 = DIRECTION('',(0.,1.,0.));
#1196 = DIRECTION('',(0.,0.,1.));
#1197 = ADVANCED_FACE('',(#1198),#1208,.T.);
#1198 = FACE_BOUND('',#1199,.T.);
#1199 = EDGE_LOOP('',(#1200,#1201,#1202,#1203,#1204,#1205,#1206,#1207));
#1200 = ORIENTED_EDGE('',*,*,#1005,.F.);
#1201 = ORIENTED_EDGE('',*,*,#1045,.T.);
#1202 = ORIENTED_EDGE('',*,*,#1088,.T.);
#1203 = ORIENTED_EDGE('',*,*,#1136,.F.);
#1204 = ORIENTED_EDGE('',*,*,#1184,.T.);
#1205 = ORIENTED_EDGE('',*,*,#1161,.T.);
#1206 = ORIENTED_EDGE('',*,*,#1112,.F.);
#1207 = ORIENTED_EDGE('',*,*,#1070,.F.);
#1208 = PLANE('',#1209);
#1209 = AXIS2_PLACEMENT_3D('',#1210,#1211,#1212);
#1210 = CARTESIAN_POINT('',(1.5,0.,0.));
#1211 = DIRECTION('',(1.,0.,0.));
#1212 = DIRECTION('',(0.,0.,1.));
#1213 = ( GEOMETRIC_REPRESENTATION_CONTEXT(3) 
GLOBAL_UNCERTAINTY_ASSIGNED_CONTEXT((#1217)) 
GLOBAL_UNIT_ASSIGNED_CONTEXT((#1214,#1215,#1216)) REPRESENTATION_CONTEXT
('Context #1','3D Context with UNIT and UNCERTAINTY') );
#1214 = ( LENGTH_UNIT() NAMED_UNIT(*) SI_UNIT(.MILLI.,.METRE.) );
#1215 = ( NAMED_UNIT(*) PLANE_ANGLE_UNIT() SI_UNIT($,.RADIAN.) );
#1216 = ( NAMED_UNIT(*) SI_UNIT($,.STERADIAN.) SOLID_ANGLE_UNIT() );
#1217 = UNCERTAINTY_MEASURE_WITH_UNIT(LENGTH_MEASURE(1.E-07),#1214,
  'distance_accuracy_value','confusion accuracy');
#1218 = PRODUCT_RELATED_PRODUCT_CATEGORY('part',$,(#7));
#1219 = MECHANICAL_DESIGN_GEOMETRIC_PRESENTATION_REPRESENTATION('',(
    #1220,#1228,#1235,#1242,#1249,#1256,#1263,#1270,#1277,#1284,#1291,
    #1298,#1305,#1312,#1319,#1326,#1333,#1340,#1347,#1354,#1361,#1368,
    #1375,#1382,#1389,#1396,#1403,#1410,#1417,#1424,#1431,#1438,#1445,
    #1452,#1459,#1466,#1473,#1481,#1488,#1495,#1502,#1509,#1516,#1523,
    #1530,#1537),#1213);
#1220 = STYLED_ITEM('color',(#1221),#17);
#1221 = PRESENTATION_STYLE_ASSIGNMENT((#1222));
#1222 = SURFACE_STYLE_USAGE(.BOTH.,#1223);
#1223 = SURFACE_SIDE_STYLE('',(#1224));
#1224 = SURFACE_STYLE_FILL_AREA(#1225);
#1225 = FILL_AREA_STYLE('',(#1226));
#1226 = FILL_AREA_STYLE_COLOUR('',#1227);
#1227 = COLOUR_RGB('',0.800000011921,0.800000011921,0.800000011921);
#1228 = STYLED_ITEM('color',(#1229),#57);
#1229 = PRESENTATION_STYLE_ASSIGNMENT((#1230));
#1230 = SURFACE_STYLE_USAGE(.BOTH.,#1231);
#1231 = SURFACE_SIDE_STYLE('',(#1232));
#1232 = SURFACE_STYLE_FILL_AREA(#1233);
#1233 = FILL_AREA_STYLE('',(#1234));
#1234 = FILL_AREA_STYLE_COLOUR('',#1227);
#1235 = STYLED_ITEM('color',(#1236),#90);
#1236 = PRESENTATION_STYLE_ASSIGNMENT((#1237));
#1237 = SURFACE_STYLE_USAGE(.BOTH.,#1238);
#1238 = SURFACE_SIDE_STYLE('',(#1239));
#1239 = SURFACE_STYLE_FILL_AREA(#1240);
#1240 = FILL_AREA_STYLE('',(#1241));
#1241 = FILL_AREA_STYLE_COLOUR('',#1227);
#1242 = STYLED_ITEM('color',(#1243),#123);
#1243 = PRESENTATION_STYLE_ASSIGNMENT((#1244));
#1244 = SURFACE_STYLE_USAGE(.BOTH.,#1245);
#1245 = SURFACE_SIDE_STYLE('',(#1246));
#1246 = SURFACE_STYLE_FILL_AREA(#1247);
#1247 = FILL_AREA_STYLE('',(#1248));
#1248 = FILL_AREA_STYLE_COLOUR('',#1227);
#1249 = STYLED_ITEM('color',(#1250),#156);
#1250 = PRESENTATION_STYLE_ASSIGNMENT((#1251));
#1251 = SURFACE_STYLE_USAGE(.BOTH.,#1252);
#1252 = SURFACE_SIDE_STYLE('',(#1253));
#1253 = SURFACE_STYLE_FILL_AREA(#1254);
#1254 = FILL_AREA_STYLE('',(#1255));
#1255 = FILL_AREA_STYLE_COLOUR('',#1227);
#1256 = STYLED_ITEM('color',(#1257),#189);
#1257 = PRESENTATION_STYLE_ASSIGNMENT((#1258));
#1258 = SURFACE_STYLE_USAGE(.BOTH.,#1259);
#1259 = SURFACE_SIDE_STYLE('',(#1260));
#1260 = SURFACE_STYLE_FILL_AREA(#1261);
#1261 = FILL_AREA_STYLE('',(#1262));
#1262 = FILL_AREA_STYLE_COLOUR('',#1227);
#1263 = STYLED_ITEM('color',(#1264),#206);
#1264 = PRESENTATION_STYLE_ASSIGNMENT((#1265));
#1265 = SURFACE_STYLE_USAGE(.BOTH.,#1266);
#1266 = SURFACE_SIDE_STYLE('',(#1267));
#1267 = SURFACE_STYLE_FILL_AREA(#1268);
#1268 = FILL_AREA_STYLE('',(#1269));
#1269 = FILL_AREA_STYLE_COLOUR('',#1227);
#1270 = STYLED_ITEM('color',(#1271),#223);
#1271 = PRESENTATION_STYLE_ASSIGNMENT((#1272));
#1272 = SURFACE_STYLE_USAGE(.BOTH.,#1273);
#1273 = SURFACE_SIDE_STYLE('',(#1274));
#1274 = SURFACE_STYLE_FILL_AREA(#1275);
#1275 = FILL_AREA_STYLE('',(#1276));
#1276 = FILL_AREA_STYLE_COLOUR('',#1227);
#1277 = STYLED_ITEM('color',(#1278),#254);
#1278 = PRESENTATION_STYLE_ASSIGNMENT((#1279));
#1279 = SURFACE_STYLE_USAGE(.BOTH.,#1280);
#1280 = SURFACE_SIDE_STYLE('',(#1281));
#1281 = SURFACE_STYLE_FILL_AREA(#1282);
#1282 = FILL_AREA_STYLE('',(#1283));
#1283 = FILL_AREA_STYLE_COLOUR('',#1227);
#1284 = STYLED_ITEM('color',(#1285),#285);
#1285 = PRESENTATION_STYLE_ASSIGNMENT((#1286));
#1286 = SURFACE_STYLE_USAGE(.BOTH.,#1287);
#1287 = SURFACE_SIDE_STYLE('',(#1288));
#1288 = SURFACE_STYLE_FILL_AREA(#1289);
#1289 = FILL_AREA_STYLE('',(#1290));
#1290 = FILL_AREA_STYLE_COLOUR('',#1227);
#1291 = STYLED_ITEM('color',(#1292),#302);
#1292 = PRESENTATION_STYLE_ASSIGNMENT((#1293));
#1293 = SURFACE_STYLE_USAGE(.BOTH.,#1294);
#1294 = SURFACE_SIDE_STYLE('',(#1295));
#1295 = SURFACE_STYLE_FILL_AREA(#1296);
#1296 = FILL_AREA_STYLE('',(#1297));
#1297 = FILL_AREA_STYLE_COLOUR('',#1227);
#1298 = STYLED_ITEM('color',(#1299),#333);
#1299 = PRESENTATION_STYLE_ASSIGNMENT((#1300));
#1300 = SURFACE_STYLE_USAGE(.BOTH.,#1301);
#1301 = SURFACE_SIDE_STYLE('',(#1302));
#1302 = SURFACE_STYLE_FILL_AREA(#1303);
#1303 = FILL_AREA_STYLE('',(#1304));
#1304 = FILL_AREA_STYLE_COLOUR('',#1227);
#1305 = STYLED_ITEM('color',(#1306),#350);
#1306 = PRESENTATION_STYLE_ASSIGNMENT((#1307));
#1307 = SURFACE_STYLE_USAGE(.BOTH.,#1308);
#1308 = SURFACE_SIDE_STYLE('',(#1309));
#1309 = SURFACE_STYLE_FILL_AREA(#1310);
#1310 = FILL_AREA_STYLE('',(#1311));
#1311 = FILL_AREA_STYLE_COLOUR('',#1227);
#1312 = STYLED_ITEM('color',(#1313),#381);
#1313 = PRESENTATION_STYLE_ASSIGNMENT((#1314));
#1314 = SURFACE_STYLE_USAGE(.BOTH.,#1315);
#1315 = SURFACE_SIDE_STYLE('',(#1316));
#1316 = SURFACE_STYLE_FILL_AREA(#1317);
#1317 = FILL_AREA_STYLE('',(#1318));
#1318 = FILL_AREA_STYLE_COLOUR('',#1227);
#1319 = STYLED_ITEM('color',(#1320),#399);
#1320 = PRESENTATION_STYLE_ASSIGNMENT((#1321));
#1321 = SURFACE_STYLE_USAGE(.BOTH.,#1322);
#1322 = SURFACE_SIDE_STYLE('',(#1323));
#1323 = SURFACE_STYLE_FILL_AREA(#1324);
#1324 = FILL_AREA_STYLE('',(#1325));
#1325 = FILL_AREA_STYLE_COLOUR('',#1227);
#1326 = STYLED_ITEM('color',(#1327),#417);
#1327 = PRESENTATION_STYLE_ASSIGNMENT((#1328));
#1328 = SURFACE_STYLE_USAGE(.BOTH.,#1329);
#1329 = SURFACE_SIDE_STYLE('',(#1330));
#1330 = SURFACE_STYLE_FILL_AREA(#1331);
#1331 = FILL_AREA_STYLE('',(#1332));
#1332 = FILL_AREA_STYLE_COLOUR('',#1227);
#1333 = STYLED_ITEM('color',(#1334),#445);
#1334 = PRESENTATION_STYLE_ASSIGNMENT((#1335));
#1335 = SURFACE_STYLE_USAGE(.BOTH.,#1336);
#1336 = SURFACE_SIDE_STYLE('',(#1337));
#1337 = SURFACE_STYLE_FILL_AREA(#1338);
#1338 = FILL_AREA_STYLE('',(#1339));
#1339 = FILL_AREA_STYLE_COLOUR('',#1227);
#1340 = STYLED_ITEM('color',(#1341),#457);
#1341 = PRESENTATION_STYLE_ASSIGNMENT((#1342));
#1342 = SURFACE_STYLE_USAGE(.BOTH.,#1343);
#1343 = SURFACE_SIDE_STYLE('',(#1344));
#1344 = SURFACE_STYLE_FILL_AREA(#1345);
#1345 = FILL_AREA_STYLE('',(#1346));
#1346 = FILL_AREA_STYLE_COLOUR('',#1227);
#1347 = STYLED_ITEM('color',(#1348),#471);
#1348 = PRESENTATION_STYLE_ASSIGNMENT((#1349));
#1349 = SURFACE_STYLE_USAGE(.BOTH.,#1350);
#1350 = SURFACE_SIDE_STYLE('',(#1351));
#1351 = SURFACE_STYLE_FILL_AREA(#1352);
#1352 = FILL_AREA_STYLE('',(#1353));
#1353 = FILL_AREA_STYLE_COLOUR('',#1227);
#1354 = STYLED_ITEM('color',(#1355),#547);
#1355 = PRESENTATION_STYLE_ASSIGNMENT((#1356));
#1356 = SURFACE_STYLE_USAGE(.BOTH.,#1357);
#1357 = SURFACE_SIDE_STYLE('',(#1358));
#1358 = SURFACE_STYLE_FILL_AREA(#1359);
#1359 = FILL_AREA_STYLE('',(#1360));
#1360 = FILL_AREA_STYLE_COLOUR('',#1227);
#1361 = STYLED_ITEM('color',(#1362),#578);
#1362 = PRESENTATION_STYLE_ASSIGNMENT((#1363));
#1363 = SURFACE_STYLE_USAGE(.BOTH.,#1364);
#1364 = SURFACE_SIDE_STYLE('',(#1365));
#1365 = SURFACE_STYLE_FILL_AREA(#1366);
#1366 = FILL_AREA_STYLE('',(#1367));
#1367 = FILL_AREA_STYLE_COLOUR('',#1227);
#1368 = STYLED_ITEM('color',(#1369),#603);
#1369 = PRESENTATION_STYLE_ASSIGNMENT((#1370));
#1370 = SURFACE_STYLE_USAGE(.BOTH.,#1371);
#1371 = SURFACE_SIDE_STYLE('',(#1372));
#1372 = SURFACE_STYLE_FILL_AREA(#1373);
#1373 = FILL_AREA_STYLE('',(#1374));
#1374 = FILL_AREA_STYLE_COLOUR('',#1227);
#1375 = STYLED_ITEM('color',(#1376),#628);
#1376 = PRESENTATION_STYLE_ASSIGNMENT((#1377));
#1377 = SURFACE_STYLE_USAGE(.BOTH.,#1378);
#1378 = SURFACE_SIDE_STYLE('',(#1379));
#1379 = SURFACE_STYLE_FILL_AREA(#1380);
#1380 = FILL_AREA_STYLE('',(#1381));
#1381 = FILL_AREA_STYLE_COLOUR('',#1227);
#1382 = STYLED_ITEM('color',(#1383),#652);
#1383 = PRESENTATION_STYLE_ASSIGNMENT((#1384));
#1384 = SURFACE_STYLE_USAGE(.BOTH.,#1385);
#1385 = SURFACE_SIDE_STYLE('',(#1386));
#1386 = SURFACE_STYLE_FILL_AREA(#1387);
#1387 = FILL_AREA_STYLE('',(#1388));
#1388 = FILL_AREA_STYLE_COLOUR('',#1227);
#1389 = STYLED_ITEM('color',(#1390),#676);
#1390 = PRESENTATION_STYLE_ASSIGNMENT((#1391));
#1391 = SURFACE_STYLE_USAGE(.BOTH.,#1392);
#1392 = SURFACE_SIDE_STYLE('',(#1393));
#1393 = SURFACE_STYLE_FILL_AREA(#1394);
#1394 = FILL_AREA_STYLE('',(#1395));
#1395 = FILL_AREA_STYLE_COLOUR('',#1227);
#1396 = STYLED_ITEM('color',(#1397),#701);
#1397 = PRESENTATION_STYLE_ASSIGNMENT((#1398));
#1398 = SURFACE_STYLE_USAGE(.BOTH.,#1399);
#1399 = SURFACE_SIDE_STYLE('',(#1400));
#1400 = SURFACE_STYLE_FILL_AREA(#1401);
#1401 = FILL_AREA_STYLE('',(#1402));
#1402 = FILL_AREA_STYLE_COLOUR('',#1227);
#1403 = STYLED_ITEM('color',(#1404),#726);
#1404 = PRESENTATION_STYLE_ASSIGNMENT((#1405));
#1405 = SURFACE_STYLE_USAGE(.BOTH.,#1406);
#1406 = SURFACE_SIDE_STYLE('',(#1407));
#1407 = SURFACE_STYLE_FILL_AREA(#1408);
#1408 = FILL_AREA_STYLE('',(#1409));
#1409 = FILL_AREA_STYLE_COLOUR('',#1227);
#1410 = STYLED_ITEM('color',(#1411),#743);
#1411 = PRESENTATION_STYLE_ASSIGNMENT((#1412));
#1412 = SURFACE_STYLE_USAGE(.BOTH.,#1413);
#1413 = SURFACE_SIDE_STYLE('',(#1414));
#1414 = SURFACE_STYLE_FILL_AREA(#1415);
#1415 = FILL_AREA_STYLE('',(#1416));
#1416 = FILL_AREA_STYLE_COLOUR('',#1227);
#1417 = STYLED_ITEM('color',(#1418),#776);
#1418 = PRESENTATION_STYLE_ASSIGNMENT((#1419));
#1419 = SURFACE_STYLE_USAGE(.BOTH.,#1420);
#1420 = SURFACE_SIDE_STYLE('',(#1421));
#1421 = SURFACE_STYLE_FILL_AREA(#1422);
#1422 = FILL_AREA_STYLE('',(#1423));
#1423 = FILL_AREA_STYLE_COLOUR('',#1227);
#1424 = STYLED_ITEM('color',(#1425),#793);
#1425 = PRESENTATION_STYLE_ASSIGNMENT((#1426));
#1426 = SURFACE_STYLE_USAGE(.BOTH.,#1427);
#1427 = SURFACE_SIDE_STYLE('',(#1428));
#1428 = SURFACE_STYLE_FILL_AREA(#1429);
#1429 = FILL_AREA_STYLE('',(#1430));
#1430 = FILL_AREA_STYLE_COLOUR('',#1227);
#1431 = STYLED_ITEM('color',(#1432),#810);
#1432 = PRESENTATION_STYLE_ASSIGNMENT((#1433));
#1433 = SURFACE_STYLE_USAGE(.BOTH.,#1434);
#1434 = SURFACE_SIDE_STYLE('',(#1435));
#1435 = SURFACE_STYLE_FILL_AREA(#1436);
#1436 = FILL_AREA_STYLE('',(#1437));
#1437 = FILL_AREA_STYLE_COLOUR('',#1227);
#1438 = STYLED_ITEM('color',(#1439),#835);
#1439 = PRESENTATION_STYLE_ASSIGNMENT((#1440));
#1440 = SURFACE_STYLE_USAGE(.BOTH.,#1441);
#1441 = SURFACE_SIDE_STYLE('',(#1442));
#1442 = SURFACE_STYLE_FILL_AREA(#1443);
#1443 = FILL_AREA_STYLE('',(#1444));
#1444 = FILL_AREA_STYLE_COLOUR('',#1227);
#1445 = STYLED_ITEM('color',(#1446),#860);
#1446 = PRESENTATION_STYLE_ASSIGNMENT((#1447));
#1447 = SURFACE_STYLE_USAGE(.BOTH.,#1448);
#1448 = SURFACE_SIDE_STYLE('',(#1449));
#1449 = SURFACE_STYLE_FILL_AREA(#1450);
#1450 = FILL_AREA_STYLE('',(#1451));
#1451 = FILL_AREA_STYLE_COLOUR('',#1227);
#1452 = STYLED_ITEM('color',(#1453),#877);
#1453 = PRESENTATION_STYLE_ASSIGNMENT((#1454));
#1454 = SURFACE_STYLE_USAGE(.BOTH.,#1455);
#1455 = SURFACE_SIDE_STYLE('',(#1456));
#1456 = SURFACE_STYLE_FILL_AREA(#1457);
#1457 = FILL_AREA_STYLE('',(#1458));
#1458 = FILL_AREA_STYLE_COLOUR('',#1227);
#1459 = STYLED_ITEM('color',(#1460),#894);
#1460 = PRESENTATION_STYLE_ASSIGNMENT((#1461));
#1461 = SURFACE_STYLE_USAGE(.BOTH.,#1462);
#1462 = SURFACE_SIDE_STYLE('',(#1463));
#1463 = SURFACE_STYLE_FILL_AREA(#1464);
#1464 = FILL_AREA_STYLE('',(#1465));
#1465 = FILL_AREA_STYLE_COLOUR('',#1227);
#1466 = STYLED_ITEM('color',(#1467),#911);
#1467 = PRESENTATION_STYLE_ASSIGNMENT((#1468));
#1468 = SURFACE_STYLE_USAGE(.BOTH.,#1469);
#1469 = SURFACE_SIDE_STYLE('',(#1470));
#1470 = SURFACE_STYLE_FILL_AREA(#1471);
#1471 = FILL_AREA_STYLE('',(#1472));
#1472 = FILL_AREA_STYLE_COLOUR('',#1227);
#1473 = STYLED_ITEM('color',(#1474),#925);
#1474 = PRESENTATION_STYLE_ASSIGNMENT((#1475));
#1475 = SURFACE_STYLE_USAGE(.BOTH.,#1476);
#1476 = SURFACE_SIDE_STYLE('',(#1477));
#1477 = SURFACE_STYLE_FILL_AREA(#1478);
#1478 = FILL_AREA_STYLE('',(#1479));
#1479 = FILL_AREA_STYLE_COLOUR('',#1480);
#1480 = COLOUR_RGB('',0.980392158031,0.705882370472,0.156862750649);
#1481 = STYLED_ITEM('color',(#1482),#1001);
#1482 = PRESENTATION_STYLE_ASSIGNMENT((#1483));
#1483 = SURFACE_STYLE_USAGE(.BOTH.,#1484);
#1484 = SURFACE_SIDE_STYLE('',(#1485));
#1485 = SURFACE_STYLE_FILL_AREA(#1486);
#1486 = FILL_AREA_STYLE('',(#1487));
#1487 = FILL_AREA_STYLE_COLOUR('',#1480);
#1488 = STYLED_ITEM('color',(#1489),#1032);
#1489 = PRESENTATION_STYLE_ASSIGNMENT((#1490));
#1490 = SURFACE_STYLE_USAGE(.BOTH.,#1491);
#1491 = SURFACE_SIDE_STYLE('',(#1492));
#1492 = SURFACE_STYLE_FILL_AREA(#1493);
#1493 = FILL_AREA_STYLE('',(#1494));
#1494 = FILL_AREA_STYLE_COLOUR('',#1480);
#1495 = STYLED_ITEM('color',(#1496),#1057);
#1496 = PRESENTATION_STYLE_ASSIGNMENT((#1497));
#1497 = SURFACE_STYLE_USAGE(.BOTH.,#1498);
#1498 = SURFACE_SIDE_STYLE('',(#1499));
#1499 = SURFACE_STYLE_FILL_AREA(#1500);
#1500 = FILL_AREA_STYLE('',(#1501));
#1501 = FILL_AREA_STYLE_COLOUR('',#1480);
#1502 = STYLED_ITEM('color',(#1503),#1082);
#1503 = PRESENTATION_STYLE_ASSIGNMENT((#1504));
#1504 = SURFACE_STYLE_USAGE(.BOTH.,#1505);
#1505 = SURFACE_SIDE_STYLE('',(#1506));
#1506 = SURFACE_STYLE_FILL_AREA(#1507);
#1507 = FILL_AREA_STYLE('',(#1508));
#1508 = FILL_AREA_STYLE_COLOUR('',#1480);
#1509 = STYLED_ITEM('color',(#1510),#1106);
#1510 = PRESENTATION_STYLE_ASSIGNMENT((#1511));
#1511 = SURFACE_STYLE_USAGE(.BOTH.,#1512);
#1512 = SURFACE_SIDE_STYLE('',(#1513));
#1513 = SURFACE_STYLE_FILL_AREA(#1514);
#1514 = FILL_AREA_STYLE('',(#1515));
#1515 = FILL_AREA_STYLE_COLOUR('',#1480);
#1516 = STYLED_ITEM('color',(#1517),#1130);
#1517 = PRESENTATION_STYLE_ASSIGNMENT((#1518));
#1518 = SURFACE_STYLE_USAGE(.BOTH.,#1519);
#1519 = SURFACE_SIDE_STYLE('',(#1520));
#1520 = SURFACE_STYLE_FILL_AREA(#1521);
#1521 = FILL_AREA_STYLE('',(#1522));
#1522 = FILL_AREA_STYLE_COLOUR('',#1480);
#1523 = STYLED_ITEM('color',(#1524),#1155);
#1524 = PRESENTATION_STYLE_ASSIGNMENT((#1525));
#1525 = SURFACE_STYLE_USAGE(.BOTH.,#1526);
#1526 = SURFACE_SIDE_STYLE('',(#1527));
#1527 = SURFACE_STYLE_FILL_AREA(#1528);
#1528 = FILL_AREA_STYLE('',(#1529));
#1529 = FILL_AREA_STYLE_COLOUR('',#1480);
#1530 = STYLED_ITEM('color',(#1531),#1180);
#1531 = PRESENTATION_STYLE_ASSIGNMENT((#1532));
#1532 = SURFACE_STYLE_USAGE(.BOTH.,#1533);
#1533 = SURFACE_SIDE_STYLE('',(#1534));
#1534 = SURFACE_STYLE_FILL_AREA(#1535);
#1535 = FILL_AREA_STYLE('',(#1536));
#1536 = FILL_AREA_STYLE_COLOUR('',#1480);
#1537 = STYLED_ITEM('color',(#1538),#1197);
#1538 = PRESENTATION_STYLE_ASSIGNMENT((#1539));
#1539 = SURFACE_STYLE_USAGE(.BOTH.,#1540);
#1540 = SURFACE_SIDE_STYLE('',(#1541));
#1541 = SURFACE_STYLE_FILL_AREA(#1542);
#1542 = FILL_AREA_STYLE('',(#1543));
#1543 = FILL_AREA_STYLE_COLOUR('',#1480);
ENDSEC;
END-ISO-10303-21;
