ISO-10303-21;
HEADER;
FILE_DESCRIPTION (( 'STEP AP214' ),
    '1' );
FILE_NAME ('User Library-Wurth Elektronik WL-SMCW 0603 (1608) LED Lens (Separate Body).STEP',
    '2017-10-04T13:10:06',
    ( 'Windows User' ),
    ( '' ),
    'SwSTEP 2.0',
    'SolidWorks 2017',
    '' );
FILE_SCHEMA (( 'AUTOMOTIVE_DESIGN' ));
ENDSEC;

DATA;
#1 = EDGE_LOOP ( 'NONE', ( #67, #134, #399 ) ) ;
#2 = LINE ( 'NONE', #449, #430 ) ;
#3 = EDGE_CURVE ( 'NONE', #522, #139, #80, .T. ) ;
#4 = SURFACE_STYLE_USAGE ( .BOTH. , #268 ) ;
#5 = PLANE ( 'NONE',  #103 ) ;
#6 = CARTESIAN_POINT ( 'NONE',  ( -0.05300388948840129000, -0.03609003470655132400, 0.06805262652965048100 ) ) ;
#7 = CARTESIAN_POINT ( 'NONE',  ( 0.05100575969524890500, 0.03600575969524869000, 0.06800000000000000500 ) ) ;
#8 = DIRECTION ( 'NONE',  ( 1.000000000000000000, 0.0000000000000000000, 0.0000000000000000000 ) ) ;
#9 = EDGE_LOOP ( 'NONE', ( #410, #483, #77, #292 ) ) ;
#10 = CARTESIAN_POINT ( 'NONE',  ( -3.449734185181159800E-017, -0.03999999999999989700, 0.02999999999999999900 ) ) ;
#11 = ORIENTED_EDGE ( 'NONE', *, *, #166, .F. ) ;
#12 = AXIS2_PLACEMENT_3D ( 'NONE', #317, #436, #185 ) ;
#13 = ORIENTED_EDGE ( 'NONE', *, *, #70, .T. ) ;
#14 = ORIENTED_EDGE ( 'NONE', *, *, #62, .T. ) ;
#15 = CARTESIAN_POINT ( 'NONE',  ( 0.05100575969524890500, 0.03800388948840187400, 0.06808647155436098300 ) ) ;
#16 = CYLINDRICAL_SURFACE ( 'NONE', #192, 0.002000000000000004400 ) ;
#17 = AXIS2_PLACEMENT_3D ( 'NONE', #398, #142, #435 ) ;
#18 = CARTESIAN_POINT ( 'NONE',  ( 0.05300301876475794300, 0.03600575969524868300, 0.06810467191248588400 ) ) ;
#19 = DIRECTION ( 'NONE',  ( -0.0000000000000000000, -1.000000000000000000, -0.0000000000000000000 ) ) ;
#20 = DIRECTION ( 'NONE',  ( 1.000000000000000000, 0.0000000000000000000, 5.421010862427508000E-015 ) ) ;
#21 = SURFACE_STYLE_FILL_AREA ( #114 ) ;
#22 = CARTESIAN_POINT ( 'NONE',  ( -3.055478849731879800E-017, 0.04000000000000009800, 0.02999999999999999900 ) ) ;
#23 = AXIS2_PLACEMENT_3D ( 'NONE', #541, #293, #27 ) ;
#24 = ORIENTED_EDGE ( 'NONE', *, *, #218, .F. ) ;
#25 = FILL_AREA_STYLE_COLOUR ( '', #284 ) ;
#26 = PLANE ( 'NONE',  #131 ) ;
#27 = DIRECTION ( 'NONE',  ( 1.000000000000000000, 0.0000000000000000000, 0.0000000000000000000 ) ) ;
#28 = ORIENTED_EDGE ( 'NONE', *, *, #256, .F. ) ;
#29 = ORIENTED_EDGE ( 'NONE', *, *, #51, .T. ) ;
#30 = VECTOR ( 'NONE', #220, 99.99999999999998600 ) ;
#31 = CARTESIAN_POINT ( 'NONE',  ( -0.05100575969524803700, 0.03600575969524873900, 0.06800000000000000500 ) ) ;
#32 = CARTESIAN_POINT ( 'NONE',  ( -0.05300388948840128300, 0.03609215038976317700, 0.06800373866485680300 ) ) ;
#33 = EDGE_CURVE ( 'NONE', #148, #538, #401, .T. ) ;
#34 = ADVANCED_FACE ( 'NONE', ( #551 ), #553, .T. ) ;
#35 = ADVANCED_FACE ( 'NONE', ( #318 ), #343, .T. ) ;
#36 = CARTESIAN_POINT ( 'NONE',  ( 0.05295495586561022000, -0.03600575969524850300, 0.06921719865080210000 ) ) ;
#37 = ORIENTED_EDGE ( 'NONE', *, *, #218, .T. ) ;
#38 = ORIENTED_EDGE ( 'NONE', *, *, #166, .T. ) ;
#39 = VERTEX_POINT ( 'NONE', #132 ) ;
#40 = VECTOR ( 'NONE', #491, 99.99999999999998600 ) ;
#41 = VECTOR ( 'NONE', #282, 100.0000000000000000 ) ;
#42 = CYLINDRICAL_SURFACE ( 'NONE', #122, 0.002000000000000000000 ) ;
#43 =( NAMED_UNIT ( * ) PLANE_ANGLE_UNIT ( ) SI_UNIT ( $, .RADIAN. ) );
#44 = DIRECTION ( 'NONE',  ( -0.9986295347545739400, 0.0000000000000000000, 0.05233595624294380700 ) ) ;
#45 = CARTESIAN_POINT ( 'NONE',  ( -0.05499999999999944500, 0.03917337091540661100, 0.02999999999999999900 ) ) ;
#46 = DIRECTION ( 'NONE',  ( -2.710505431213760100E-016, -1.000000000000000000, 0.0000000000000000000 ) ) ;
#47 = DIRECTION ( 'NONE',  ( 0.0000000000000000000, 1.000000000000000000, 0.0000000000000000000 ) ) ;
#48 = PRODUCT_DEFINITION ( 'UNKNOWN', '', #78, #124 ) ;
#49 = CARTESIAN_POINT ( 'NONE',  ( 0.05100575969524900200, 0.03800301876475784000, 0.06810467191248589800 ) ) ;
#50 = DIRECTION ( 'NONE',  ( -4.921437777677721400E-017, -0.9986295347545739400, 0.05233595624294380700 ) ) ;
#51 = EDGE_CURVE ( 'NONE', #538, #277, #535, .T. ) ;
#52 = CARTESIAN_POINT ( 'NONE',  ( 0.05300388948840218500, 0.03609003470655150500, 0.06805262652965048100 ) ) ;
#53 = VECTOR ( 'NONE', #353, 100.0000000000000100 ) ;
#54 = MANIFOLD_SOLID_BREP ( 'Lens', #304 ) ;
#55 = CARTESIAN_POINT ( 'NONE',  ( 0.05100575969524890500, 0.03713754512812254800, 0.07000000000000009000 ) ) ;
#56 = DIRECTION ( 'NONE',  ( 0.05226442768871392100, -0.05226442768871392100, 0.9972646886342373400 ) ) ;
#57 = EDGE_CURVE ( 'NONE', #162, #313, #426, .T. ) ;
#58 = CARTESIAN_POINT ( 'NONE',  ( -0.05499999999999960500, -0.03800274093049074700, 0.02999999999999999200 ) ) ;
#59 = LINE ( 'NONE', #524, #487 ) ;
#60 = DIRECTION ( 'NONE',  ( 0.0000000000000000000, -1.000000000000000000, 6.123233995736766000E-017 ) ) ;
#61 = ORIENTED_EDGE ( 'NONE', *, *, #391, .F. ) ;
#62 = EDGE_CURVE ( 'NONE', #253, #240, #84, .T. ) ;
#63 = DIRECTION ( 'NONE',  ( 0.0000000000000000000, 0.0000000000000000000, 1.000000000000000000 ) ) ;
#64 = ORIENTED_EDGE ( 'NONE', *, *, #265, .T. ) ;
#65 = CARTESIAN_POINT ( 'NONE',  ( -3.055478849731879800E-017, 0.03800301876475784000, 0.06810467191248589800 ) ) ;
#66 = APPLICATION_CONTEXT ( 'automotive_design' ) ;
#67 = ORIENTED_EDGE ( 'NONE', *, *, #133, .T. ) ;
#68 = CIRCLE ( 'NONE', #481, 0.002000000000000000000 ) ;
#69 = DIRECTION ( 'NONE',  ( 0.0000000000000000000, 1.000000000000000000, 0.0000000000000000000 ) ) ;
#70 = EDGE_CURVE ( 'NONE', #331, #538, #203, .T. ) ;
#71 = CARTESIAN_POINT ( 'NONE',  ( -0.05499999999999973000, 0.03800274093049099700, 0.03000000000000000200 ) ) ;
#72 = DIRECTION ( 'NONE',  ( 0.9986295347545739400, 0.0000000000000000000, -0.05233595624294120500 ) ) ;
#73 = AXIS2_PLACEMENT_3D ( 'NONE', #22, #107, #409 ) ;
#74 = CYLINDRICAL_SURFACE ( 'NONE', #500, 0.002000000000000005200 ) ;
#75 = CARTESIAN_POINT ( 'NONE',  ( -0.05300388948840128300, 0.03605469331804057200, 0.06808647155436099700 ) ) ;
#76 = VECTOR ( 'NONE', #161, 100.0000000000000000 ) ;
#77 = ORIENTED_EDGE ( 'NONE', *, *, #123, .T. ) ;
#78 = PRODUCT_DEFINITION_FORMATION_WITH_SPECIFIED_SOURCE ( 'ANY', '', #229, .NOT_KNOWN. ) ;
#79 = ADVANCED_FACE ( 'NONE', ( #416 ), #403, .T. ) ;
#80 =( BOUNDED_CURVE ( )  B_SPLINE_CURVE ( 3, ( #512, #433, #181, #474 ),
 .UNSPECIFIED., .F., .F. ) 
 B_SPLINE_CURVE_WITH_KNOTS ( ( 4, 4 ),
 ( 2.357564018062727800, 3.925621289116844700 ),
 .UNSPECIFIED. ) 
 CURVE ( )  GEOMETRIC_REPRESENTATION_ITEM ( )  RATIONAL_B_SPLINE_CURVE ( ( 1.000000000000000000, 0.8053830134673570800, 0.8053830134673570800, 1.000000000000000000 ) ) 
 REPRESENTATION_ITEM ( '' )  );
#81 = VECTOR ( 'NONE', #434, 100.0000000000000000 ) ;
#82 = ORIENTED_EDGE ( 'NONE', *, *, #529, .F. ) ;
#83 = CARTESIAN_POINT ( 'NONE',  ( 0.05295495586561022000, -0.03719203916960470100, 0.06874078627775721800 ) ) ;
#84 = LINE ( 'NONE', #138, #523 ) ;
#85 = EDGE_CURVE ( 'NONE', #39, #277, #509, .T. ) ;
#86 = ORIENTED_EDGE ( 'NONE', *, *, #62, .F. ) ;
#87 = LINE ( 'NONE', #239, #526 ) ;
#88 =( GEOMETRIC_REPRESENTATION_CONTEXT ( 3 ) GLOBAL_UNCERTAINTY_ASSIGNED_CONTEXT ( ( #357 ) ) GLOBAL_UNIT_ASSIGNED_CONTEXT ( ( #246, #537, #290 ) ) REPRESENTATION_CONTEXT ( 'NONE', 'WORKASPACE' ) );
#89 = FACE_OUTER_BOUND ( 'NONE', #9, .T. ) ;
#90 = EDGE_CURVE ( 'NONE', #313, #93, #68, .T. ) ;
#91 = CARTESIAN_POINT ( 'NONE',  ( -0.05213754512812206200, -0.03713754512812245100, 0.06999999999999997900 ) ) ;
#92 = DIRECTION ( 'NONE',  ( -0.05226442768871392100, -0.05226442768871392100, 0.9972646886342373400 ) ) ;
#93 = VERTEX_POINT ( 'NONE', #94 ) ;
#94 = CARTESIAN_POINT ( 'NONE',  ( 0.05100575969524890500, -0.03800301876475765900, 0.06810467191248588400 ) ) ;
#95 = ORIENTED_EDGE ( 'NONE', *, *, #356, .F. ) ;
#96 = CARTESIAN_POINT ( 'NONE',  ( -0.05100575969524811400, -0.03800301876475763900, 0.06810467191248589800 ) ) ;
#97 = CARTESIAN_POINT ( 'NONE',  ( 0.05500000000000020200, 0.03800274093049093400, 0.02999999999999999900 ) ) ;
#98 = ORIENTED_EDGE ( 'NONE', *, *, #391, .T. ) ;
#99 = AXIS2_PLACEMENT_3D ( 'NONE', #493, #249, #540 ) ;
#100 = CARTESIAN_POINT ( 'NONE',  ( 0.05300388948840218500, 0.03600575969524870400, 0.06808647155436098300 ) ) ;
#101 = EDGE_CURVE ( 'NONE', #414, #135, #188, .T. ) ;
#102 = CIRCLE ( 'NONE', #307, 0.002000000000000003900 ) ;
#103 = AXIS2_PLACEMENT_3D ( 'NONE', #311, #44, #351 ) ;
#104 = VECTOR ( 'NONE', #156, 100.0000000000000000 ) ;
#105 = DIRECTION ( 'NONE',  ( -0.0000000000000000000, 1.000000000000000000, -6.123233995736766000E-017 ) ) ;
#106 = DIRECTION ( 'NONE',  ( 0.9986295347545737200, 0.0000000000000000000, 0.05233595624294390400 ) ) ;
#107 = DIRECTION ( 'NONE',  ( 4.921437777677712100E-017, 0.9986295347545739400, 0.05233595624294380700 ) ) ;
#108 = AXIS2_PLACEMENT_3D ( 'NONE', #479, #143, #228 ) ;
#109 = PRODUCT_RELATED_PRODUCT_CATEGORY ( 'part', '', ( #229 ) ) ;
#110 = ORIENTED_EDGE ( 'NONE', *, *, #3, .T. ) ;
#111 = SURFACE_STYLE_FILL_AREA ( #510 ) ;
#112 = DIRECTION ( 'NONE',  ( 0.0000000000000000000, -1.000000000000000000, 0.0000000000000000000 ) ) ;
#113 = ORIENTED_EDGE ( 'NONE', *, *, #127, .F. ) ;
#114 = FILL_AREA_STYLE ('',( #25 ) ) ;
#115 = EDGE_CURVE ( 'NONE', #39, #331, #173, .T. ) ;
#116 = ORIENTED_EDGE ( 'NONE', *, *, #297, .T. ) ;
#117 = DIRECTION ( 'NONE',  ( -1.000000000000000000, 4.914693118245886200E-017, -2.575681521849117300E-018 ) ) ;
#118 = EDGE_LOOP ( 'NONE', ( #438, #119, #549, #128 ) ) ;
#119 = ORIENTED_EDGE ( 'NONE', *, *, #453, .F. ) ;
#120 = CARTESIAN_POINT ( 'NONE',  ( -0.05100575969524810000, 0.03600575969524870400, 0.07000000000000000700 ) ) ;
#121 = FACE_OUTER_BOUND ( 'NONE', #129, .T. ) ;
#122 = AXIS2_PLACEMENT_3D ( 'NONE', #329, #412, #112 ) ;
#123 = EDGE_CURVE ( 'NONE', #160, #532, #499, .T. ) ;
#124 = PRODUCT_DEFINITION_CONTEXT ( 'detailed design', #66, 'design' ) ;
#125 = ADVANCED_FACE ( 'NONE', ( #278 ), #378, .T. ) ;
#126 = EDGE_LOOP ( 'NONE', ( #359, #61, #212, #276, #210, #186, #231, #441 ) ) ;
#127 = EDGE_CURVE ( 'NONE', #227, #532, #168, .T. ) ;
#128 = ORIENTED_EDGE ( 'NONE', *, *, #70, .F. ) ;
#129 = EDGE_LOOP ( 'NONE', ( #182, #328, #98, #326 ) ) ;
#130 = CARTESIAN_POINT ( 'NONE',  ( 0.05213754512812284600, -0.03600575969524850300, 0.07000000000000000700 ) ) ;
#131 = AXIS2_PLACEMENT_3D ( 'NONE', #536, #63, #370 ) ;
#132 = CARTESIAN_POINT ( 'NONE',  ( -0.05300301876475747200, -0.03600575969524850300, 0.06810467191248591200 ) ) ;
#133 = EDGE_CURVE ( 'NONE', #162, #144, #295, .T. ) ;
#134 = ORIENTED_EDGE ( 'NONE', *, *, #445, .F. ) ;
#135 = VERTEX_POINT ( 'NONE', #236 ) ;
#136 = CIRCLE ( 'NONE', #137, 0.002000000000000000000 ) ;
#137 = AXIS2_PLACEMENT_3D ( 'NONE', #7, #315, #47 ) ;
#138 = CARTESIAN_POINT ( 'NONE',  ( -0.05100575969524810000, -0.03800301876475763900, 0.06810467191248589800 ) ) ;
#139 = VERTEX_POINT ( 'NONE', #154 ) ;
#140 = CARTESIAN_POINT ( 'NONE',  ( -0.05213754512812204800, -0.03800388948840166500, 0.06808647155436098300 ) ) ;
#141 = CARTESIAN_POINT ( 'NONE',  ( 0.05300388948840208800, -0.03600575969524850300, 0.06808647155436098300 ) ) ;
#142 = DIRECTION ( 'NONE',  ( 1.000000000000000000, -4.928191693115930000E-017, -0.0000000000000000000 ) ) ;
#143 = DIRECTION ( 'NONE',  ( 0.05226442768871392100, 0.05226442768871392100, 0.9972646886342373400 ) ) ;
#144 = VERTEX_POINT ( 'NONE', #18 ) ;
#145 = CARTESIAN_POINT ( 'NONE',  ( -0.05500000000000000000, -0.03600575969524850300, 0.07000000000000000700 ) ) ;
#146 = EDGE_CURVE ( 'NONE', #313, #234, #151, .T. ) ;
#147 = EDGE_LOOP ( 'NONE', ( #349, #24, #38 ) ) ;
#148 = VERTEX_POINT ( 'NONE', #193 ) ;
#149 = CARTESIAN_POINT ( 'NONE',  ( 0.05295495586561032400, 0.03719203916960495100, 0.06874078627775731500 ) ) ;
#150 = FACE_OUTER_BOUND ( 'NONE', #466, .T. ) ;
#151 = CIRCLE ( 'NONE', #171, 0.002000000000000005200 ) ;
#152 = DIRECTION ( 'NONE',  ( 0.0000000000000000000, 1.000000000000000000, 0.0000000000000000000 ) ) ;
#153 = STYLED_ITEM ( 'NONE', ( #461 ), #247 ) ;
#154 = CARTESIAN_POINT ( 'NONE',  ( 0.05500000000000016700, -0.03800274093049080300, 0.02999999999999999900 ) ) ;
#155 = CARTESIAN_POINT ( 'NONE',  ( 0.05499999999999999300, -0.03800274093049080300, 0.03000000000000001300 ) ) ;
#156 = DIRECTION ( 'NONE',  ( 1.000000000000000000, 0.0000000000000000000, -0.0000000000000000000 ) ) ;
#157 = EDGE_CURVE ( 'NONE', #277, #240, #437, .T. ) ;
#158 = DIRECTION ( 'NONE',  ( 0.0000000000000000000, 1.000000000000000000, 0.0000000000000000000 ) ) ;
#159 = SURFACE_STYLE_USAGE ( .BOTH. , #415 ) ;
#160 = VERTEX_POINT ( 'NONE', #446 ) ;
#161 = DIRECTION ( 'NONE',  ( 1.000000000000000000, -4.914693118245877000E-017, -2.575681521849112700E-018 ) ) ;
#162 = VERTEX_POINT ( 'NONE', #195 ) ;
#163 = LINE ( 'NONE', #471, #30 ) ;
#164 = AXIS2_PLACEMENT_3D ( 'NONE', #283, #19, #323 ) ;
#165 = CARTESIAN_POINT ( 'NONE',  ( -0.05100575969524810000, 0.03795495586561002000, 0.06921719865080210000 ) ) ;
#166 = EDGE_CURVE ( 'NONE', #227, #39, #485, .T. ) ;
#167 = CARTESIAN_POINT ( 'NONE',  ( -0.05100575969524810000, -0.03800388948840167900, 0.06808647155436099700 ) ) ;
#168 = LINE ( 'NONE', #527, #41 ) ;
#169 = CARTESIAN_POINT ( 'NONE',  ( -0.05213754512812205500, 0.03795495586561000600, 0.06921719865080210000 ) ) ;
#170 = ADVANCED_FACE ( 'NONE', ( #267 ), #442, .T. ) ;
#171 = AXIS2_PLACEMENT_3D ( 'NONE', #531, #285, #20 ) ;
#172 = CARTESIAN_POINT ( 'NONE',  ( 0.05213754512812284600, -0.03795495586560983200, 0.06921719865080210000 ) ) ;
#173 = LINE ( 'NONE', #518, #389 ) ;
#174 = FILL_AREA_STYLE_COLOUR ( '', #198 ) ;
#175 = CARTESIAN_POINT ( 'NONE',  ( -0.05100575969524810700, -0.03795495586560982500, 0.06921719865080210000 ) ) ;
#176 = PRESENTATION_LAYER_ASSIGNMENT (  '', '', ( #153 ) ) ;
#177 = FACE_OUTER_BOUND ( 'NONE', #199, .T. ) ;
#178 = CIRCLE ( 'NONE', #164, 0.002000000000000005200 ) ;
#179 = CARTESIAN_POINT ( 'NONE',  ( -0.05295495586560940900, -0.03669456354619433200, 0.06921719865080210000 ) ) ;
#180 = CARTESIAN_POINT ( 'NONE',  ( -0.05100575969524810000, -0.03600575969524850300, 0.07000000000000000700 ) ) ;
#181 = CARTESIAN_POINT ( 'NONE',  ( 0.05500000000000034700, -0.03917337091540640900, 0.02999999999999999500 ) ) ;
#182 = ORIENTED_EDGE ( 'NONE', *, *, #356, .T. ) ;
#183 = CARTESIAN_POINT ( 'NONE',  ( 0.05300388948840208100, -0.03605469331804036400, 0.06808647155436098300 ) ) ;
#184 = EDGE_CURVE ( 'NONE', #234, #139, #377, .T. ) ;
#185 = DIRECTION ( 'NONE',  ( 0.05233595624294379300, 0.0000000000000000000, -0.9986295347545737200 ) ) ;
#186 = ORIENTED_EDGE ( 'NONE', *, *, #51, .F. ) ;
#187 = ORIENTED_EDGE ( 'NONE', *, *, #101, .T. ) ;
#188 = LINE ( 'NONE', #49, #53 ) ;
#189 = CARTESIAN_POINT ( 'NONE',  ( 0.05295495586561031800, 0.03600575969524858600, 0.06921719865080214200 ) ) ;
#190 = ORIENTED_EDGE ( 'NONE', *, *, #85, .F. ) ;
#191 = CIRCLE ( 'NONE', #469, 0.002000000000000003900 ) ;
#192 = AXIS2_PLACEMENT_3D ( 'NONE', #396, #92, #269 ) ;
#193 = CARTESIAN_POINT ( 'NONE',  ( -0.05300274093049029600, 0.04000000000000011900, 0.02999999999999999900 ) ) ;
#194 = FACE_OUTER_BOUND ( 'NONE', #1, .T. ) ;
#195 = CARTESIAN_POINT ( 'NONE',  ( 0.05100575969524894600, 0.03600575969524869000, 0.07000000000000000700 ) ) ;
#196 = ORIENTED_EDGE ( 'NONE', *, *, #470, .F. ) ;
#197 = AXIS2_PLACEMENT_3D ( 'NONE', #521, #274, #152 ) ;
#198 = COLOUR_RGB ( '',0.9607843137254902200, 0.9607843137254902200, 0.9490196078431372100 ) ;
#199 = EDGE_LOOP ( 'NONE', ( #448, #519, #37, #196 ) ) ;
#200 = SHAPE_DEFINITION_REPRESENTATION ( #281, #247 ) ;
#201 = DIRECTION ( 'NONE',  ( 1.000000000000000000, -4.928191693115930000E-017, 0.0000000000000000000 ) ) ;
#202 =( NAMED_UNIT ( * ) PLANE_ANGLE_UNIT ( ) SI_UNIT ( $, .RADIAN. ) );
#203 = LINE ( 'NONE', #221, #306 ) ;
#204 = CARTESIAN_POINT ( 'NONE',  ( -0.05500000000000000000, -0.03999999999999989700, 0.07000000000000000700 ) ) ;
#205 = CYLINDRICAL_SURFACE ( 'NONE', #440, 0.002000000000000004400 ) ;
#206 = CARTESIAN_POINT ( 'NONE',  ( -0.05213754512812205500, 0.03600575969524869700, 0.07000000000000000700 ) ) ;
#207 = CIRCLE ( 'NONE', #99, 0.002000000000000003900 ) ;
#208 = MECHANICAL_DESIGN_GEOMETRIC_PRESENTATION_REPRESENTATION (  '', ( #153 ), #237 ) ;
#209 = EDGE_CURVE ( 'NONE', #93, #522, #163, .T. ) ;
#210 = ORIENTED_EDGE ( 'NONE', *, *, #157, .F. ) ;
#211 = ADVANCED_FACE ( 'NONE', ( #150 ), #5, .T. ) ;
#212 = ORIENTED_EDGE ( 'NONE', *, *, #3, .F. ) ;
#213 = ADVANCED_FACE ( 'NONE', ( #467 ), #16, .T. ) ;
#214 = EDGE_CURVE ( 'NONE', #162, #414, #136, .T. ) ;
#215 = ORIENTED_EDGE ( 'NONE', *, *, #482, .F. ) ;
#216 = CARTESIAN_POINT ( 'NONE',  ( 0.05100575969524888400, -0.03600575969524850300, 0.06999999999999999300 ) ) ;
#217 = AXIS2_PLACEMENT_3D ( 'NONE', #291, #201, #158 ) ;
#218 = EDGE_CURVE ( 'NONE', #227, #253, #361, .T. ) ;
#219 = FACE_OUTER_BOUND ( 'NONE', #126, .T. ) ;
#220 = DIRECTION ( 'NONE',  ( 0.05226442768871392800, -0.05226442768871392800, -0.9972646886342374500 ) ) ;
#221 = CARTESIAN_POINT ( 'NONE',  ( -0.05300301876475774200, 0.03600575969524869700, 0.06810467191248592600 ) ) ;
#222 = CARTESIAN_POINT ( 'NONE',  ( -0.05295495586560941500, -0.03722182013942526600, 0.06805262652965046700 ) ) ;
#223 = CARTESIAN_POINT ( 'NONE',  ( -0.05300274093049030900, -0.03999999999999989000, 0.02999999999999999900 ) ) ;
#224 = CARTESIAN_POINT ( 'NONE',  ( -0.05300274093049029600, 0.04000000000000011900, 0.02999999999999999900 ) ) ;
#225 = PLANE ( 'NONE',  #12 ) ;
#226 =( GEOMETRIC_REPRESENTATION_CONTEXT ( 3 ) GLOBAL_UNCERTAINTY_ASSIGNED_CONTEXT ( ( #305 ) ) GLOBAL_UNIT_ASSIGNED_CONTEXT ( ( #310, #43, #348 ) ) REPRESENTATION_CONTEXT ( 'NONE', 'WORKASPACE' ) );
#227 = VERTEX_POINT ( 'NONE', #180 ) ;
#228 = DIRECTION ( 'NONE',  ( 0.9986295347545737200, 0.0000000000000000000, -0.05233595624294390400 ) ) ;
#229 = PRODUCT ( 'User Library-Wurth Elektronik WL-SMCW 0603 (1608) LED Lens (Separate Body)', 'User Library-Wurth Elektronik WL-SMCW 0603 (1608) LED Lens (Separate Body)', '', ( #334 ) ) ;
#230 = CARTESIAN_POINT ( 'NONE',  ( 0.05500000000000038200, 0.03917337091540654800, 0.02999999999999999900 ) ) ;
#231 = ORIENTED_EDGE ( 'NONE', *, *, #33, .F. ) ;
#232 = CARTESIAN_POINT ( 'NONE',  ( 0.05213754512812290900, 0.03795495586561005400, 0.06921719865080221100 ) ) ;
#233 = EDGE_LOOP ( 'NONE', ( #450, #14, #419, #463 ) ) ;
#234 = VERTEX_POINT ( 'NONE', #515 ) ;
#235 = VECTOR ( 'NONE', #273, 100.0000000000000000 ) ;
#236 = CARTESIAN_POINT ( 'NONE',  ( 0.05300274093049121800, 0.04000000000000009100, 0.02999999999999999900 ) ) ;
#237 =( GEOMETRIC_REPRESENTATION_CONTEXT ( 3 ) GLOBAL_UNCERTAINTY_ASSIGNED_CONTEXT ( ( #383 ) ) GLOBAL_UNIT_ASSIGNED_CONTEXT ( ( #452, #202, #496 ) ) REPRESENTATION_CONTEXT ( 'NONE', 'WORKASPACE' ) );
#238 = CARTESIAN_POINT ( 'NONE',  ( -0.05417337091540589500, -0.03999999999999987600, 0.02999999999999999900 ) ) ;
#239 = CARTESIAN_POINT ( 'NONE',  ( -0.05300274093049029600, 0.04000000000000009800, 0.02999999999999999900 ) ) ;
#240 = VERTEX_POINT ( 'NONE', #223 ) ;
#241 = DIRECTION ( 'NONE',  ( -1.000000000000000000, 4.928191693115930000E-017, 0.0000000000000000000 ) ) ;
#242 = CARTESIAN_POINT ( 'NONE',  ( 0.05100575969524893300, -0.03600575969524853800, 0.06800000000000000500 ) ) ;
#243 = ORIENTED_EDGE ( 'NONE', *, *, #57, .T. ) ;
#244 = PRESENTATION_STYLE_ASSIGNMENT (( #4 ) ) ;
#245 = PRESENTATION_LAYER_ASSIGNMENT (  '', '', ( #495 ) ) ;
#246 =( LENGTH_UNIT ( ) NAMED_UNIT ( * ) SI_UNIT ( .CENTI., .METRE. ) );
#247 = ADVANCED_BREP_SHAPE_REPRESENTATION ( 'User Library-Wurth Elektronik WL-SMCW 0603 (1608) LED Lens (Separate Body)', ( #54, #23 ), #88 ) ;
#248 = AXIS2_PLACEMENT_3D ( 'NONE', #10, #50, #354 ) ;
#249 = DIRECTION ( 'NONE',  ( -0.05226442768871392100, -0.05226442768871392100, -0.9972646886342373400 ) ) ;
#250 = CARTESIAN_POINT ( 'NONE',  ( 0.05100575969524896700, 0.03600575969524867600, 0.06799999999999999100 ) ) ;
#251 = CARTESIAN_POINT ( 'NONE',  ( -0.05100575969524810000, -0.03999999999999989700, 0.06800000000000000500 ) ) ;
#252 = AXIS2_PLACEMENT_3D ( 'NONE', #204, #544, #296 ) ;
#253 = VERTEX_POINT ( 'NONE', #96 ) ;
#254 = ORIENTED_EDGE ( 'NONE', *, *, #127, .T. ) ;
#255 = CARTESIAN_POINT ( 'NONE',  ( -0.05100575969524810000, 0.03800388948840188000, 0.06808647155436098300 ) ) ;
#256 = EDGE_CURVE ( 'NONE', #532, #162, #347, .T. ) ;
#257 = CARTESIAN_POINT ( 'NONE',  ( -0.05295495586560942200, 0.03719203916960491000, 0.06874078627775721800 ) ) ;
#258 = CARTESIAN_POINT ( 'NONE',  ( -0.05500000000000000000, 0.04000000000000009100, 0.02999999999999999900 ) ) ;
#259 = ADVANCED_FACE ( 'NONE', ( #266 ), #520, .T. ) ;
#260 = ADVANCED_FACE ( 'NONE', ( #121 ), #225, .T. ) ;
#261 = AXIS2_PLACEMENT_3D ( 'NONE', #364, #105, #406 ) ;
#262 = CARTESIAN_POINT ( 'NONE',  ( 0.05100575969524887700, -0.03795495586560981800, 0.06921719865080210000 ) ) ;
#263 = EDGE_LOOP ( 'NONE', ( #286, #86, #374, #402 ) ) ;
#264 = ORIENTED_EDGE ( 'NONE', *, *, #146, .T. ) ;
#265 = EDGE_CURVE ( 'NONE', #423, #135, #478, .T. ) ;
#266 = FACE_OUTER_BOUND ( 'NONE', #233, .T. ) ;
#267 = FACE_OUTER_BOUND ( 'NONE', #456, .T. ) ;
#268 = SURFACE_SIDE_STYLE ('',( #111 ) ) ;
#269 = DIRECTION ( 'NONE',  ( 0.9986295347545737200, 0.0000000000000000000, 0.05233595624294390400 ) ) ;
#270 = DIRECTION ( 'NONE',  ( 1.000000000000000000, 0.0000000000000000000, 0.0000000000000000000 ) ) ;
#271 = CARTESIAN_POINT ( 'NONE',  ( -0.05300388948840129000, -0.03605469331804037100, 0.06808647155436098300 ) ) ;
#272 = CARTESIAN_POINT ( 'NONE',  ( 0.05100575969524890500, -0.03600575969524850300, 0.06800000000000000500 ) ) ;
#273 = DIRECTION ( 'NONE',  ( 1.000000000000000000, -4.928191693115930000E-017, 0.0000000000000000000 ) ) ;
#274 = DIRECTION ( 'NONE',  ( 1.000000000000000000, -4.928191693115930000E-017, 0.0000000000000000000 ) ) ;
#275 = EDGE_CURVE ( 'NONE', #313, #227, #444, .T. ) ;
#276 = ORIENTED_EDGE ( 'NONE', *, *, #280, .F. ) ;
#277 = VERTEX_POINT ( 'NONE', #411 ) ;
#278 = FACE_OUTER_BOUND ( 'NONE', #263, .T. ) ;
#279 = CARTESIAN_POINT ( 'NONE',  ( 0.05213754512812290900, 0.03600575969524849600, 0.07000000000000003400 ) ) ;
#280 = EDGE_CURVE ( 'NONE', #240, #522, #458, .T. ) ;
#281 = PRODUCT_DEFINITION_SHAPE ( 'NONE', 'NONE',  #48 ) ;
#282 = DIRECTION ( 'NONE',  ( 0.0000000000000000000, 1.000000000000000000, 0.0000000000000000000 ) ) ;
#283 = CARTESIAN_POINT ( 'NONE',  ( -0.05100575969524810000, 0.03600575969524869000, 0.06800000000000000500 ) ) ;
#284 = COLOUR_RGB ( '',0.9607843137254902200, 0.9607843137254902200, 0.9490196078431372100 ) ;
#285 = DIRECTION ( 'NONE',  ( 2.710505431213760100E-016, 1.000000000000000000, -0.0000000000000000000 ) ) ;
#286 = ORIENTED_EDGE ( 'NONE', *, *, #157, .T. ) ;
#287 = CARTESIAN_POINT ( 'NONE',  ( 0.05300274093049121800, 0.04000000000000009100, 0.02999999999999999900 ) ) ;
#288 = DIRECTION ( 'NONE',  ( 0.9986295347545739400, 0.0000000000000000000, 0.05233595624294120500 ) ) ;
#289 = AXIS2_PLACEMENT_3D ( 'NONE', #513, #46, #270 ) ;
#290 =( NAMED_UNIT ( * ) SI_UNIT ( $, .STERADIAN. ) SOLID_ANGLE_UNIT ( ) );
#291 = CARTESIAN_POINT ( 'NONE',  ( -0.05500000000000000000, 0.03600575969524869700, 0.06800000000000000500 ) ) ;
#292 = ORIENTED_EDGE ( 'NONE', *, *, #256, .T. ) ;
#293 = DIRECTION ( 'NONE',  ( 0.0000000000000000000, 0.0000000000000000000, 1.000000000000000000 ) ) ;
#294 = DIRECTION ( 'NONE',  ( 0.9986295347545739400, -1.626303258728253500E-014, 0.05233595624294120500 ) ) ;
#295 = CIRCLE ( 'NONE', #261, 0.002000000000000005200 ) ;
#296 = DIRECTION ( 'NONE',  ( 1.000000000000000000, 0.0000000000000000000, -0.0000000000000000000 ) ) ;
#297 = EDGE_CURVE ( 'NONE', #144, #423, #2, .T. ) ;
#298 = ORIENTED_EDGE ( 'NONE', *, *, #363, .T. ) ;
#299 = CARTESIAN_POINT ( 'NONE',  ( -0.05295495586560942200, 0.03600575969524869000, 0.06921719865080211400 ) ) ;
#300 = CIRCLE ( 'NONE', #390, 0.002000000000000003900 ) ;
#301 = ORIENTED_EDGE ( 'NONE', *, *, #385, .F. ) ;
#302 = ADVANCED_FACE ( 'NONE', ( #219 ), #26, .F. ) ;
#303 = EDGE_CURVE ( 'NONE', #253, #39, #207, .T. ) ;
#304 = CLOSED_SHELL ( 'NONE', ( #302, #170, #213, #260, #425, #259, #125, #211, #424, #339, #384, #79, #35, #550, #34, #462, #505, #382 ) ) ;
#305 = UNCERTAINTY_MEASURE_WITH_UNIT (LENGTH_MEASURE( 1.000000000000000100E-005 ), #310, 'distance_accuracy_value', 'NONE');
#306 = VECTOR ( 'NONE', #472, 100.0000000000000100 ) ;
#307 = AXIS2_PLACEMENT_3D ( 'NONE', #250, #542, #294 ) ;
#308 = LINE ( 'NONE', #418, #322 ) ;
#309 = CYLINDRICAL_SURFACE ( 'NONE', #217, 0.002000000000000000000 ) ;
#310 =( LENGTH_UNIT ( ) NAMED_UNIT ( * ) SI_UNIT ( .CENTI., .METRE. ) );
#311 = CARTESIAN_POINT ( 'NONE',  ( -0.05500000000000000000, 1.078476897330950200E-016, 0.02999999999999999900 ) ) ;
#312 = DIRECTION ( 'NONE',  ( -0.05226442768871392800, -0.05226442768871392800, -0.9972646886342374500 ) ) ;
#313 = VERTEX_POINT ( 'NONE', #451 ) ;
#314 = CARTESIAN_POINT ( 'NONE',  ( -0.05300388948840128300, -0.03609215038976298200, 0.06800373866485680300 ) ) ;
#315 = DIRECTION ( 'NONE',  ( -1.000000000000000000, 4.928191693115930000E-017, -0.0000000000000000000 ) ) ;
#316 = DIRECTION ( 'NONE',  ( 0.0000000000000000000, 1.000000000000000000, 0.0000000000000000000 ) ) ;
#317 = CARTESIAN_POINT ( 'NONE',  ( 0.05500000000000000000, 9.293990986141919400E-017, 0.02999999999999999900 ) ) ;
#318 = FACE_OUTER_BOUND ( 'NONE', #387, .T. ) ;
#319 = VECTOR ( 'NONE', #388, 100.0000000000000000 ) ;
#320 = CARTESIAN_POINT ( 'NONE',  ( 0.05300388948840218500, 0.03609215038976317000, 0.06800373866485680300 ) ) ;
#321 = CARTESIAN_POINT ( 'NONE',  ( 0.05100575969524890500, 0.03795495586561001300, 0.06921719865080221100 ) ) ;
#322 = VECTOR ( 'NONE', #117, 100.0000000000000000 ) ;
#323 = DIRECTION ( 'NONE',  ( 0.0000000000000000000, 0.0000000000000000000, 1.000000000000000000 ) ) ;
#324 = LINE ( 'NONE', #65, #76 ) ;
#325 = CARTESIAN_POINT ( 'NONE',  ( -0.05499999999999945900, -0.03917337091540634000, 0.02999999999999999900 ) ) ;
#326 = ORIENTED_EDGE ( 'NONE', *, *, #297, .F. ) ;
#327 = CARTESIAN_POINT ( 'NONE',  ( -0.05100575969524810000, -0.03600575969524850300, 0.06799999999999997700 ) ) ;
#328 = ORIENTED_EDGE ( 'NONE', *, *, #184, .T. ) ;
#329 = CARTESIAN_POINT ( 'NONE',  ( -0.05500000000000000000, -0.03600575969524850300, 0.06800000000000000500 ) ) ;
#330 = FACE_OUTER_BOUND ( 'NONE', #516, .T. ) ;
#331 = VERTEX_POINT ( 'NONE', #413 ) ;
#332 = APPLICATION_PROTOCOL_DEFINITION ( 'draft international standard', 'automotive_design', 1998, #371 ) ;
#333 = CARTESIAN_POINT ( 'NONE',  ( 0.05300301876475774200, 9.293990986141919400E-017, 0.06810467191248587000 ) ) ;
#334 = PRODUCT_CONTEXT ( 'NONE', #371, 'mechanical' ) ;
#335 = CARTESIAN_POINT ( 'NONE',  ( -0.05100575969524810000, -0.03600575969524850300, 0.06999999999999999300 ) ) ;
#336 = DIRECTION ( 'NONE',  ( -0.05226442768871392100, 0.05226442768871392100, -0.9972646886342373400 ) ) ;
#337 = VECTOR ( 'NONE', #241, 100.0000000000000000 ) ;
#338 = CARTESIAN_POINT ( 'NONE',  ( -0.05300388948840128300, 0.03609003470655150500, 0.06805262652965048100 ) ) ;
#339 = ADVANCED_FACE ( 'NONE', ( #89 ), #309, .T. ) ;
#340 = ORIENTED_EDGE ( 'NONE', *, *, #57, .F. ) ;
#341 = ORIENTED_EDGE ( 'NONE', *, *, #209, .T. ) ;
#342 = ORIENTED_EDGE ( 'NONE', *, *, #101, .F. ) ;
#343 =( BOUNDED_SURFACE ( )  B_SPLINE_SURFACE ( 3, 3, ( 
 ( #141, #183, #476, #455 ),
 ( #36, #344, #83, #386 ),
 ( #130, #427, #172, #464 ),
 ( #216, #508, #262, #554 ) ),
 .UNSPECIFIED., .F., .F., .F. ) 
 B_SPLINE_SURFACE_WITH_KNOTS ( ( 4, 4 ),
 ( 4, 4 ),
 ( 0.0000000000000000000, 1.000000000000000000 ),
 ( 0.0000000000000000000, 1.000000000000000000 ),
 .UNSPECIFIED. ) 
 GEOMETRIC_REPRESENTATION_ITEM ( )  RATIONAL_B_SPLINE_SURFACE ( (
 ( 1.000000000000000000, 0.8148207918478567200, 0.8148207918478567200, 1.000000000000000000),
 ( 0.8148207918478558300, 0.6639329228275675500, 0.6639329228275675500, 0.8148207918478558300),
 ( 0.8148207918478558300, 0.6639329228275675500, 0.6639329228275675500, 0.8148207918478558300),
 ( 1.000000000000000000, 0.8148207918478567200, 0.8148207918478567200, 1.000000000000000000) ) ) 
 REPRESENTATION_ITEM ( '' )  SURFACE ( )  );
#344 = CARTESIAN_POINT ( 'NONE',  ( 0.05295495586561022000, -0.03669456354619432500, 0.06921719865080210000 ) ) ;
#345 = EDGE_LOOP ( 'NONE', ( #431, #507, #11, #254 ) ) ;
#346 = ORIENTED_EDGE ( 'NONE', *, *, #90, .T. ) ;
#347 = LINE ( 'NONE', #477, #235 ) ;
#348 =( NAMED_UNIT ( * ) SI_UNIT ( $, .STERADIAN. ) SOLID_ANGLE_UNIT ( ) );
#349 = ORIENTED_EDGE ( 'NONE', *, *, #303, .F. ) ;
#350 = CARTESIAN_POINT ( 'NONE',  ( -0.05213754512812204800, -0.03600575969524850300, 0.06999999999999999300 ) ) ;
#351 = DIRECTION ( 'NONE',  ( 0.05233595624294379300, 0.0000000000000000000, 0.9986295347545737200 ) ) ;
#352 = CARTESIAN_POINT ( 'NONE',  ( -0.05485521928166854600, -0.03785796021215984100, 0.03276258067621988500 ) ) ;
#353 = DIRECTION ( 'NONE',  ( 0.05226442768871228400, 0.05226442768871385200, -0.9972646886342374500 ) ) ;
#354 = DIRECTION ( 'NONE',  ( 0.0000000000000000000, -0.05233595624294379300, -0.9986295347545737200 ) ) ;
#355 = ORIENTED_EDGE ( 'NONE', *, *, #543, .T. ) ;
#356 = EDGE_CURVE ( 'NONE', #144, #234, #530, .T. ) ;
#357 = UNCERTAINTY_MEASURE_WITH_UNIT (LENGTH_MEASURE( 1.000000000000000100E-005 ), #246, 'distance_accuracy_value', 'NONE');
#358 = CARTESIAN_POINT ( 'NONE',  ( 0.05300388948840218500, 0.03605469331804057200, 0.06808647155436098300 ) ) ;
#359 = ORIENTED_EDGE ( 'NONE', *, *, #265, .F. ) ;
#360 = EDGE_LOOP ( 'NONE', ( #380, #243, #264, #95 ) ) ;
#361 = CIRCLE ( 'NONE', #17, 0.002000000000000000000 ) ;
#362 = CARTESIAN_POINT ( 'NONE',  ( 0.05100575969524890500, 0.03600575969524849600, 0.06999999999999999300 ) ) ;
#363 = EDGE_CURVE ( 'NONE', #160, #414, #324, .T. ) ;
#364 = CARTESIAN_POINT ( 'NONE',  ( 0.05100575969524900200, 0.03600575969524870400, 0.06800000000000000500 ) ) ;
#365 = DIRECTION ( 'NONE',  ( 0.9986295347545737200, 0.0000000000000000000, -0.05233595624294390400 ) ) ;
#366 = CARTESIAN_POINT ( 'NONE',  ( -0.05300274093049030900, -0.03999999999999989000, 0.02999999999999999900 ) ) ;
#367 = DIRECTION ( 'NONE',  ( 1.000000000000000000, 0.0000000000000000000, 0.0000000000000000000 ) ) ;
#368 = DIRECTION ( 'NONE',  ( 0.05226442768871375500, 0.05226442768871389400, -0.9972646886342374500 ) ) ;
#369 = DIRECTION ( 'NONE',  ( -1.000000000000000000, -0.0000000000000000000, 0.0000000000000000000 ) ) ;
#370 = DIRECTION ( 'NONE',  ( 1.000000000000000000, 0.0000000000000000000, -0.0000000000000000000 ) ) ;
#371 = APPLICATION_CONTEXT ( 'automotive_design' ) ;
#372 = PLANE ( 'NONE',  #252 ) ;
#373 = APPLICATION_PROTOCOL_DEFINITION ( 'draft international standard', 'automotive_design', 1998, #66 ) ;
#374 = ORIENTED_EDGE ( 'NONE', *, *, #303, .T. ) ;
#375 = ORIENTED_EDGE ( 'NONE', *, *, #453, .T. ) ;
#376 = DIRECTION ( 'NONE',  ( 0.0000000000000000000, 0.0000000000000000000, 1.000000000000000000 ) ) ;
#377 = LINE ( 'NONE', #155, #40 ) ;
#378 = CYLINDRICAL_SURFACE ( 'NONE', #108, 0.002000000000000004400 ) ;
#379 = CARTESIAN_POINT ( 'NONE',  ( -0.05100575969524810000, 0.03713754512812266600, 0.07000000000000002100 ) ) ;
#380 = ORIENTED_EDGE ( 'NONE', *, *, #133, .F. ) ;
#381 = CARTESIAN_POINT ( 'NONE',  ( -0.05300388948840128300, 0.03600575969524870400, 0.06808647155436099700 ) ) ;
#382 = ADVANCED_FACE ( 'NONE', ( #511 ), #372, .T. ) ;
#383 = UNCERTAINTY_MEASURE_WITH_UNIT (LENGTH_MEASURE( 1.000000000000000100E-005 ), #452, 'distance_accuracy_value', 'NONE');
#384 = ADVANCED_FACE ( 'NONE', ( #194 ), #454, .T. ) ;
#385 = EDGE_CURVE ( 'NONE', #532, #331, #178, .T. ) ;
#386 = CARTESIAN_POINT ( 'NONE',  ( 0.05295495586561022000, -0.03722182013942525200, 0.06805262652965046700 ) ) ;
#387 = EDGE_LOOP ( 'NONE', ( #82, #552, #346 ) ) ;
#388 = DIRECTION ( 'NONE',  ( -2.710505431213760100E-016, -1.000000000000000000, 0.0000000000000000000 ) ) ;
#389 = VECTOR ( 'NONE', #475, 100.0000000000000000 ) ;
#390 = AXIS2_PLACEMENT_3D ( 'NONE', #242, #534, #288 ) ;
#391 = EDGE_CURVE ( 'NONE', #139, #423, #59, .T. ) ;
#392 = ORIENTED_EDGE ( 'NONE', *, *, #115, .T. ) ;
#393 = VECTOR ( 'NONE', #369, 100.0000000000000000 ) ;
#394 = DIRECTION ( 'NONE',  ( -0.05226442768871228400, -0.05226442768871385200, -0.9972646886342374500 ) ) ;
#395 = CARTESIAN_POINT ( 'NONE',  ( -0.05213754512812206200, -0.03795495586560979800, 0.06921719865080207300 ) ) ;
#396 = CARTESIAN_POINT ( 'NONE',  ( 0.05285796021216029900, 0.03785796021216000100, 0.03265790876373410300 ) ) ;
#397 = CARTESIAN_POINT ( 'NONE',  ( -0.05500000000000000000, -0.03999999999999989700, 0.02999999999999999900 ) ) ;
#398 = CARTESIAN_POINT ( 'NONE',  ( -0.05100575969524810000, -0.03600575969524850300, 0.06800000000000000500 ) ) ;
#399 = ORIENTED_EDGE ( 'NONE', *, *, #214, .F. ) ;
#400 = MECHANICAL_DESIGN_GEOMETRIC_PRESENTATION_REPRESENTATION (  '', ( #495 ), #226 ) ;
#401 =( BOUNDED_CURVE ( )  B_SPLINE_CURVE ( 3, ( #224, #517, #45, #71 ),
 .UNSPECIFIED., .F., .T. ) 
 B_SPLINE_CURVE_WITH_KNOTS ( ( 4, 4 ),
 ( 2.357564018062738900, 3.925621289116847800 ),
 .UNSPECIFIED. ) 
 CURVE ( )  GEOMETRIC_REPRESENTATION_ITEM ( )  RATIONAL_B_SPLINE_CURVE ( ( 1.000000000000000000, 0.8053830134673589700, 0.8053830134673589700, 1.000000000000000000 ) ) 
 REPRESENTATION_ITEM ( '' )  );
#402 = ORIENTED_EDGE ( 'NONE', *, *, #85, .T. ) ;
#403 = CYLINDRICAL_SURFACE ( 'NONE', #289, 0.002000000000000005200 ) ;
#404 = CARTESIAN_POINT ( 'NONE',  ( 0.05295495586561031800, 0.03722182013942550900, 0.06805262652965048100 ) ) ;
#405 = FACE_OUTER_BOUND ( 'NONE', #489, .T. ) ;
#406 = DIRECTION ( 'NONE',  ( 1.000000000000000000, 0.0000000000000000000, 0.0000000000000000000 ) ) ;
#407 = CARTESIAN_POINT ( 'NONE',  ( -0.05289893376818380300, 0.03789893376818449800, 0.03187608674064960200 ) ) ;
#408 = EDGE_LOOP ( 'NONE', ( #113, #504, #340, #28 ) ) ;
#409 = DIRECTION ( 'NONE',  ( 0.0000000000000000000, -0.05233595624294379300, 0.9986295347545737200 ) ) ;
#410 = ORIENTED_EDGE ( 'NONE', *, *, #214, .T. ) ;
#411 = CARTESIAN_POINT ( 'NONE',  ( -0.05499999999999960500, -0.03800274093049074700, 0.02999999999999999200 ) ) ;
#412 = DIRECTION ( 'NONE',  ( -1.000000000000000000, 4.928191693115930000E-017, 0.0000000000000000000 ) ) ;
#413 = CARTESIAN_POINT ( 'NONE',  ( -0.05300301876475747900, 0.03600575969524880100, 0.06810467191248591200 ) ) ;
#414 = VERTEX_POINT ( 'NONE', #528 ) ;
#415 = SURFACE_SIDE_STYLE ('',( #21 ) ) ;
#416 = FACE_OUTER_BOUND ( 'NONE', #360, .T. ) ;
#417 = DIRECTION ( 'NONE',  ( -2.703081215035241600E-016, -1.000000000000000000, -1.416624837017016900E-017 ) ) ;
#418 = CARTESIAN_POINT ( 'NONE',  ( -3.449734185181159800E-017, -0.03800301876475763900, 0.06810467191248589800 ) ) ;
#419 = ORIENTED_EDGE ( 'NONE', *, *, #280, .T. ) ;
#420 = AXIS2_PLACEMENT_3D ( 'NONE', #407, #56, #365 ) ;
#421 = CARTESIAN_POINT ( 'NONE',  ( -0.05213754512812205500, 0.03800388948840188000, 0.06808647155436098300 ) ) ;
#422 = FACE_OUTER_BOUND ( 'NONE', #118, .T. ) ;
#423 = VERTEX_POINT ( 'NONE', #488 ) ;
#424 = ADVANCED_FACE ( 'NONE', ( #422 ), #429, .T. ) ;
#425 = ADVANCED_FACE ( 'NONE', ( #330 ), #205, .T. ) ;
#426 = LINE ( 'NONE', #428, #319 ) ;
#427 = CARTESIAN_POINT ( 'NONE',  ( 0.05213754512812284600, -0.03713754512812246500, 0.07000000000000000700 ) ) ;
#428 = CARTESIAN_POINT ( 'NONE',  ( 0.05100575969524888400, -0.03999999999999989700, 0.07000000000000000700 ) ) ;
#429 = CYLINDRICAL_SURFACE ( 'NONE', #420, 0.002000000000000004400 ) ;
#430 = VECTOR ( 'NONE', #368, 99.99999999999998600 ) ;
#431 = ORIENTED_EDGE ( 'NONE', *, *, #385, .T. ) ;
#432 = CARTESIAN_POINT ( 'NONE',  ( -0.05295495586560941500, -0.03600575969524850300, 0.06921719865080211400 ) ) ;
#433 = CARTESIAN_POINT ( 'NONE',  ( 0.05417337091540679100, -0.03999999999999996600, 0.02999999999999999500 ) ) ;
#434 = DIRECTION ( 'NONE',  ( 0.0000000000000000000, -1.000000000000000000, -0.0000000000000000000 ) ) ;
#435 = DIRECTION ( 'NONE',  ( 0.0000000000000000000, -1.000000000000000000, 0.0000000000000000000 ) ) ;
#436 = DIRECTION ( 'NONE',  ( 0.9986295347545739400, -2.706790777722751100E-016, 0.05233595624294380700 ) ) ;
#437 =( BOUNDED_CURVE ( )  B_SPLINE_CURVE ( 3, ( #58, #325, #238, #366 ),
 .UNSPECIFIED., .F., .T. ) 
 B_SPLINE_CURVE_WITH_KNOTS ( ( 4, 4 ),
 ( 2.357564018062749500, 3.925621289116853200 ),
 .UNSPECIFIED. ) 
 CURVE ( )  GEOMETRIC_REPRESENTATION_ITEM ( )  RATIONAL_B_SPLINE_CURVE ( ( 1.000000000000000000, 0.8053830134673601900, 0.8053830134673601900, 1.000000000000000000 ) ) 
 REPRESENTATION_ITEM ( '' )  );
#438 = ORIENTED_EDGE ( 'NONE', *, *, #482, .T. ) ;
#439 = CARTESIAN_POINT ( 'NONE',  ( 0.05295495586561032400, 0.03669456354619448500, 0.06921719865080221100 ) ) ;
#440 = AXIS2_PLACEMENT_3D ( 'NONE', #447, #490, #106 ) ;
#441 = ORIENTED_EDGE ( 'NONE', *, *, #543, .F. ) ;
#442 = PLANE ( 'NONE',  #73 ) ;
#443 = DIRECTION ( 'NONE',  ( -0.0000000000000000000, 1.000000000000000000, 0.0000000000000000000 ) ) ;
#444 = LINE ( 'NONE', #145, #337 ) ;
#445 = EDGE_CURVE ( 'NONE', #414, #144, #102, .T. ) ;
#446 = CARTESIAN_POINT ( 'NONE',  ( -0.05100575969524810000, 0.03800301876475786100, 0.06810467191248588400 ) ) ;
#447 = CARTESIAN_POINT ( 'NONE',  ( 0.05289893376818469900, -0.03789893376818429700, 0.03187608674064960200 ) ) ;
#448 = ORIENTED_EDGE ( 'NONE', *, *, #90, .F. ) ;
#449 = CARTESIAN_POINT ( 'NONE',  ( 0.05300301876475776300, 0.03600575969524867600, 0.06810467191248587000 ) ) ;
#450 = ORIENTED_EDGE ( 'NONE', *, *, #470, .T. ) ;
#451 = CARTESIAN_POINT ( 'NONE',  ( 0.05100575969524889100, -0.03600575969524850300, 0.07000000000000000700 ) ) ;
#452 =( LENGTH_UNIT ( ) NAMED_UNIT ( * ) SI_UNIT ( .CENTI., .METRE. ) );
#453 = EDGE_CURVE ( 'NONE', #148, #160, #87, .T. ) ;
#454 =( BOUNDED_SURFACE ( )  B_SPLINE_SURFACE ( 3, 3, ( 
 ( #320, #52, #358, #100 ),
 ( #404, #149, #439, #189 ),
 ( #486, #232, #525, #279 ),
 ( #15, #321, #55, #362 ) ),
 .UNSPECIFIED., .F., .F., .F. ) 
 B_SPLINE_SURFACE_WITH_KNOTS ( ( 4, 4 ),
 ( 4, 4 ),
 ( 0.0000000000000000000, 1.000000000000000000 ),
 ( 0.0000000000000000000, 1.000000000000000000 ),
 .UNSPECIFIED. ) 
 GEOMETRIC_REPRESENTATION_ITEM ( )  RATIONAL_B_SPLINE_SURFACE ( (
 ( 1.000000000000000000, 0.8148207918478332900, 0.8148207918478332900, 1.000000000000000000),
 ( 0.8148207918478471700, 0.6639329228275413500, 0.6639329228275413500, 0.8148207918478471700),
 ( 0.8148207918478471700, 0.6639329228275413500, 0.6639329228275413500, 0.8148207918478471700),
 ( 1.000000000000000000, 0.8148207918478332900, 0.8148207918478332900, 1.000000000000000000) ) ) 
 REPRESENTATION_ITEM ( '' )  SURFACE ( )  );
#455 = CARTESIAN_POINT ( 'NONE',  ( 0.05300388948840208800, -0.03609215038976297500, 0.06800373866485680300 ) ) ;
#456 = EDGE_LOOP ( 'NONE', ( #355, #375, #298, #187 ) ) ;
#457 = ORIENTED_EDGE ( 'NONE', *, *, #445, .T. ) ;
#458 = LINE ( 'NONE', #480, #104 ) ;
#459 = CARTESIAN_POINT ( 'NONE',  ( -0.05213754512812205500, 0.03713754512812266600, 0.07000000000000002100 ) ) ;
#460 = CARTESIAN_POINT ( 'NONE',  ( -0.05100575969524810000, 0.03600575969524869000, 0.07000000000000000700 ) ) ;
#461 = PRESENTATION_STYLE_ASSIGNMENT (( #159 ) ) ;
#462 = ADVANCED_FACE ( 'NONE', ( #545 ), #74, .T. ) ;
#463 = ORIENTED_EDGE ( 'NONE', *, *, #209, .F. ) ;
#464 = CARTESIAN_POINT ( 'NONE',  ( 0.05213754512812284600, -0.03800388948840169300, 0.06808647155436098300 ) ) ;
#465 = ORIENTED_EDGE ( 'NONE', *, *, #184, .F. ) ;
#466 = EDGE_LOOP ( 'NONE', ( #29, #190, #392, #13 ) ) ;
#467 = FACE_OUTER_BOUND ( 'NONE', #497, .T. ) ;
#468 = CARTESIAN_POINT ( 'NONE',  ( -0.05100575969524810700, -0.03713754512812245100, 0.06999999999999999300 ) ) ;
#469 = AXIS2_PLACEMENT_3D ( 'NONE', #31, #336, #72 ) ;
#470 = EDGE_CURVE ( 'NONE', #93, #253, #308, .T. ) ;
#471 = CARTESIAN_POINT ( 'NONE',  ( 0.05289893376818467100, -0.03989619283769344600, 0.03198075865313549500 ) ) ;
#472 = DIRECTION ( 'NONE',  ( -0.05226442768871393500, 0.05226442768871494100, -0.9972646886342373400 ) ) ;
#473 = CARTESIAN_POINT ( 'NONE',  ( -0.05295495586560940900, -0.03719203916960470800, 0.06874078627775721800 ) ) ;
#474 = CARTESIAN_POINT ( 'NONE',  ( 0.05500000000000016700, -0.03800274093049080300, 0.02999999999999999900 ) ) ;
#475 = DIRECTION ( 'NONE',  ( 0.0000000000000000000, 1.000000000000000000, -0.0000000000000000000 ) ) ;
#476 = CARTESIAN_POINT ( 'NONE',  ( 0.05300388948840208100, -0.03609003470655131100, 0.06805262652965046700 ) ) ;
#477 = CARTESIAN_POINT ( 'NONE',  ( -0.05500000000000000000, 0.03600575969524869700, 0.07000000000000000700 ) ) ;
#478 =( BOUNDED_CURVE ( )  B_SPLINE_CURVE ( 3, ( #97, #230, #533, #287 ),
 .UNSPECIFIED., .F., .T. ) 
 B_SPLINE_CURVE_WITH_KNOTS ( ( 4, 4 ),
 ( 2.357564018062738900, 3.925621289116853200 ),
 .UNSPECIFIED. ) 
 CURVE ( )  GEOMETRIC_REPRESENTATION_ITEM ( )  RATIONAL_B_SPLINE_CURVE ( ( 1.000000000000000000, 0.8053830134673576300, 0.8053830134673576300, 1.000000000000000000 ) ) 
 REPRESENTATION_ITEM ( '' )  );
#479 = CARTESIAN_POINT ( 'NONE',  ( -0.05285796021215939700, -0.03785796021215980000, 0.03265790876373399900 ) ) ;
#480 = CARTESIAN_POINT ( 'NONE',  ( -0.05500000000000000000, -0.03999999999999989700, 0.02999999999999999900 ) ) ;
#481 = AXIS2_PLACEMENT_3D ( 'NONE', #272, #8, #316 ) ;
#482 = EDGE_CURVE ( 'NONE', #331, #160, #191, .T. ) ;
#483 = ORIENTED_EDGE ( 'NONE', *, *, #363, .F. ) ;
#484 = ORIENTED_EDGE ( 'NONE', *, *, #529, .T. ) ;
#485 = CIRCLE ( 'NONE', #506, 0.002000000000000005200 ) ;
#486 = CARTESIAN_POINT ( 'NONE',  ( 0.05213754512812290900, 0.03800388948840192900, 0.06808647155436098300 ) ) ;
#487 = VECTOR ( 'NONE', #443, 100.0000000000000000 ) ;
#488 = CARTESIAN_POINT ( 'NONE',  ( 0.05500000000000020200, 0.03800274093049093400, 0.02999999999999999900 ) ) ;
#489 = EDGE_LOOP ( 'NONE', ( #301, #492, #215 ) ) ;
#490 = DIRECTION ( 'NONE',  ( -0.05226442768871392100, 0.05226442768871392100, 0.9972646886342373400 ) ) ;
#491 = DIRECTION ( 'NONE',  ( 0.05226442768871403900, -0.05226442768871489300, -0.9972646886342373400 ) ) ;
#492 = ORIENTED_EDGE ( 'NONE', *, *, #123, .F. ) ;
#493 = CARTESIAN_POINT ( 'NONE',  ( -0.05100575969524805800, -0.03600575969524846800, 0.06800000000000000500 ) ) ;
#494 =( BOUNDED_SURFACE ( )  B_SPLINE_SURFACE ( 3, 3, ( 
 ( #255, #165, #379, #120 ),
 ( #421, #169, #459, #206 ),
 ( #501, #257, #546, #299 ),
 ( #32, #338, #75, #381 ) ),
 .UNSPECIFIED., .F., .F., .T. ) 
 B_SPLINE_SURFACE_WITH_KNOTS ( ( 4, 4 ),
 ( 4, 4 ),
 ( 0.0000000000000000000, 1.000000000000000000 ),
 ( 0.0000000000000000000, 1.000000000000000000 ),
 .UNSPECIFIED. ) 
 GEOMETRIC_REPRESENTATION_ITEM ( )  RATIONAL_B_SPLINE_SURFACE ( (
 ( 1.000000000000000000, 0.8148207918478572700, 0.8148207918478572700, 1.000000000000000000),
 ( 0.8148207918478582700, 0.6639329228275699900, 0.6639329228275699900, 0.8148207918478582700),
 ( 0.8148207918478582700, 0.6639329228275699900, 0.6639329228275699900, 0.8148207918478582700),
 ( 1.000000000000000000, 0.8148207918478572700, 0.8148207918478572700, 1.000000000000000000) ) ) 
 REPRESENTATION_ITEM ( '' )  SURFACE ( )  );
#495 = STYLED_ITEM ( 'NONE', ( #244 ), #54 ) ;
#496 =( NAMED_UNIT ( * ) SI_UNIT ( $, .STERADIAN. ) SOLID_ANGLE_UNIT ( ) );
#497 = EDGE_LOOP ( 'NONE', ( #64, #342, #457, #116 ) ) ;
#498 = DIRECTION ( 'NONE',  ( 0.05226442768871228400, -0.05226442768871385200, 0.9972646886342374500 ) ) ;
#499 = CIRCLE ( 'NONE', #197, 0.002000000000000000000 ) ;
#500 = AXIS2_PLACEMENT_3D ( 'NONE', #251, #69, #376 ) ;
#501 = CARTESIAN_POINT ( 'NONE',  ( -0.05295495586560942200, 0.03722182013942546000, 0.06805262652965048100 ) ) ;
#502 = LINE ( 'NONE', #258, #393 ) ;
#503 = CARTESIAN_POINT ( 'NONE',  ( 0.05300274093049117700, -0.03999999999999993100, 0.02999999999999999900 ) ) ;
#504 = ORIENTED_EDGE ( 'NONE', *, *, #275, .F. ) ;
#505 = ADVANCED_FACE ( 'NONE', ( #405 ), #494, .T. ) ;
#506 = AXIS2_PLACEMENT_3D ( 'NONE', #327, #60, #367 ) ;
#507 = ORIENTED_EDGE ( 'NONE', *, *, #115, .F. ) ;
#508 = CARTESIAN_POINT ( 'NONE',  ( 0.05100575969524887700, -0.03713754512812245800, 0.06999999999999999300 ) ) ;
#509 = LINE ( 'NONE', #352, #539 ) ;
#510 = FILL_AREA_STYLE ('',( #174 ) ) ;
#511 = FACE_OUTER_BOUND ( 'NONE', #408, .T. ) ;
#512 = CARTESIAN_POINT ( 'NONE',  ( 0.05300274093049117700, -0.03999999999999993100, 0.02999999999999999900 ) ) ;
#513 = CARTESIAN_POINT ( 'NONE',  ( 0.05100575969524890500, -0.03999999999999989700, 0.06800000000000000500 ) ) ;
#514 = CARTESIAN_POINT ( 'NONE',  ( -0.05300388948840128300, -0.03600575969524850300, 0.06808647155436099700 ) ) ;
#515 = CARTESIAN_POINT ( 'NONE',  ( 0.05300301876475790200, -0.03600575969524853800, 0.06810467191248588400 ) ) ;
#516 = EDGE_LOOP ( 'NONE', ( #484, #341, #110, #465 ) ) ;
#517 = CARTESIAN_POINT ( 'NONE',  ( -0.05417337091540590200, 0.04000000000000014700, 0.02999999999999999900 ) ) ;
#518 = CARTESIAN_POINT ( 'NONE',  ( -0.05300301876475774200, 1.078476897330950200E-016, 0.06810467191248592600 ) ) ;
#519 = ORIENTED_EDGE ( 'NONE', *, *, #275, .T. ) ;
#520 = PLANE ( 'NONE',  #248 ) ;
#521 = CARTESIAN_POINT ( 'NONE',  ( -0.05100575969524810000, 0.03600575969524869700, 0.06800000000000000500 ) ) ;
#522 = VERTEX_POINT ( 'NONE', #503 ) ;
#523 = VECTOR ( 'NONE', #394, 100.0000000000000100 ) ;
#524 = CARTESIAN_POINT ( 'NONE',  ( 0.05500000000000000000, -0.03999999999999989700, 0.02999999999999999900 ) ) ;
#525 = CARTESIAN_POINT ( 'NONE',  ( 0.05213754512812290900, 0.03713754512812256200, 0.07000000000000014500 ) ) ;
#526 = VECTOR ( 'NONE', #498, 100.0000000000000100 ) ;
#527 = CARTESIAN_POINT ( 'NONE',  ( -0.05100575969524810000, -0.03999999999999989700, 0.07000000000000000700 ) ) ;
#528 = CARTESIAN_POINT ( 'NONE',  ( 0.05100575969524908500, 0.03800301876475783300, 0.06810467191248588400 ) ) ;
#529 = EDGE_CURVE ( 'NONE', #234, #93, #300, .T. ) ;
#530 = LINE ( 'NONE', #333, #547 ) ;
#531 = CARTESIAN_POINT ( 'NONE',  ( 0.05100575969524890500, -0.03600575969524850300, 0.06800000000000000500 ) ) ;
#532 = VERTEX_POINT ( 'NONE', #460 ) ;
#533 = CARTESIAN_POINT ( 'NONE',  ( 0.05417337091540682500, 0.04000000000000009100, 0.02999999999999999900 ) ) ;
#534 = DIRECTION ( 'NONE',  ( 0.05226442768871392100, -0.05226442768871392100, -0.9972646886342373400 ) ) ;
#535 = LINE ( 'NONE', #397, #81 ) ;
#536 = CARTESIAN_POINT ( 'NONE',  ( -0.05500000000000000000, -0.03999999999999989700, 0.02999999999999999900 ) ) ;
#537 =( NAMED_UNIT ( * ) PLANE_ANGLE_UNIT ( ) SI_UNIT ( $, .RADIAN. ) );
#538 = VERTEX_POINT ( 'NONE', #548 ) ;
#539 = VECTOR ( 'NONE', #312, 99.99999999999998600 ) ;
#540 = DIRECTION ( 'NONE',  ( 0.9986295347545739400, 0.0000000000000000000, -0.05233595624294120500 ) ) ;
#541 = CARTESIAN_POINT ( 'NONE',  ( 0.0000000000000000000, 0.0000000000000000000, 0.0000000000000000000 ) ) ;
#542 = DIRECTION ( 'NONE',  ( 0.05226442768871392100, 0.05226442768871392100, -0.9972646886342373400 ) ) ;
#543 = EDGE_CURVE ( 'NONE', #135, #148, #502, .T. ) ;
#544 = DIRECTION ( 'NONE',  ( 0.0000000000000000000, 0.0000000000000000000, 1.000000000000000000 ) ) ;
#545 = FACE_OUTER_BOUND ( 'NONE', #345, .T. ) ;
#546 = CARTESIAN_POINT ( 'NONE',  ( -0.05295495586560942200, 0.03669456354619452000, 0.06921719865080210000 ) ) ;
#547 = VECTOR ( 'NONE', #417, 100.0000000000000000 ) ;
#548 = CARTESIAN_POINT ( 'NONE',  ( -0.05499999999999973000, 0.03800274093049099700, 0.03000000000000000200 ) ) ;
#549 = ORIENTED_EDGE ( 'NONE', *, *, #33, .T. ) ;
#550 = ADVANCED_FACE ( 'NONE', ( #177 ), #42, .T. ) ;
#551 = FACE_OUTER_BOUND ( 'NONE', #147, .T. ) ;
#552 = ORIENTED_EDGE ( 'NONE', *, *, #146, .F. ) ;
#553 =( BOUNDED_SURFACE ( )  B_SPLINE_SURFACE ( 3, 3, ( 
 ( #335, #468, #175, #167 ),
 ( #350, #91, #395, #140 ),
 ( #432, #179, #473, #222 ),
 ( #514, #271, #6, #314 ) ),
 .UNSPECIFIED., .F., .F., .T. ) 
 B_SPLINE_SURFACE_WITH_KNOTS ( ( 4, 4 ),
 ( 4, 4 ),
 ( 0.0000000000000000000, 1.000000000000000000 ),
 ( 0.0000000000000000000, 1.000000000000000000 ),
 .UNSPECIFIED. ) 
 GEOMETRIC_REPRESENTATION_ITEM ( )  RATIONAL_B_SPLINE_SURFACE ( (
 ( 1.000000000000000000, 0.8148207918478580500, 0.8148207918478580500, 1.000000000000000000),
 ( 0.8148207918478593800, 0.6639329228275715500, 0.6639329228275715500, 0.8148207918478593800),
 ( 0.8148207918478593800, 0.6639329228275715500, 0.6639329228275715500, 0.8148207918478593800),
 ( 1.000000000000000000, 0.8148207918478580500, 0.8148207918478580500, 1.000000000000000000) ) ) 
 REPRESENTATION_ITEM ( '' )  SURFACE ( )  );
#554 = CARTESIAN_POINT ( 'NONE',  ( 0.05100575969524888400, -0.03800388948840168600, 0.06808647155436098300 ) ) ;
ENDSEC;
END-ISO-10303-21;
