ISO-10303-21;
HEADER;
FILE_DESCRIPTION (( 'STEP AP214' ),
    '1' );
FILE_NAME ('User Library-Chip Resistor2.STEP',
    '2019-01-25T09:47:00',
    ( '' ),
    ( '' ),
    'SwSTEP 2.0',
    'SolidWorks 2018',
    '' );
FILE_SCHEMA (( 'AUTOMOTIVE_DESIGN' ));
ENDSEC;

DATA;
#1 = EDGE_CURVE ( 'NONE', #378, #517, #68, .T. ) ;
#2 = AXIS2_PLACEMENT_3D ( 'NONE', #140, #800, #143 ) ;
#3 = VECTOR ( 'NONE', #874, 1000.000000000000000 ) ;
#4 = PLANE ( 'NONE',  #540 ) ;
#5 = COLOUR_RGB ( '',0.2509803921568627416, 0.2509803921568627416, 0.2509803921568627416 ) ;
#6 = CARTESIAN_POINT ( 'NONE',  ( 0.4999999999999997780, 0.3499999999999999778, 0.2500000000000000555 ) ) ;
#7 = CARTESIAN_POINT ( 'NONE',  ( 0.3000000000000002665, 0.3499999999999999778, 0.2500000000000000555 ) ) ;
#8 = EDGE_CURVE ( 'NONE', #650, #54, #106, .T. ) ;
#9 = CARTESIAN_POINT ( 'NONE',  ( -0.5000000000000001110, 0.4000000000000000222, 0.2500000000000000555 ) ) ;
#10 = VERTEX_POINT ( 'NONE', #281 ) ;
#11 = ORIENTED_EDGE ( 'NONE', *, *, #599, .F. ) ;
#12 = AXIS2_PLACEMENT_3D ( 'NONE', #501, #587, #40 ) ;
#13 = ORIENTED_EDGE ( 'NONE', *, *, #71, .T. ) ;
#14 = DIRECTION ( 'NONE',  ( -0.0000000000000000000, 1.000000000000000000, -0.0000000000000000000 ) ) ;
#15 = EDGE_CURVE ( 'NONE', #309, #591, #273, .T. ) ;
#16 = CARTESIAN_POINT ( 'NONE',  ( -0.4500000000000001221, 0.05000000000000002359, 0.2000000000000000666 ) ) ;
#17 = COLOUR_RGB ( '',0.2509803921568627416, 0.2509803921568627416, 0.2509803921568627416 ) ;
#18 = VECTOR ( 'NONE', #197, 1000.000000000000000 ) ;
#19 = DIRECTION ( 'NONE',  ( 0.0000000000000000000, 1.000000000000000000, 0.0000000000000000000 ) ) ;
#20 = AXIS2_PLACEMENT_3D ( 'NONE', #553, #752, #85 ) ;
#21 = ORIENTED_EDGE ( 'NONE', *, *, #295, .F. ) ;
#22 = FILL_AREA_STYLE_COLOUR ( '', #529 ) ;
#23 = EDGE_LOOP ( 'NONE', ( #907, #1154, #651, #1179 ) ) ;
#24 = STYLED_ITEM ( 'NONE', ( #132 ), #743 ) ;
#25 = EDGE_LOOP ( 'NONE', ( #857, #574, #275, #208 ) ) ;
#26 = DIRECTION ( 'NONE',  ( -1.000000000000000000, 0.0000000000000000000, -0.0000000000000000000 ) ) ;
#27 = DIRECTION ( 'NONE',  ( 0.0000000000000000000, -0.0000000000000000000, -1.000000000000000000 ) ) ;
#28 = EDGE_CURVE ( 'NONE', #500, #880, #401, .T. ) ;
#29 = SURFACE_SIDE_STYLE ('',( #480 ) ) ;
#30 = VECTOR ( 'NONE', #61, 1000.000000000000000 ) ;
#31 = CARTESIAN_POINT ( 'NONE',  ( -0.4500000000000001221, 0.3499999999999999778, -0.2499999999999999445 ) ) ;
#32 = PLANE ( 'NONE',  #804 ) ;
#33 = PRESENTATION_STYLE_ASSIGNMENT (( #1131 ) ) ;
#34 = EDGE_CURVE ( 'NONE', #880, #307, #533, .T. ) ;
#35 = DIRECTION ( 'NONE',  ( 1.000000000000000000, 0.0000000000000000000, 0.0000000000000000000 ) ) ;
#36 = VERTEX_POINT ( 'NONE', #966 ) ;
#37 = VERTEX_POINT ( 'NONE', #398 ) ;
#38 = AXIS2_PLACEMENT_3D ( 'NONE', #729, #257, #976 ) ;
#39 = VERTEX_POINT ( 'NONE', #411 ) ;
#40 = DIRECTION ( 'NONE',  ( 0.0000000000000000000, 0.0000000000000000000, -1.000000000000000000 ) ) ;
#41 =( NAMED_UNIT ( * ) SI_UNIT ( $, .STERADIAN. ) SOLID_ANGLE_UNIT ( ) );
#42 = DIRECTION ( 'NONE',  ( -1.000000000000000000, 0.0000000000000000000, 0.0000000000000000000 ) ) ;
#43 = DIRECTION ( 'NONE',  ( 0.0000000000000000000, 0.0000000000000000000, -1.000000000000000000 ) ) ;
#44 = AXIS2_PLACEMENT_3D ( 'NONE', #1066, #900, #1076 ) ;
#45 = CARTESIAN_POINT ( 'NONE',  ( 0.3000000000000002665, 0.05000000000000002359, 0.2500000000000000555 ) ) ;
#46 = LINE ( 'NONE', #849, #782 ) ;
#47 = AXIS2_PLACEMENT_3D ( 'NONE', #632, #739, #821 ) ;
#48 = ADVANCED_FACE ( 'NONE', ( #320 ), #802, .T. ) ;
#49 = CARTESIAN_POINT ( 'NONE',  ( -0.5000000000000001110, 0.3499999999999999778, -0.2499999999999999445 ) ) ;
#50 = CARTESIAN_POINT ( 'NONE',  ( -0.4500000000000001221, 0.3499999999999999778, -0.1999999999999999556 ) ) ;
#51 = EDGE_LOOP ( 'NONE', ( #348, #485, #422, #628 ) ) ;
#52 = FILL_AREA_STYLE ('',( #623 ) ) ;
#53 = ORIENTED_EDGE ( 'NONE', *, *, #599, .T. ) ;
#54 = VERTEX_POINT ( 'NONE', #1060 ) ;
#55 = DIRECTION ( 'NONE',  ( 0.0000000000000000000, 0.0000000000000000000, -1.000000000000000000 ) ) ;
#56 = DIRECTION ( 'NONE',  ( 0.0000000000000000000, -1.000000000000000000, 0.0000000000000000000 ) ) ;
#57 = ORIENTED_EDGE ( 'NONE', *, *, #213, .T. ) ;
#58 = DIRECTION ( 'NONE',  ( 1.000000000000000000, -0.0000000000000000000, -0.0000000000000000000 ) ) ;
#59 = DIRECTION ( 'NONE',  ( 1.000000000000000000, 0.0000000000000000000, -0.0000000000000000000 ) ) ;
#60 = VECTOR ( 'NONE', #975, 1000.000000000000000 ) ;
#61 = DIRECTION ( 'NONE',  ( -1.000000000000000000, -0.0000000000000000000, 0.0000000000000000000 ) ) ;
#62 = DIRECTION ( 'NONE',  ( -1.000000000000000000, -0.0000000000000000000, -0.0000000000000000000 ) ) ;
#63 = MECHANICAL_DESIGN_GEOMETRIC_PRESENTATION_REPRESENTATION (  '', ( #244 ), #631 ) ;
#64 = FACE_OUTER_BOUND ( 'NONE', #1072, .T. ) ;
#65 = LINE ( 'NONE', #303, #1065 ) ;
#66 = SPHERICAL_SURFACE ( 'NONE', #1106, 0.05000000000000000278 ) ;
#67 = CARTESIAN_POINT ( 'NONE',  ( -0.3000000000000001554, 0.3499999999999999778, -0.1999999999999999556 ) ) ;
#68 = LINE ( 'NONE', #199, #1069 ) ;
#69 = ORIENTED_EDGE ( 'NONE', *, *, #1159, .T. ) ;
#70 = ORIENTED_EDGE ( 'NONE', *, *, #865, .F. ) ;
#71 = EDGE_CURVE ( 'NONE', #535, #680, #757, .T. ) ;
#72 = DIRECTION ( 'NONE',  ( -1.000000000000000000, 0.0000000000000000000, 0.0000000000000000000 ) ) ;
#73 = AXIS2_PLACEMENT_3D ( 'NONE', #282, #1013, #280 ) ;
#74 = CARTESIAN_POINT ( 'NONE',  ( 0.4999999999999998890, 0.4000000000000000222, 0.2000000000000000389 ) ) ;
#75 = DIRECTION ( 'NONE',  ( 1.000000000000000000, 0.0000000000000000000, 0.0000000000000000000 ) ) ;
#76 = PRESENTATION_STYLE_ASSIGNMENT (( #746 ) ) ;
#77 = DIRECTION ( 'NONE',  ( 0.0000000000000000000, -1.000000000000000000, 0.0000000000000000000 ) ) ;
#78 = AXIS2_PLACEMENT_3D ( 'NONE', #994, #162, #904 ) ;
#79 = LINE ( 'NONE', #388, #935 ) ;
#80 = ORIENTED_EDGE ( 'NONE', *, *, #1, .T. ) ;
#81 = ORIENTED_EDGE ( 'NONE', *, *, #1126, .F. ) ;
#82 = ORIENTED_EDGE ( 'NONE', *, *, #215, .T. ) ;
#83 = EDGE_LOOP ( 'NONE', ( #265, #1107, #576, #761 ) ) ;
#84 =( GEOMETRIC_REPRESENTATION_CONTEXT ( 3 ) GLOBAL_UNCERTAINTY_ASSIGNED_CONTEXT ( ( #1153 ) ) GLOBAL_UNIT_ASSIGNED_CONTEXT ( ( #445, #1086, #549 ) ) REPRESENTATION_CONTEXT ( 'NONE', 'WORKASPACE' ) );
#85 = DIRECTION ( 'NONE',  ( 0.0000000000000000000, 0.0000000000000000000, -1.000000000000000000 ) ) ;
#86 = AXIS2_PLACEMENT_3D ( 'NONE', #952, #685, #871 ) ;
#87 = EDGE_CURVE ( 'NONE', #500, #481, #250, .T. ) ;
#88 = COLOUR_RGB ( '',0.2509803921568627416, 0.2509803921568627416, 0.2509803921568627416 ) ;
#89 = EDGE_CURVE ( 'NONE', #680, #1025, #1132, .T. ) ;
#90 = VECTOR ( 'NONE', #223, 1000.000000000000000 ) ;
#91 = VECTOR ( 'NONE', #822, 1000.000000000000000 ) ;
#92 = EDGE_LOOP ( 'NONE', ( #1008, #844, #1026, #70 ) ) ;
#93 = DIRECTION ( 'NONE',  ( 0.0000000000000000000, 0.0000000000000000000, 1.000000000000000000 ) ) ;
#94 = ORIENTED_EDGE ( 'NONE', *, *, #267, .T. ) ;
#95 = ORIENTED_EDGE ( 'NONE', *, *, #720, .F. ) ;
#96 = DIRECTION ( 'NONE',  ( 1.000000000000000000, 0.0000000000000000000, 0.0000000000000000000 ) ) ;
#97 = EDGE_CURVE ( 'NONE', #1025, #36, #927, .T. ) ;
#98 = AXIS2_PLACEMENT_3D ( 'NONE', #232, #698, #505 ) ;
#99 = ADVANCED_FACE ( 'NONE', ( #1024 ), #1044, .T. ) ;
#100 = SURFACE_STYLE_FILL_AREA ( #723 ) ;
#101 = DIRECTION ( 'NONE',  ( 1.000000000000000000, 0.0000000000000000000, 0.0000000000000000000 ) ) ;
#102 = SURFACE_STYLE_FILL_AREA ( #930 ) ;
#103 = CARTESIAN_POINT ( 'NONE',  ( 0.4499999999999997891, 0.3499999999999999778, -0.1999999999999999556 ) ) ;
#104 = EDGE_CURVE ( 'NONE', #535, #805, #271, .T. ) ;
#105 = DIRECTION ( 'NONE',  ( 1.000000000000000000, 0.0000000000000000000, -0.0000000000000000000 ) ) ;
#106 = LINE ( 'NONE', #852, #853 ) ;
#107 = ORIENTED_EDGE ( 'NONE', *, *, #360, .T. ) ;
#108 = MECHANICAL_DESIGN_GEOMETRIC_PRESENTATION_REPRESENTATION (  '', ( #201 ), #637 ) ;
#109 = CARTESIAN_POINT ( 'NONE',  ( -0.3000000000000001554, 0.4000000000000000222, -0.2499999999999999445 ) ) ;
#110 = DIRECTION ( 'NONE',  ( -0.0000000000000000000, -0.0000000000000000000, -1.000000000000000000 ) ) ;
#111 = ORIENTED_EDGE ( 'NONE', *, *, #635, .T. ) ;
#112 = DIRECTION ( 'NONE',  ( -0.0000000000000000000, 0.0000000000000000000, 1.000000000000000000 ) ) ;
#113 = ORIENTED_EDGE ( 'NONE', *, *, #590, .F. ) ;
#114 = FILL_AREA_STYLE_COLOUR ( '', #979 ) ;
#115 = CARTESIAN_POINT ( 'NONE',  ( -0.4500000000000001221, 0.4000000000000000222, -0.2499999999999999445 ) ) ;
#116 = CARTESIAN_POINT ( 'NONE',  ( 0.4999999999999998890, 0.0000000000000000000, -0.2499999999999999445 ) ) ;
#117 = LINE ( 'NONE', #971, #901 ) ;
#118 = DIRECTION ( 'NONE',  ( 0.0000000000000000000, 0.0000000000000000000, 1.000000000000000000 ) ) ;
#119 = CIRCLE ( 'NONE', #284, 0.04999999999999999584 ) ;
#120 = DIRECTION ( 'NONE',  ( 0.0000000000000000000, -1.000000000000000000, 0.0000000000000000000 ) ) ;
#121 =( GEOMETRIC_REPRESENTATION_CONTEXT ( 3 ) GLOBAL_UNCERTAINTY_ASSIGNED_CONTEXT ( ( #384 ) ) GLOBAL_UNIT_ASSIGNED_CONTEXT ( ( #245, #652, #1180 ) ) REPRESENTATION_CONTEXT ( 'NONE', 'WORKASPACE' ) );
#122 = ORIENTED_EDGE ( 'NONE', *, *, #228, .T. ) ;
#123 =( NAMED_UNIT ( * ) SI_UNIT ( $, .STERADIAN. ) SOLID_ANGLE_UNIT ( ) );
#124 = ORIENTED_EDGE ( 'NONE', *, *, #152, .T. ) ;
#125 = ORIENTED_EDGE ( 'NONE', *, *, #1176, .T. ) ;
#126 =( NAMED_UNIT ( * ) SI_UNIT ( $, .STERADIAN. ) SOLID_ANGLE_UNIT ( ) );
#127 = FILL_AREA_STYLE_COLOUR ( '', #17 ) ;
#128 = EDGE_CURVE ( 'NONE', #1120, #747, #660, .T. ) ;
#129 =( NAMED_UNIT ( * ) SI_UNIT ( $, .STERADIAN. ) SOLID_ANGLE_UNIT ( ) );
#130 = AXIS2_PLACEMENT_3D ( 'NONE', #1156, #55, #1059 ) ;
#131 = FACE_OUTER_BOUND ( 'NONE', #25, .T. ) ;
#132 = PRESENTATION_STYLE_ASSIGNMENT (( #673 ) ) ;
#133 = DIRECTION ( 'NONE',  ( -5.421010862427520198E-16, 0.0000000000000000000, -1.000000000000000000 ) ) ;
#134 = VECTOR ( 'NONE', #1089, 1000.000000000000000 ) ;
#135 = DIRECTION ( 'NONE',  ( -1.000000000000000000, -0.0000000000000000000, 0.0000000000000000000 ) ) ;
#136 = VERTEX_POINT ( 'NONE', #1136 ) ;
#137 = DIRECTION ( 'NONE',  ( 1.000000000000000000, 0.0000000000000000000, 0.0000000000000000000 ) ) ;
#138 = VERTEX_POINT ( 'NONE', #961 ) ;
#139 = AXIS2_PLACEMENT_3D ( 'NONE', #909, #351, #1022 ) ;
#140 = CARTESIAN_POINT ( 'NONE',  ( -0.4500000000000001221, 0.3499999999999999778, 0.2000000000000000666 ) ) ;
#141 = ORIENTED_EDGE ( 'NONE', *, *, #948, .F. ) ;
#142 = CARTESIAN_POINT ( 'NONE',  ( 0.4499999999999997891, 0.05000000000000002359, -0.1999999999999999556 ) ) ;
#143 = DIRECTION ( 'NONE',  ( 0.0000000000000000000, 0.0000000000000000000, 1.000000000000000000 ) ) ;
#144 = ADVANCED_FACE ( 'NONE', ( #625 ), #66, .T. ) ;
#145 = CARTESIAN_POINT ( 'NONE',  ( 0.4499999999999997891, 0.4000000000000000222, 0.2000000000000000666 ) ) ;
#146 = STYLED_ITEM ( 'NONE', ( #1052 ), #475 ) ;
#147 = AXIS2_PLACEMENT_3D ( 'NONE', #116, #120, #27 ) ;
#148 = CIRCLE ( 'NONE', #206, 0.04999999999999999584 ) ;
#149 = DIRECTION ( 'NONE',  ( 1.000000000000000000, -0.0000000000000000000, -0.0000000000000000000 ) ) ;
#150 = DIRECTION ( 'NONE',  ( 0.0000000000000000000, 0.0000000000000000000, -1.000000000000000000 ) ) ;
#151 = FACE_OUTER_BOUND ( 'NONE', #760, .T. ) ;
#152 = EDGE_CURVE ( 'NONE', #1025, #591, #1130, .T. ) ;
#153 = ORIENTED_EDGE ( 'NONE', *, *, #503, .F. ) ;
#154 = EDGE_CURVE ( 'NONE', #997, #747, #465, .T. ) ;
#155 = ORIENTED_EDGE ( 'NONE', *, *, #432, .F. ) ;
#156 = ORIENTED_EDGE ( 'NONE', *, *, #28, .F. ) ;
#157 = DIRECTION ( 'NONE',  ( 1.000000000000000000, 0.0000000000000000000, 0.0000000000000000000 ) ) ;
#158 = CARTESIAN_POINT ( 'NONE',  ( 0.4999999999999998890, 0.0000000000000000000, -0.1999999999999999556 ) ) ;
#159 = SURFACE_SIDE_STYLE ('',( #1174 ) ) ;
#160 = EDGE_CURVE ( 'NONE', #940, #361, #1178, .T. ) ;
#161 = CYLINDRICAL_SURFACE ( 'NONE', #597, 0.04999999999999999584 ) ;
#162 = DIRECTION ( 'NONE',  ( 0.0000000000000000000, 0.0000000000000000000, 1.000000000000000000 ) ) ;
#163 = AXIS2_PLACEMENT_3D ( 'NONE', #285, #779, #776 ) ;
#164 = DIRECTION ( 'NONE',  ( -1.000000000000000000, 0.0000000000000000000, -0.0000000000000000000 ) ) ;
#165 = VECTOR ( 'NONE', #178, 1000.000000000000000 ) ;
#166 = VECTOR ( 'NONE', #421, 1000.000000000000000 ) ;
#167 = DIRECTION ( 'NONE',  ( 0.0000000000000000000, -1.000000000000000000, 5.421010862427519212E-16 ) ) ;
#168 = CARTESIAN_POINT ( 'NONE',  ( -0.4500000000000001221, 0.05000000000000002359, 0.2500000000000000555 ) ) ;
#169 = ORIENTED_EDGE ( 'NONE', *, *, #566, .F. ) ;
#170 = ORIENTED_EDGE ( 'NONE', *, *, #687, .F. ) ;
#171 = VERTEX_POINT ( 'NONE', #817 ) ;
#172 = EDGE_CURVE ( 'NONE', #288, #880, #119, .T. ) ;
#173 =( NAMED_UNIT ( * ) SI_UNIT ( $, .STERADIAN. ) SOLID_ANGLE_UNIT ( ) );
#174 = AXIS2_PLACEMENT_3D ( 'NONE', #467, #19, #600 ) ;
#175 = PLANE ( 'NONE',  #1081 ) ;
#176 = FACE_OUTER_BOUND ( 'NONE', #819, .T. ) ;
#177 = LINE ( 'NONE', #115, #90 ) ;
#178 = DIRECTION ( 'NONE',  ( -2.168404344971009115E-16, 0.0000000000000000000, -1.000000000000000000 ) ) ;
#179 = UNCERTAINTY_MEASURE_WITH_UNIT (LENGTH_MEASURE( 1.000000000000000082E-05 ), #1029, 'distance_accuracy_value', 'NONE');
#180 = VERTEX_POINT ( 'NONE', #231 ) ;
#181 = ORIENTED_EDGE ( 'NONE', *, *, #559, .F. ) ;
#182 = EDGE_CURVE ( 'NONE', #713, #680, #262, .T. ) ;
#183 = EDGE_LOOP ( 'NONE', ( #153, #870, #1083, #929 ) ) ;
#184 = CARTESIAN_POINT ( 'NONE',  ( -0.4500000000000001221, 0.4000000000000000222, -0.2499999999999999445 ) ) ;
#185 = AXIS2_PLACEMENT_3D ( 'NONE', #168, #243, #536 ) ;
#186 = LINE ( 'NONE', #74, #1127 ) ;
#187 = DIRECTION ( 'NONE',  ( 0.0000000000000000000, -1.000000000000000000, 0.0000000000000000000 ) ) ;
#188 = FACE_OUTER_BOUND ( 'NONE', #403, .T. ) ;
#189 = EDGE_CURVE ( 'NONE', #517, #180, #358, .T. ) ;
#190 = FACE_OUTER_BOUND ( 'NONE', #83, .T. ) ;
#191 = LINE ( 'NONE', #184, #742 ) ;
#192 = AXIS2_PLACEMENT_3D ( 'NONE', #947, #301, #1040 ) ;
#193 = ADVANCED_FACE ( 'NONE', ( #915 ), #1157, .F. ) ;
#194 = ORIENTED_EDGE ( 'NONE', *, *, #160, .T. ) ;
#195 = DIRECTION ( 'NONE',  ( 1.000000000000000000, 0.0000000000000000000, -0.0000000000000000000 ) ) ;
#196 = ORIENTED_EDGE ( 'NONE', *, *, #748, .T. ) ;
#197 = DIRECTION ( 'NONE',  ( 0.0000000000000000000, -1.000000000000000000, 0.0000000000000000000 ) ) ;
#198 = ORIENTED_EDGE ( 'NONE', *, *, #154, .F. ) ;
#199 = CARTESIAN_POINT ( 'NONE',  ( 0.4499999999999997891, 0.4000000000000000222, -0.2499999999999999445 ) ) ;
#200 = CARTESIAN_POINT ( 'NONE',  ( 0.4999999999999998890, 0.4000000000000000222, 0.2000000000000000389 ) ) ;
#201 = STYLED_ITEM ( 'NONE', ( #569 ), #764 ) ;
#202 = CIRCLE ( 'NONE', #1147, 0.05000000000000002359 ) ;
#203 = ADVANCED_FACE ( 'NONE', ( #233 ), #981, .T. ) ;
#204 = SURFACE_STYLE_USAGE ( .BOTH. , #774 ) ;
#205 = LINE ( 'NONE', #417, #492 ) ;
#206 = AXIS2_PLACEMENT_3D ( 'NONE', #659, #187, #483 ) ;
#207 =( NAMED_UNIT ( * ) PLANE_ANGLE_UNIT ( ) SI_UNIT ( $, .RADIAN. ) );
#208 = ORIENTED_EDGE ( 'NONE', *, *, #687, .T. ) ;
#209 = SURFACE_SIDE_STYLE ('',( #725 ) ) ;
#210 = ORIENTED_EDGE ( 'NONE', *, *, #154, .T. ) ;
#211 = CARTESIAN_POINT ( 'NONE',  ( 0.4499999999999997891, 0.05000000000000002359, -0.2499999999999999445 ) ) ;
#212 = ORIENTED_EDGE ( 'NONE', *, *, #97, .T. ) ;
#213 = EDGE_CURVE ( 'NONE', #37, #1120, #1007, .T. ) ;
#214 =( NAMED_UNIT ( * ) PLANE_ANGLE_UNIT ( ) SI_UNIT ( $, .RADIAN. ) );
#215 = EDGE_CURVE ( 'NONE', #180, #309, #371, .T. ) ;
#216 = DIRECTION ( 'NONE',  ( 1.000000000000000000, -0.0000000000000000000, 0.0000000000000000000 ) ) ;
#217 = CARTESIAN_POINT ( 'NONE',  ( -0.4500000000000001221, 0.4000000000000000222, -0.1999999999999999556 ) ) ;
#218 = CARTESIAN_POINT ( 'NONE',  ( 0.3000000000000002665, 0.05000000000000002359, 0.2000000000000000666 ) ) ;
#219 = CIRCLE ( 'NONE', #258, 0.05000000000000002359 ) ;
#220 = CYLINDRICAL_SURFACE ( 'NONE', #381, 0.05000000000000002359 ) ;
#221 = CARTESIAN_POINT ( 'NONE',  ( -0.5000000000000001110, 0.3499999999999999778, 0.2500000000000000555 ) ) ;
#222 = ORIENTED_EDGE ( 'NONE', *, *, #160, .F. ) ;
#223 = DIRECTION ( 'NONE',  ( -0.0000000000000000000, 1.000000000000000000, -0.0000000000000000000 ) ) ;
#224 = ORIENTED_EDGE ( 'NONE', *, *, #732, .T. ) ;
#225 = ORIENTED_EDGE ( 'NONE', *, *, #635, .F. ) ;
#226 = PLANE ( 'NONE',  #840 ) ;
#227 = DIRECTION ( 'NONE',  ( 0.0000000000000000000, 0.0000000000000000000, -1.000000000000000000 ) ) ;
#228 = EDGE_CURVE ( 'NONE', #1120, #171, #452, .T. ) ;
#229 = DIRECTION ( 'NONE',  ( 1.000000000000000000, 0.0000000000000000000, 0.0000000000000000000 ) ) ;
#230 = CARTESIAN_POINT ( 'NONE',  ( -0.5000000000000001110, 0.05000000000000002359, -0.2499999999999999445 ) ) ;
#231 = CARTESIAN_POINT ( 'NONE',  ( 0.3000000000000001554, 0.4000000000000000222, -0.1999999999999999556 ) ) ;
#232 = CARTESIAN_POINT ( 'NONE',  ( -0.4500000000000001221, 0.05000000000000000278, -0.1999999999999999556 ) ) ;
#233 = FACE_OUTER_BOUND ( 'NONE', #969, .T. ) ;
#234 = SURFACE_SIDE_STYLE ('',( #547 ) ) ;
#235 = ORIENTED_EDGE ( 'NONE', *, *, #128, .F. ) ;
#236 = CARTESIAN_POINT ( 'NONE',  ( 0.3000000000000001554, 0.4000000000000000222, -0.2499999999999998890 ) ) ;
#237 = ORIENTED_EDGE ( 'NONE', *, *, #1073, .F. ) ;
#238 = EDGE_LOOP ( 'NONE', ( #194, #69, #928, #608 ) ) ;
#239 = ADVANCED_FACE ( 'NONE', ( #1068 ), #783, .T. ) ;
#240 = CARTESIAN_POINT ( 'NONE',  ( 0.4499999999999997891, 0.4000000000000000222, -0.1999999999999999556 ) ) ;
#241 = DIRECTION ( 'NONE',  ( 0.0000000000000000000, 0.0000000000000000000, -1.000000000000000000 ) ) ;
#242 = CARTESIAN_POINT ( 'NONE',  ( -0.4500000000000001221, 0.05000000000000002359, -0.1999999999999999278 ) ) ;
#243 = DIRECTION ( 'NONE',  ( 0.0000000000000000000, 0.0000000000000000000, -1.000000000000000000 ) ) ;
#244 = STYLED_ITEM ( 'NONE', ( #286 ), #579 ) ;
#245 =( LENGTH_UNIT ( ) NAMED_UNIT ( * ) SI_UNIT ( .MILLI., .METRE. ) );
#246 = FACE_OUTER_BOUND ( 'NONE', #51, .T. ) ;
#247 = LINE ( 'NONE', #601, #1146 ) ;
#248 = CARTESIAN_POINT ( 'NONE',  ( -0.3000000000000001554, 0.4000000000000000222, -0.1999999999999999556 ) ) ;
#249 = VECTOR ( 'NONE', #1005, 1000.000000000000000 ) ;
#250 = CIRCLE ( 'NONE', #696, 0.04999999999999999584 ) ;
#251 = EDGE_CURVE ( 'NONE', #309, #136, #818, .T. ) ;
#252 = ORIENTED_EDGE ( 'NONE', *, *, #917, .F. ) ;
#253 = DIRECTION ( 'NONE',  ( 0.0000000000000000000, 1.000000000000000000, 0.0000000000000000000 ) ) ;
#254 = ORIENTED_EDGE ( 'NONE', *, *, #356, .F. ) ;
#255 = AXIS2_PLACEMENT_3D ( 'NONE', #31, #688, #35 ) ;
#256 = CARTESIAN_POINT ( 'NONE',  ( -0.5000000000000001110, 0.3499999999999999778, 0.2500000000000000555 ) ) ;
#257 = DIRECTION ( 'NONE',  ( 0.0000000000000000000, 0.0000000000000000000, -1.000000000000000000 ) ) ;
#258 = AXIS2_PLACEMENT_3D ( 'NONE', #794, #133, #487 ) ;
#259 = DIRECTION ( 'NONE',  ( -1.000000000000000000, 0.0000000000000000000, 0.0000000000000000000 ) ) ;
#260 = COLOUR_RGB ( '',0.2509803921568627416, 0.2509803921568627416, 0.2509803921568627416 ) ;
#261 =( NAMED_UNIT ( * ) PLANE_ANGLE_UNIT ( ) SI_UNIT ( $, .RADIAN. ) );
#262 = LINE ( 'NONE', #724, #431 ) ;
#263 = ORIENTED_EDGE ( 'NONE', *, *, #458, .F. ) ;
#264 = ORIENTED_EDGE ( 'NONE', *, *, #575, .T. ) ;
#265 = ORIENTED_EDGE ( 'NONE', *, *, #152, .F. ) ;
#266 = FILL_AREA_STYLE_COLOUR ( '', #260 ) ;
#267 = EDGE_CURVE ( 'NONE', #939, #629, #892, .T. ) ;
#268 = CYLINDRICAL_SURFACE ( 'NONE', #828, 0.04999999999999999584 ) ;
#269 = CIRCLE ( 'NONE', #73, 0.05000000000000002359 ) ;
#270 = DIRECTION ( 'NONE',  ( 1.000000000000000000, -0.0000000000000000000, -0.0000000000000000000 ) ) ;
#271 = LINE ( 'NONE', #887, #1036 ) ;
#272 = CARTESIAN_POINT ( 'NONE',  ( 0.4999999999999997780, 0.4000000000000000222, 0.2000000000000000666 ) ) ;
#273 = LINE ( 'NONE', #109, #786 ) ;
#274 = ORIENTED_EDGE ( 'NONE', *, *, #1155, .T. ) ;
#275 = ORIENTED_EDGE ( 'NONE', *, *, #413, .T. ) ;
#276 = DIRECTION ( 'NONE',  ( 0.0000000000000000000, 0.0000000000000000000, 1.000000000000000000 ) ) ;
#277 = EDGE_CURVE ( 'NONE', #10, #940, #926, .T. ) ;
#278 = ORIENTED_EDGE ( 'NONE', *, *, #509, .F. ) ;
#279 = DIRECTION ( 'NONE',  ( 0.0000000000000000000, 0.0000000000000000000, 1.000000000000000000 ) ) ;
#280 = DIRECTION ( 'NONE',  ( -1.000000000000000000, 0.0000000000000000000, 0.0000000000000000000 ) ) ;
#281 = CARTESIAN_POINT ( 'NONE',  ( -0.4500000000000001221, 0.05000000000000002359, 0.2500000000000000555 ) ) ;
#282 = CARTESIAN_POINT ( 'NONE',  ( 0.4499999999999997891, 0.3499999999999999778, -0.1999999999999999556 ) ) ;
#283 = SPHERICAL_SURFACE ( 'NONE', #881, 0.05000000000000000278 ) ;
#284 = AXIS2_PLACEMENT_3D ( 'NONE', #1071, #1080, #626 ) ;
#285 = CARTESIAN_POINT ( 'NONE',  ( -0.4500000000000001221, 0.4000000000000000222, -0.1999999999999999278 ) ) ;
#286 = PRESENTATION_STYLE_ASSIGNMENT (( #325 ) ) ;
#287 =( GEOMETRIC_REPRESENTATION_CONTEXT ( 3 ) GLOBAL_UNCERTAINTY_ASSIGNED_CONTEXT ( ( #803 ) ) GLOBAL_UNIT_ASSIGNED_CONTEXT ( ( #1079, #542, #173 ) ) REPRESENTATION_CONTEXT ( 'NONE', 'WORKASPACE' ) );
#288 = VERTEX_POINT ( 'NONE', #814 ) ;
#289 = DIRECTION ( 'NONE',  ( 1.000000000000000000, 0.0000000000000000000, -0.0000000000000000000 ) ) ;
#290 = ORIENTED_EDGE ( 'NONE', *, *, #310, .F. ) ;
#291 = ADVANCED_FACE ( 'NONE', ( #560 ), #1169, .F. ) ;
#292 = DIRECTION ( 'NONE',  ( 0.0000000000000000000, -0.0000000000000000000, -1.000000000000000000 ) ) ;
#293 = ORIENTED_EDGE ( 'NONE', *, *, #432, .T. ) ;
#294 =( NAMED_UNIT ( * ) PLANE_ANGLE_UNIT ( ) SI_UNIT ( $, .RADIAN. ) );
#295 = EDGE_CURVE ( 'NONE', #997, #171, #677, .T. ) ;
#296 = ADVANCED_FACE ( 'NONE', ( #756 ), #4, .F. ) ;
#297 = DIRECTION ( 'NONE',  ( -1.000000000000000000, 0.0000000000000000000, 0.0000000000000000000 ) ) ;
#298 = DIRECTION ( 'NONE',  ( 0.0000000000000000000, 0.0000000000000000000, 1.000000000000000000 ) ) ;
#299 = CYLINDRICAL_SURFACE ( 'NONE', #130, 0.05000000000000002359 ) ;
#300 = FACE_OUTER_BOUND ( 'NONE', #471, .T. ) ;
#301 = DIRECTION ( 'NONE',  ( -1.000000000000000000, 0.0000000000000000000, 0.0000000000000000000 ) ) ;
#302 = AXIS2_PLACEMENT_3D ( 'NONE', #668, #105, #1112 ) ;
#303 = CARTESIAN_POINT ( 'NONE',  ( -0.3000000000000001554, 0.4000000000000000222, -0.2499999999999999445 ) ) ;
#304 = LINE ( 'NONE', #272, #18 ) ;
#305 = ORIENTED_EDGE ( 'NONE', *, *, #391, .F. ) ;
#306 = CARTESIAN_POINT ( 'NONE',  ( 0.4499999999999997891, 0.05000000000000002359, 0.2500000000000000555 ) ) ;
#307 = VERTEX_POINT ( 'NONE', #524 ) ;
#308 = DIRECTION ( 'NONE',  ( 0.0000000000000000000, 0.0000000000000000000, 1.000000000000000000 ) ) ;
#309 = VERTEX_POINT ( 'NONE', #248 ) ;
#310 = EDGE_CURVE ( 'NONE', #307, #918, #304, .T. ) ;
#311 = AXIS2_PLACEMENT_3D ( 'NONE', #335, #424, #709 ) ;
#312 = CARTESIAN_POINT ( 'NONE',  ( 0.3000000000000002665, 0.3499999999999999778, 0.2000000000000000389 ) ) ;
#313 = DIRECTION ( 'NONE',  ( -1.000000000000000000, -0.0000000000000000000, -0.0000000000000000000 ) ) ;
#314 = CARTESIAN_POINT ( 'NONE',  ( -0.4500000000000001221, 0.4000000000000000222, 0.2000000000000000389 ) ) ;
#315 = VECTOR ( 'NONE', #656, 1000.000000000000000 ) ;
#316 = SURFACE_STYLE_FILL_AREA ( #52 ) ;
#317 = CARTESIAN_POINT ( 'NONE',  ( 0.3000000000000001554, 0.4000000000000000222, -0.2499999999999999445 ) ) ;
#318 = DIRECTION ( 'NONE',  ( 1.000000000000000000, 0.0000000000000000000, 0.0000000000000000000 ) ) ;
#319 = AXIS2_PLACEMENT_3D ( 'NONE', #16, #110, #769 ) ;
#320 = FACE_OUTER_BOUND ( 'NONE', #716, .T. ) ;
#321 = CARTESIAN_POINT ( 'NONE',  ( -0.4500000000000001221, 0.3499999999999999778, 0.2000000000000000666 ) ) ;
#322 = EDGE_LOOP ( 'NONE', ( #374, #196, #336 ) ) ;
#323 = ORIENTED_EDGE ( 'NONE', *, *, #182, .T. ) ;
#324 = ORIENTED_EDGE ( 'NONE', *, *, #593, .F. ) ;
#325 = SURFACE_STYLE_USAGE ( .BOTH. , #704 ) ;
#326 = DIRECTION ( 'NONE',  ( 1.000000000000000000, 0.0000000000000000000, 0.0000000000000000000 ) ) ;
#327 = CARTESIAN_POINT ( 'NONE',  ( -0.5000000000000001110, 0.05000000000000002359, -0.2499999999999999445 ) ) ;
#328 = AXIS2_PLACEMENT_3D ( 'NONE', #1023, #848, #1018 ) ;
#329 = LINE ( 'NONE', #520, #60 ) ;
#330 = DIRECTION ( 'NONE',  ( 0.0000000000000000000, 1.000000000000000000, 0.0000000000000000000 ) ) ;
#331 = CARTESIAN_POINT ( 'NONE',  ( -0.4500000000000001221, 0.3499999999999999778, 0.2000000000000000666 ) ) ;
#332 = SURFACE_STYLE_USAGE ( .BOTH. , #159 ) ;
#333 = VECTOR ( 'NONE', #982, 1000.000000000000000 ) ;
#334 = EDGE_CURVE ( 'NONE', #713, #307, #385, .T. ) ;
#335 = CARTESIAN_POINT ( 'NONE',  ( 0.4499999999999997891, 0.3499999999999999778, 0.2000000000000000666 ) ) ;
#336 = ORIENTED_EDGE ( 'NONE', *, *, #172, .F. ) ;
#337 = VERTEX_POINT ( 'NONE', #759 ) ;
#338 = ORIENTED_EDGE ( 'NONE', *, *, #15, .T. ) ;
#339 = CARTESIAN_POINT ( 'NONE',  ( -0.5000000000000001110, 0.05000000000000002359, -0.2499999999999999445 ) ) ;
#340 = APPLICATION_PROTOCOL_DEFINITION ( 'draft international standard', 'automotive_design', 1998, #530 ) ;
#341 = COLOUR_RGB ( '',0.7960784313725489669, 0.8235294117647058432, 0.9372549019607843146 ) ;
#342 = FACE_OUTER_BOUND ( 'NONE', #855, .T. ) ;
#343 = FACE_OUTER_BOUND ( 'NONE', #898, .T. ) ;
#344 = FACE_OUTER_BOUND ( 'NONE', #639, .T. ) ;
#345 = DIRECTION ( 'NONE',  ( -0.0000000000000000000, -5.421010862427520198E-16, -1.000000000000000000 ) ) ;
#346 = VECTOR ( 'NONE', #313, 1000.000000000000000 ) ;
#347 = ADVANCED_FACE ( 'NONE', ( #151 ), #220, .T. ) ;
#348 = ORIENTED_EDGE ( 'NONE', *, *, #785, .T. ) ;
#349 = DIRECTION ( 'NONE',  ( -0.0000000000000000000, -0.0000000000000000000, -1.000000000000000000 ) ) ;
#350 = EDGE_LOOP ( 'NONE', ( #836, #869, #81, #305 ) ) ;
#351 = DIRECTION ( 'NONE',  ( 1.000000000000000000, 0.0000000000000000000, 0.0000000000000000000 ) ) ;
#352 =( GEOMETRIC_REPRESENTATION_CONTEXT ( 3 ) GLOBAL_UNCERTAINTY_ASSIGNED_CONTEXT ( ( #400 ) ) GLOBAL_UNIT_ASSIGNED_CONTEXT ( ( #426, #261, #728 ) ) REPRESENTATION_CONTEXT ( 'NONE', 'WORKASPACE' ) );
#353 = ORIENTED_EDGE ( 'NONE', *, *, #391, .T. ) ;
#354 = ADVANCED_FACE ( 'NONE', ( #968 ), #654, .F. ) ;
#355 = DIRECTION ( 'NONE',  ( 0.0000000000000000000, 0.0000000000000000000, -1.000000000000000000 ) ) ;
#356 = EDGE_CURVE ( 'NONE', #39, #854, #937, .T. ) ;
#357 = FACE_OUTER_BOUND ( 'NONE', #733, .T. ) ;
#358 = LINE ( 'NONE', #735, #648 ) ;
#359 = ORIENTED_EDGE ( 'NONE', *, *, #611, .T. ) ;
#360 = EDGE_CURVE ( 'NONE', #918, #500, #693, .T. ) ;
#361 = VERTEX_POINT ( 'NONE', #920 ) ;
#362 = MECHANICAL_DESIGN_GEOMETRIC_PRESENTATION_REPRESENTATION (  '', ( #146 ), #1123 ) ;
#363 = ORIENTED_EDGE ( 'NONE', *, *, #87, .T. ) ;
#364 = CARTESIAN_POINT ( 'NONE',  ( 0.4499999999999997891, 0.05000000000000002359, -0.1999999999999999556 ) ) ;
#365 = DIRECTION ( 'NONE',  ( 0.0000000000000000000, 1.000000000000000000, 0.0000000000000000000 ) ) ;
#366 = EDGE_CURVE ( 'NONE', #629, #481, #399, .T. ) ;
#367 = CARTESIAN_POINT ( 'NONE',  ( 0.4999999999999997780, 0.05000000000000002359, -0.2499999999999999445 ) ) ;
#368 = AXIS2_PLACEMENT_3D ( 'NONE', #886, #965, #410 ) ;
#369 = LINE ( 'NONE', #1001, #925 ) ;
#370 = SURFACE_SIDE_STYLE ('',( #102 ) ) ;
#371 = LINE ( 'NONE', #894, #1119 ) ;
#372 = ADVANCED_FACE ( 'NONE', ( #416 ), #531, .T. ) ;
#373 = DIRECTION ( 'NONE',  ( 1.000000000000000000, 0.0000000000000000000, -0.0000000000000000000 ) ) ;
#374 = ORIENTED_EDGE ( 'NONE', *, *, #484, .T. ) ;
#375 = EDGE_LOOP ( 'NONE', ( #835, #293, #252, #466 ) ) ;
#376 = CARTESIAN_POINT ( 'NONE',  ( -0.5000000000000001110, 0.4000000000000000222, -0.2499999999999999445 ) ) ;
#377 = EDGE_CURVE ( 'NONE', #824, #997, #710, .T. ) ;
#378 = VERTEX_POINT ( 'NONE', #922 ) ;
#379 =( NAMED_UNIT ( * ) PLANE_ANGLE_UNIT ( ) SI_UNIT ( $, .RADIAN. ) );
#380 = LINE ( 'NONE', #49, #945 ) ;
#381 = AXIS2_PLACEMENT_3D ( 'NONE', #842, #661, #101 ) ;
#382 = DIRECTION ( 'NONE',  ( 1.000000000000000000, -0.0000000000000000000, -2.168404344971009115E-16 ) ) ;
#383 = LINE ( 'NONE', #200, #315 ) ;
#384 = UNCERTAINTY_MEASURE_WITH_UNIT (LENGTH_MEASURE( 1.000000000000000082E-05 ), #245, 'distance_accuracy_value', 'NONE');
#385 = CIRCLE ( 'NONE', #942, 0.04999999999999999584 ) ;
#386 = DIRECTION ( 'NONE',  ( 0.0000000000000000000, 1.000000000000000000, 0.0000000000000000000 ) ) ;
#387 = ORIENTED_EDGE ( 'NONE', *, *, #97, .F. ) ;
#388 = CARTESIAN_POINT ( 'NONE',  ( -0.4500000000000001221, 0.4000000000000000222, 0.2500000000000000555 ) ) ;
#389 = EDGE_LOOP ( 'NONE', ( #324, #125, #80, #896 ) ) ;
#390 = ORIENTED_EDGE ( 'NONE', *, *, #1167, .T. ) ;
#391 = EDGE_CURVE ( 'NONE', #805, #777, #1103, .T. ) ;
#392 = DIRECTION ( 'NONE',  ( 0.0000000000000000000, 1.000000000000000000, -0.0000000000000000000 ) ) ;
#393 = DIRECTION ( 'NONE',  ( -0.0000000000000000000, -1.000000000000000000, 0.0000000000000000000 ) ) ;
#394 = DIRECTION ( 'NONE',  ( 1.000000000000000000, 0.0000000000000000000, -0.0000000000000000000 ) ) ;
#395 = CYLINDRICAL_SURFACE ( 'NONE', #12, 0.04999999999999999584 ) ;
#396 = EDGE_CURVE ( 'NONE', #171, #337, #727, .T. ) ;
#397 = CYLINDRICAL_SURFACE ( 'NONE', #255, 0.05000000000000002359 ) ;
#398 = CARTESIAN_POINT ( 'NONE',  ( 0.3000000000000001554, 0.05000000000000002359, -0.2499999999999999445 ) ) ;
#399 = CIRCLE ( 'NONE', #872, 0.04999999999999999584 ) ;
#400 = UNCERTAINTY_MEASURE_WITH_UNIT (LENGTH_MEASURE( 1.000000000000000082E-05 ), #426, 'distance_accuracy_value', 'NONE');
#401 = LINE ( 'NONE', #495, #984 ) ;
#402 = DIRECTION ( 'NONE',  ( 0.0000000000000000000, -0.0000000000000000000, -1.000000000000000000 ) ) ;
#403 = EDGE_LOOP ( 'NONE', ( #57, #455, #419, #537 ) ) ;
#404 = SURFACE_STYLE_USAGE ( .BOTH. , #885 ) ;
#405 = ORIENTED_EDGE ( 'NONE', *, *, #1009, .T. ) ;
#406 = CARTESIAN_POINT ( 'NONE',  ( -0.5000000000000001110, 0.05000000000000002359, 0.2000000000000000666 ) ) ;
#407 = CARTESIAN_POINT ( 'NONE',  ( 0.3000000000000002665, 0.4000000000000000222, 0.2500000000000000555 ) ) ;
#408 = AXIS2_PLACEMENT_3D ( 'NONE', #427, #1164, #241 ) ;
#409 =( NAMED_UNIT ( * ) PLANE_ANGLE_UNIT ( ) SI_UNIT ( $, .RADIAN. ) );
#410 = DIRECTION ( 'NONE',  ( 0.0000000000000000000, 0.0000000000000000000, -1.000000000000000000 ) ) ;
#411 = CARTESIAN_POINT ( 'NONE',  ( -0.4500000000000001221, 0.3499999999999999778, -0.2499999999999999445 ) ) ;
#412 =( NAMED_UNIT ( * ) SI_UNIT ( $, .STERADIAN. ) SOLID_ANGLE_UNIT ( ) );
#413 = EDGE_CURVE ( 'NONE', #854, #578, #191, .T. ) ;
#414 = DIRECTION ( 'NONE',  ( 0.0000000000000000000, -1.000000000000000000, 0.0000000000000000000 ) ) ;
#415 = DIRECTION ( 'NONE',  ( 0.0000000000000000000, 1.000000000000000000, 0.0000000000000000000 ) ) ;
#416 = FACE_OUTER_BOUND ( 'NONE', #23, .T. ) ;
#417 = CARTESIAN_POINT ( 'NONE',  ( -0.5000000000000001110, 0.0000000000000000000, 0.2000000000000000666 ) ) ;
#418 = ORIENTED_EDGE ( 'NONE', *, *, #974, .T. ) ;
#419 = ORIENTED_EDGE ( 'NONE', *, *, #865, .T. ) ;
#420 = DIRECTION ( 'NONE',  ( 0.0000000000000000000, 0.0000000000000000000, -1.000000000000000000 ) ) ;
#421 = DIRECTION ( 'NONE',  ( 1.000000000000000000, -0.0000000000000000000, -0.0000000000000000000 ) ) ;
#422 = ORIENTED_EDGE ( 'NONE', *, *, #611, .F. ) ;
#423 = EDGE_CURVE ( 'NONE', #629, #777, #624, .T. ) ;
#424 = DIRECTION ( 'NONE',  ( 0.0000000000000000000, 1.000000000000000000, 0.0000000000000000000 ) ) ;
#425 = AXIS2_PLACEMENT_3D ( 'NONE', #986, #164, #429 ) ;
#426 =( LENGTH_UNIT ( ) NAMED_UNIT ( * ) SI_UNIT ( .MILLI., .METRE. ) );
#427 = CARTESIAN_POINT ( 'NONE',  ( -0.3000000000000001554, 0.05000000000000002359, -0.1999999999999999556 ) ) ;
#428 = FACE_OUTER_BOUND ( 'NONE', #375, .T. ) ;
#429 = DIRECTION ( 'NONE',  ( 0.0000000000000000000, 0.0000000000000000000, -1.000000000000000000 ) ) ;
#430 = PRESENTATION_STYLE_ASSIGNMENT (( #332 ) ) ;
#431 = VECTOR ( 'NONE', #62, 1000.000000000000000 ) ;
#432 = EDGE_CURVE ( 'NONE', #939, #37, #1177, .T. ) ;
#433 = DIRECTION ( 'NONE',  ( 0.0000000000000000000, -0.0000000000000000000, -1.000000000000000000 ) ) ;
#434 = CARTESIAN_POINT ( 'NONE',  ( -0.4500000000000001221, 0.05000000000000002359, 0.2000000000000000666 ) ) ;
#435 = ORIENTED_EDGE ( 'NONE', *, *, #8, .F. ) ;
#436 = ORIENTED_EDGE ( 'NONE', *, *, #360, .F. ) ;
#437 = CARTESIAN_POINT ( 'NONE',  ( -0.4500000000000001221, 0.3499999999999999778, -0.1999999999999999278 ) ) ;
#438 = AXIS2_PLACEMENT_3D ( 'NONE', #640, #645, #167 ) ;
#439 = EDGE_LOOP ( 'NONE', ( #235, #122, #21, #210 ) ) ;
#440 = DIRECTION ( 'NONE',  ( 0.0000000000000000000, -1.000000000000000000, 0.0000000000000000000 ) ) ;
#441 = ADVANCED_FACE ( 'NONE', ( #1091 ), #1117, .T. ) ;
#442 = EDGE_CURVE ( 'NONE', #683, #10, #79, .T. ) ;
#443 = ADVANCED_BREP_SHAPE_REPRESENTATION ( 'User Library-Chip Resistor2', ( #764, #78 ), #287 ) ;
#444 = APPLICATION_PROTOCOL_DEFINITION ( 'draft international standard', 'automotive_design', 1998, #912 ) ;
#445 =( LENGTH_UNIT ( ) NAMED_UNIT ( * ) SI_UNIT ( .MILLI., .METRE. ) );
#446 = ADVANCED_FACE ( 'NONE', ( #344 ), #1034, .T. ) ;
#447 = LINE ( 'NONE', #317, #1063 ) ;
#448 = LINE ( 'NONE', #1051, #738 ) ;
#449 = PRODUCT_CONTEXT ( 'NONE', #912, 'mechanical' ) ;
#450 = CIRCLE ( 'NONE', #522, 0.04999999999999999584 ) ;
#451 = CARTESIAN_POINT ( 'NONE',  ( -0.5000000000000001110, 0.0000000000000000000, 0.2000000000000000666 ) ) ;
#452 = CIRCLE ( 'NONE', #408, 0.04999999999999999584 ) ;
#453 = PRESENTATION_LAYER_ASSIGNMENT (  '', '', ( #906 ) ) ;
#454 = ORIENTED_EDGE ( 'NONE', *, *, #182, .F. ) ;
#455 = ORIENTED_EDGE ( 'NONE', *, *, #503, .T. ) ;
#456 = ORIENTED_EDGE ( 'NONE', *, *, #277, .T. ) ;
#457 = FILL_AREA_STYLE ('',( #266 ) ) ;
#458 = EDGE_CURVE ( 'NONE', #54, #940, #801, .T. ) ;
#459 = DIRECTION ( 'NONE',  ( 1.000000000000000000, 0.0000000000000000000, 0.0000000000000000000 ) ) ;
#460 = AXIS2_PLACEMENT_3D ( 'NONE', #376, #276, #289 ) ;
#461 = CYLINDRICAL_SURFACE ( 'NONE', #1019, 0.04999999999999999584 ) ;
#462 = PRESENTATION_STYLE_ASSIGNMENT (( #943 ) ) ;
#463 = DIRECTION ( 'NONE',  ( 0.0000000000000000000, 0.0000000000000000000, 1.000000000000000000 ) ) ;
#464 = FACE_OUTER_BOUND ( 'NONE', #322, .T. ) ;
#465 = CIRCLE ( 'NONE', #44, 0.04999999999999999584 ) ;
#466 = ORIENTED_EDGE ( 'NONE', *, *, #366, .F. ) ;
#467 = CARTESIAN_POINT ( 'NONE',  ( -0.4500000000000001221, 0.05000000000000000278, -0.1999999999999999556 ) ) ;
#468 = EDGE_CURVE ( 'NONE', #641, #180, #450, .T. ) ;
#469 = ORIENTED_EDGE ( 'NONE', *, *, #1016, .F. ) ;
#470 = MECHANICAL_DESIGN_GEOMETRIC_PRESENTATION_REPRESENTATION (  '', ( #911 ), #1144 ) ;
#471 = EDGE_LOOP ( 'NONE', ( #954, #353, #1011 ) ) ;
#472 = CARTESIAN_POINT ( 'NONE',  ( -0.4500000000000001221, 0.05000000000000002359, -0.2499999999999999445 ) ) ;
#473 = DIRECTION ( 'NONE',  ( 0.0000000000000000000, 0.0000000000000000000, -1.000000000000000000 ) ) ;
#474 = AXIS2_PLACEMENT_3D ( 'NONE', #989, #905, #630 ) ;
#475 = ADVANCED_FACE ( 'NONE', ( #891 ), #934, .F. ) ;
#476 = CARTESIAN_POINT ( 'NONE',  ( -0.5000000000000001110, 0.4000000000000000222, -0.2499999999999999445 ) ) ;
#477 = CYLINDRICAL_SURFACE ( 'NONE', #700, 0.04999999999999999584 ) ;
#478 = AXIS2_PLACEMENT_3D ( 'NONE', #991, #433, #546 ) ;
#479 = DIRECTION ( 'NONE',  ( 1.000000000000000000, 0.0000000000000000000, 0.0000000000000000000 ) ) ;
#480 = SURFACE_STYLE_FILL_AREA ( #944 ) ;
#481 = VERTEX_POINT ( 'NONE', #211 ) ;
#482 = ADVANCED_FACE ( 'NONE', ( #357 ), #950, .F. ) ;
#483 = DIRECTION ( 'NONE',  ( 0.0000000000000000000, 0.0000000000000000000, -1.000000000000000000 ) ) ;
#484 = EDGE_CURVE ( 'NONE', #288, #517, #588, .T. ) ;
#485 = ORIENTED_EDGE ( 'NONE', *, *, #413, .F. ) ;
#486 = ORIENTED_EDGE ( 'NONE', *, *, #34, .F. ) ;
#487 = DIRECTION ( 'NONE',  ( 1.000000000000000000, 0.0000000000000000000, -5.421010862427519212E-16 ) ) ;
#488 = CARTESIAN_POINT ( 'NONE',  ( -0.5000000000000001110, 0.4000000000000000222, 0.2500000000000000555 ) ) ;
#489 = EDGE_CURVE ( 'NONE', #535, #951, #708, .T. ) ;
#490 = LINE ( 'NONE', #515, #839 ) ;
#491 = AXIS2_PLACEMENT_3D ( 'NONE', #523, #1151, #879 ) ;
#492 = VECTOR ( 'NONE', #135, 1000.000000000000000 ) ;
#493 = VECTOR ( 'NONE', #570, 1000.000000000000000 ) ;
#494 =( LENGTH_UNIT ( ) NAMED_UNIT ( * ) SI_UNIT ( .MILLI., .METRE. ) );
#495 = CARTESIAN_POINT ( 'NONE',  ( 0.4999999999999997780, 0.4000000000000000222, -0.1999999999999999278 ) ) ;
#496 = VECTOR ( 'NONE', #415, 1000.000000000000000 ) ;
#497 = CARTESIAN_POINT ( 'NONE',  ( 0.4999999999999998890, 0.0000000000000000000, -0.2499999999999999445 ) ) ;
#498 = ORIENTED_EDGE ( 'NONE', *, *, #334, .F. ) ;
#499 = EDGE_LOOP ( 'NONE', ( #562, #772, #1182 ) ) ;
#500 = VERTEX_POINT ( 'NONE', #1128 ) ;
#501 = CARTESIAN_POINT ( 'NONE',  ( -0.5000000000000001110, 0.05000000000000002359, -0.1999999999999999556 ) ) ;
#502 = DIRECTION ( 'NONE',  ( 0.0000000000000000000, 0.0000000000000000000, -1.000000000000000000 ) ) ;
#503 = EDGE_CURVE ( 'NONE', #1120, #136, #65, .T. ) ;
#504 = ADVANCED_FACE ( 'NONE', ( #830 ), #32, .F. ) ;
#505 = DIRECTION ( 'NONE',  ( -1.000000000000000000, 0.0000000000000000000, 5.421010862427519212E-16 ) ) ;
#506 = AXIS2_PLACEMENT_3D ( 'NONE', #312, #1048, #507 ) ;
#507 = DIRECTION ( 'NONE',  ( 0.0000000000000000000, 0.0000000000000000000, 1.000000000000000000 ) ) ;
#508 = CARTESIAN_POINT ( 'NONE',  ( 0.4999999999999998890, 0.4000000000000000222, -0.2499999999999999445 ) ) ;
#509 = EDGE_CURVE ( 'NONE', #951, #337, #205, .T. ) ;
#510 = CYLINDRICAL_SURFACE ( 'NONE', #192, 0.04999999999999999584 ) ;
#511 = CARTESIAN_POINT ( 'NONE',  ( 0.3000000000000001554, 0.0000000000000000000, -0.1999999999999999556 ) ) ;
#512 = DIRECTION ( 'NONE',  ( -1.000000000000000000, 0.0000000000000000000, -0.0000000000000000000 ) ) ;
#513 = CARTESIAN_POINT ( 'NONE',  ( 0.4999999999999998890, 0.3499999999999999778, -0.1999999999999999556 ) ) ;
#514 = ORIENTED_EDGE ( 'NONE', *, *, #1032, .T. ) ;
#515 = CARTESIAN_POINT ( 'NONE',  ( 0.4999999999999998890, 0.05000000000000002359, 0.2500000000000000555 ) ) ;
#516 = FILL_AREA_STYLE ('',( #972 ) ) ;
#517 = VERTEX_POINT ( 'NONE', #1140 ) ;
#518 = ORIENTED_EDGE ( 'NONE', *, *, #528, .T. ) ;
#519 = CLOSED_SHELL ( 'NONE', ( #1175, #193, #910, #1031, #291, #482, #573, #1170, #790, #446, #837, #372, #863, #681, #354, #504, #667, #743, #296, #475, #585, #99, #643, #239, #936, #672, #829, #441, #203, #856, #48, #1021, #144, #771, #778, #995, #579, #615, #347, #712, #1028, #1088 ) ) ;
#520 = CARTESIAN_POINT ( 'NONE',  ( -0.5000000000000001110, 0.3499999999999999778, 0.2500000000000000555 ) ) ;
#521 = CARTESIAN_POINT ( 'NONE',  ( -0.3000000000000001554, 0.3499999999999999778, 0.2000000000000000389 ) ) ;
#522 = AXIS2_PLACEMENT_3D ( 'NONE', #682, #595, #787 ) ;
#523 = CARTESIAN_POINT ( 'NONE',  ( -0.5000000000000001110, 0.05000000000000002359, 0.2000000000000000666 ) ) ;
#524 = CARTESIAN_POINT ( 'NONE',  ( 0.4999999999999997780, 0.3499999999999999778, 0.2000000000000000666 ) ) ;
#525 = FACE_OUTER_BOUND ( 'NONE', #807, .T. ) ;
#526 = EDGE_CURVE ( 'NONE', #747, #39, #177, .T. ) ;
#527 = FACE_OUTER_BOUND ( 'NONE', #998, .T. ) ;
#528 = EDGE_CURVE ( 'NONE', #578, #683, #603, .T. ) ;
#529 = COLOUR_RGB ( '',0.2509803921568627416, 0.2509803921568627416, 0.2509803921568627416 ) ;
#530 = APPLICATION_CONTEXT ( 'automotive_design' ) ;
#531 = CYLINDRICAL_SURFACE ( 'NONE', #328, 0.04999999999999999584 ) ;
#532 = PRESENTATION_LAYER_ASSIGNMENT (  '', '', ( #201 ) ) ;
#533 = LINE ( 'NONE', #6, #902 ) ;
#534 = ORIENTED_EDGE ( 'NONE', *, *, #396, .F. ) ;
#535 = VERTEX_POINT ( 'NONE', #45 ) ;
#536 = DIRECTION ( 'NONE',  ( -1.000000000000000000, 0.0000000000000000000, 0.0000000000000000000 ) ) ;
#537 = ORIENTED_EDGE ( 'NONE', *, *, #1016, .T. ) ;
#538 = EDGE_CURVE ( 'NONE', #10, #36, #247, .T. ) ;
#539 = DIRECTION ( 'NONE',  ( -1.000000000000000000, 0.0000000000000000000, -0.0000000000000000000 ) ) ;
#540 = AXIS2_PLACEMENT_3D ( 'NONE', #9, #657, #473 ) ;
#541 = UNCERTAINTY_MEASURE_WITH_UNIT (LENGTH_MEASURE( 1.000000000000000082E-05 ), #494, 'distance_accuracy_value', 'NONE');
#542 =( NAMED_UNIT ( * ) PLANE_ANGLE_UNIT ( ) SI_UNIT ( $, .RADIAN. ) );
#543 = DIRECTION ( 'NONE',  ( 0.0000000000000000000, 0.0000000000000000000, -1.000000000000000000 ) ) ;
#544 = FACE_OUTER_BOUND ( 'NONE', #92, .T. ) ;
#545 = AXIS2_PLACEMENT_3D ( 'NONE', #67, #539, #636 ) ;
#546 = DIRECTION ( 'NONE',  ( 1.000000000000000000, 0.0000000000000000000, 0.0000000000000000000 ) ) ;
#547 = SURFACE_STYLE_FILL_AREA ( #516 ) ;
#548 = ORIENTED_EDGE ( 'NONE', *, *, #575, .F. ) ;
#549 =( NAMED_UNIT ( * ) SI_UNIT ( $, .STERADIAN. ) SOLID_ANGLE_UNIT ( ) );
#550 = STYLED_ITEM ( 'NONE', ( #462 ), #856 ) ;
#551 = ORIENTED_EDGE ( 'NONE', *, *, #538, .F. ) ;
#552 = ORIENTED_EDGE ( 'NONE', *, *, #720, .T. ) ;
#553 = CARTESIAN_POINT ( 'NONE',  ( -0.4500000000000001221, 0.4000000000000000222, 0.2000000000000000666 ) ) ;
#554 = STYLED_ITEM ( 'NONE', ( #33 ), #99 ) ;
#555 = DIRECTION ( 'NONE',  ( 0.0000000000000000000, 0.0000000000000000000, 1.000000000000000000 ) ) ;
#556 = VECTOR ( 'NONE', #978, 1000.000000000000000 ) ;
#557 = CYLINDRICAL_SURFACE ( 'NONE', #491, 0.04999999999999999584 ) ;
#558 = SURFACE_SIDE_STYLE ('',( #949 ) ) ;
#559 = EDGE_CURVE ( 'NONE', #288, #481, #1035, .T. ) ;
#560 = FACE_OUTER_BOUND ( 'NONE', #1096, .T. ) ;
#561 = DIRECTION ( 'NONE',  ( -0.0000000000000000000, -0.0000000000000000000, 1.000000000000000000 ) ) ;
#562 = ORIENTED_EDGE ( 'NONE', *, *, #1134, .T. ) ;
#563 = ORIENTED_EDGE ( 'NONE', *, *, #785, .F. ) ;
#564 = ORIENTED_EDGE ( 'NONE', *, *, #528, .F. ) ;
#565 = DIRECTION ( 'NONE',  ( 0.0000000000000000000, 0.0000000000000000000, -1.000000000000000000 ) ) ;
#566 = EDGE_CURVE ( 'NONE', #361, #683, #676, .T. ) ;
#567 = AXIS2_PLACEMENT_3D ( 'NONE', #1043, #386, #784 ) ;
#568 = CARTESIAN_POINT ( 'NONE',  ( 0.4499999999999997891, 0.4000000000000000222, 0.2500000000000000555 ) ) ;
#569 = PRESENTATION_STYLE_ASSIGNMENT (( #204 ) ) ;
#570 = DIRECTION ( 'NONE',  ( -0.0000000000000000000, -0.0000000000000000000, -1.000000000000000000 ) ) ;
#571 = PRESENTATION_STYLE_ASSIGNMENT (( #404 ) ) ;
#572 = FACE_OUTER_BOUND ( 'NONE', #1082, .T. ) ;
#573 = ADVANCED_FACE ( 'NONE', ( #572 ), #557, .T. ) ;
#574 = ORIENTED_EDGE ( 'NONE', *, *, #590, .T. ) ;
#575 = EDGE_CURVE ( 'NONE', #997, #54, #914, .T. ) ;
#576 = ORIENTED_EDGE ( 'NONE', *, *, #899, .F. ) ;
#577 = CARTESIAN_POINT ( 'NONE',  ( -0.3000000000000001554, 0.0000000000000000000, -0.2499999999999999445 ) ) ;
#578 = VERTEX_POINT ( 'NONE', #314 ) ;
#579 = ADVANCED_FACE ( 'NONE', ( #544 ), #963, .T. ) ;
#580 = DIRECTION ( 'NONE',  ( 0.0000000000000000000, 0.0000000000000000000, -1.000000000000000000 ) ) ;
#581 = DIRECTION ( 'NONE',  ( 1.000000000000000000, 0.0000000000000000000, 0.0000000000000000000 ) ) ;
#582 = PRESENTATION_LAYER_ASSIGNMENT (  '', '', ( #146 ) ) ;
#583 = CARTESIAN_POINT ( 'NONE',  ( -0.5000000000000001110, 0.05000000000000002359, 0.2500000000000000555 ) ) ;
#584 = CIRCLE ( 'NONE', #655, 0.04999999999999999584 ) ;
#585 = ADVANCED_FACE ( 'NONE', ( #754 ), #226, .F. ) ;
#586 = CIRCLE ( 'NONE', #319, 0.05000000000000002359 ) ;
#587 = DIRECTION ( 'NONE',  ( 1.000000000000000000, 0.0000000000000000000, -0.0000000000000000000 ) ) ;
#588 = CIRCLE ( 'NONE', #755, 0.04999999999999999584 ) ;
#589 = CARTESIAN_POINT ( 'NONE',  ( 0.3000000000000001554, 0.05000000000000002359, -0.1999999999999999556 ) ) ;
#590 = EDGE_CURVE ( 'NONE', #309, #854, #448, .T. ) ;
#591 = VERTEX_POINT ( 'NONE', #1061 ) ;
#592 = PLANE ( 'NONE',  #147 ) ;
#593 = EDGE_CURVE ( 'NONE', #138, #180, #1102, .T. ) ;
#594 = ORIENTED_EDGE ( 'NONE', *, *, #104, .T. ) ;
#595 = DIRECTION ( 'NONE',  ( 1.000000000000000000, -0.0000000000000000000, -2.168404344971009115E-16 ) ) ;
#596 = ORIENTED_EDGE ( 'NONE', *, *, #1126, .T. ) ;
#597 = AXIS2_PLACEMENT_3D ( 'NONE', #868, #581, #1125 ) ;
#598 = CARTESIAN_POINT ( 'NONE',  ( -0.5000000000000001110, 0.3499999999999999778, -0.2499999999999999445 ) ) ;
#599 = EDGE_CURVE ( 'NONE', #337, #36, #1050, .T. ) ;
#600 = DIRECTION ( 'NONE',  ( 1.000000000000000000, 0.0000000000000000000, 0.0000000000000000000 ) ) ;
#601 = CARTESIAN_POINT ( 'NONE',  ( 0.4999999999999998890, 0.05000000000000002359, 0.2500000000000000555 ) ) ;
#602 = SPHERICAL_SURFACE ( 'NONE', #174, 0.05000000000000000278 ) ;
#603 = CIRCLE ( 'NONE', #823, 0.04999999999999999584 ) ;
#604 = DIRECTION ( 'NONE',  ( -0.0000000000000000000, -1.000000000000000000, -0.0000000000000000000 ) ) ;
#605 = DIRECTION ( 'NONE',  ( 0.0000000000000000000, -1.000000000000000000, 0.0000000000000000000 ) ) ;
#606 = EDGE_LOOP ( 'NONE', ( #1162, #456, #820 ) ) ;
#607 =( LENGTH_UNIT ( ) NAMED_UNIT ( * ) SI_UNIT ( .MILLI., .METRE. ) );
#608 = ORIENTED_EDGE ( 'NONE', *, *, #458, .T. ) ;
#609 = ORIENTED_EDGE ( 'NONE', *, *, #559, .T. ) ;
#610 = DIRECTION ( 'NONE',  ( 0.0000000000000000000, 1.000000000000000000, 0.0000000000000000000 ) ) ;
#611 = EDGE_CURVE ( 'NONE', #650, #854, #768, .T. ) ;
#612 = ORIENTED_EDGE ( 'NONE', *, *, #1176, .F. ) ;
#613 = FILL_AREA_STYLE_COLOUR ( '', #964 ) ;
#614 = AXIS2_PLACEMENT_3D ( 'NONE', #810, #58, #1138 ) ;
#615 = ADVANCED_FACE ( 'NONE', ( #675 ), #622, .T. ) ;
#616 = DIRECTION ( 'NONE',  ( 1.000000000000000000, 0.0000000000000000000, 0.0000000000000000000 ) ) ;
#617 = CARTESIAN_POINT ( 'NONE',  ( -0.5000000000000001110, 0.4000000000000000222, 0.2000000000000000666 ) ) ;
#618 = EDGE_CURVE ( 'NONE', #171, #939, #369, .T. ) ;
#619 = FACE_OUTER_BOUND ( 'NONE', #882, .T. ) ;
#620 = CARTESIAN_POINT ( 'NONE',  ( 0.3000000000000002665, 0.0000000000000000000, 0.2000000000000000666 ) ) ;
#621 = UNCERTAINTY_MEASURE_WITH_UNIT (LENGTH_MEASURE( 1.000000000000000082E-05 ), #1015, 'distance_accuracy_value', 'NONE');
#622 = CYLINDRICAL_SURFACE ( 'NONE', #967, 0.04999999999999999584 ) ;
#623 = FILL_AREA_STYLE_COLOUR ( '', #980 ) ;
#624 = LINE ( 'NONE', #750, #1078 ) ;
#625 = FACE_OUTER_BOUND ( 'NONE', #791, .T. ) ;
#626 = DIRECTION ( 'NONE',  ( 0.0000000000000000000, 0.0000000000000000000, 1.000000000000000000 ) ) ;
#627 = ORIENTED_EDGE ( 'NONE', *, *, #277, .F. ) ;
#628 = ORIENTED_EDGE ( 'NONE', *, *, #1159, .F. ) ;
#629 = VERTEX_POINT ( 'NONE', #740 ) ;
#630 = DIRECTION ( 'NONE',  ( 0.0000000000000000000, -0.0000000000000000000, -1.000000000000000000 ) ) ;
#631 =( GEOMETRIC_REPRESENTATION_CONTEXT ( 3 ) GLOBAL_UNCERTAINTY_ASSIGNED_CONTEXT ( ( #884 ) ) GLOBAL_UNIT_ASSIGNED_CONTEXT ( ( #812, #409, #412 ) ) REPRESENTATION_CONTEXT ( 'NONE', 'WORKASPACE' ) );
#632 = CARTESIAN_POINT ( 'NONE',  ( -0.5000000000000001110, 0.05000000000000002359, 0.2000000000000000666 ) ) ;
#633 = CARTESIAN_POINT ( 'NONE',  ( 0.4999999999999998890, 0.0000000000000000000, -0.1999999999999999556 ) ) ;
#634 = LINE ( 'NONE', #568, #946 ) ;
#635 = EDGE_CURVE ( 'NONE', #337, #824, #706, .T. ) ;
#636 = DIRECTION ( 'NONE',  ( 0.0000000000000000000, 0.0000000000000000000, -1.000000000000000000 ) ) ;
#637 =( GEOMETRIC_REPRESENTATION_CONTEXT ( 3 ) GLOBAL_UNCERTAINTY_ASSIGNED_CONTEXT ( ( #1166 ) ) GLOBAL_UNIT_ASSIGNED_CONTEXT ( ( #862, #294, #938 ) ) REPRESENTATION_CONTEXT ( 'NONE', 'WORKASPACE' ) );
#638 = ORIENTED_EDGE ( 'NONE', *, *, #213, .F. ) ;
#639 = EDGE_LOOP ( 'NONE', ( #596, #745, #94, #843 ) ) ;
#640 = CARTESIAN_POINT ( 'NONE',  ( 0.4499999999999997891, 0.3499999999999999778, 0.2000000000000000666 ) ) ;
#641 = VERTEX_POINT ( 'NONE', #1004 ) ;
#642 = DIRECTION ( 'NONE',  ( 0.0000000000000000000, 0.0000000000000000000, -1.000000000000000000 ) ) ;
#643 = ADVANCED_FACE ( 'NONE', ( #1077 ), #1116, .T. ) ;
#644 = EDGE_CURVE ( 'NONE', #951, #939, #850, .T. ) ;
#645 = DIRECTION ( 'NONE',  ( 0.0000000000000000000, -5.421010862427520198E-16, -1.000000000000000000 ) ) ;
#646 = LINE ( 'NONE', #598, #3 ) ;
#647 = MECHANICAL_DESIGN_GEOMETRIC_PRESENTATION_REPRESENTATION (  '', ( #906 ), #121 ) ;
#648 = VECTOR ( 'NONE', #718, 1000.000000000000000 ) ;
#649 = ORIENTED_EDGE ( 'NONE', *, *, #899, .T. ) ;
#650 = VERTEX_POINT ( 'NONE', #838 ) ;
#651 = ORIENTED_EDGE ( 'NONE', *, *, #189, .F. ) ;
#652 =( NAMED_UNIT ( * ) PLANE_ANGLE_UNIT ( ) SI_UNIT ( $, .RADIAN. ) );
#653 = EDGE_CURVE ( 'NONE', #500, #629, #1145, .T. ) ;
#654 = PLANE ( 'NONE',  #960 ) ;
#655 = AXIS2_PLACEMENT_3D ( 'NONE', #734, #157, #831 ) ;
#656 = DIRECTION ( 'NONE',  ( 1.000000000000000000, 0.0000000000000000000, 0.0000000000000000000 ) ) ;
#657 = DIRECTION ( 'NONE',  ( 1.000000000000000000, -0.0000000000000000000, 0.0000000000000000000 ) ) ;
#658 = PRODUCT_DEFINITION_CONTEXT ( 'detailed design', #530, 'design' ) ;
#659 = CARTESIAN_POINT ( 'NONE',  ( 0.4499999999999997891, 0.05000000000000002359, 0.2000000000000000666 ) ) ;
#660 = LINE ( 'NONE', #327, #1148 ) ;
#661 = DIRECTION ( 'NONE',  ( 0.0000000000000000000, 0.0000000000000000000, 1.000000000000000000 ) ) ;
#662 = AXIS2_PLACEMENT_3D ( 'NONE', #589, #382, #118 ) ;
#663 = COLOUR_RGB ( '',0.2509803921568627416, 0.2509803921568627416, 0.2509803921568627416 ) ;
#664 = ORIENTED_EDGE ( 'NONE', *, *, #1, .F. ) ;
#665 = FILL_AREA_STYLE_COLOUR ( '', #88 ) ;
#666 = ORIENTED_EDGE ( 'NONE', *, *, #442, .F. ) ;
#667 = ADVANCED_FACE ( 'NONE', ( #343 ), #1092, .F. ) ;
#668 = CARTESIAN_POINT ( 'NONE',  ( 0.4499999999999997891, 0.05000000000000002359, 0.2000000000000000666 ) ) ;
#669 = DIRECTION ( 'NONE',  ( 0.0000000000000000000, 0.0000000000000000000, -1.000000000000000000 ) ) ;
#670 = AXIS2_PLACEMENT_3D ( 'NONE', #1118, #580, #866 ) ;
#671 = PRESENTATION_LAYER_ASSIGNMENT (  '', '', ( #861 ) ) ;
#672 = ADVANCED_FACE ( 'NONE', ( #190 ), #1064, .T. ) ;
#673 = SURFACE_STYLE_USAGE ( .BOTH. , #370 ) ;
#674 = VECTOR ( 'NONE', #349, 1000.000000000000000 ) ;
#675 = FACE_OUTER_BOUND ( 'NONE', #1039, .T. ) ;
#676 = CIRCLE ( 'NONE', #2, 0.04999999999999999584 ) ;
#677 = LINE ( 'NONE', #633, #166 ) ;
#678 = CARTESIAN_POINT ( 'NONE',  ( 0.4999999999999997780, 0.05000000000000002359, 0.2000000000000000666 ) ) ;
#679 = EDGE_CURVE ( 'NONE', #918, #805, #148, .T. ) ;
#680 = VERTEX_POINT ( 'NONE', #7 ) ;
#681 = ADVANCED_FACE ( 'NONE', ( #428 ), #477, .T. ) ;
#682 = CARTESIAN_POINT ( 'NONE',  ( 0.3000000000000001554, 0.3499999999999999778, -0.1999999999999999556 ) ) ;
#683 = VERTEX_POINT ( 'NONE', #932 ) ;
#684 = ORIENTED_EDGE ( 'NONE', *, *, #356, .T. ) ;
#685 = DIRECTION ( 'NONE',  ( 0.0000000000000000000, 1.000000000000000000, 0.0000000000000000000 ) ) ;
#686 = DIRECTION ( 'NONE',  ( 0.0000000000000000000, 0.0000000000000000000, -1.000000000000000000 ) ) ;
#687 = EDGE_CURVE ( 'NONE', #578, #591, #383, .T. ) ;
#688 = DIRECTION ( 'NONE',  ( 0.0000000000000000000, 0.0000000000000000000, 1.000000000000000000 ) ) ;
#689 = PRESENTATION_LAYER_ASSIGNMENT (  '', '', ( #1027 ) ) ;
#690 = DIRECTION ( 'NONE',  ( 1.000000000000000000, -0.0000000000000000000, -2.168404344971009115E-16 ) ) ;
#691 = CIRCLE ( 'NONE', #478, 0.05000000000000002359 ) ;
#692 = DIRECTION ( 'NONE',  ( 0.0000000000000000000, 0.0000000000000000000, 1.000000000000000000 ) ) ;
#693 = LINE ( 'NONE', #367, #249 ) ;
#694 = EDGE_LOOP ( 'NONE', ( #1000, #212, #405, #13 ) ) ;
#695 = DIRECTION ( 'NONE',  ( 0.0000000000000000000, 0.0000000000000000000, 1.000000000000000000 ) ) ;
#696 = AXIS2_PLACEMENT_3D ( 'NONE', #142, #799, #227 ) ;
#697 = ORIENTED_EDGE ( 'NONE', *, *, #1094, .T. ) ;
#698 = DIRECTION ( 'NONE',  ( -5.421010862427520198E-16, -0.0000000000000000000, -1.000000000000000000 ) ) ;
#699 = ORIENTED_EDGE ( 'NONE', *, *, #526, .F. ) ;
#700 = AXIS2_PLACEMENT_3D ( 'NONE', #1030, #195, #669 ) ;
#701 = DIRECTION ( 'NONE',  ( -1.000000000000000000, 0.0000000000000000000, 0.0000000000000000000 ) ) ;
#702 = CARTESIAN_POINT ( 'NONE',  ( -0.4500000000000001221, 0.0000000000000000000, -0.1999999999999999556 ) ) ;
#703 = DIRECTION ( 'NONE',  ( 1.000000000000000000, 0.0000000000000000000, 0.0000000000000000000 ) ) ;
#704 = SURFACE_SIDE_STYLE ('',( #841 ) ) ;
#705 = CYLINDRICAL_SURFACE ( 'NONE', #47, 0.04999999999999999584 ) ;
#706 = LINE ( 'NONE', #451, #134 ) ;
#707 = PRODUCT ( 'User Library-Chip Resistor2', 'User Library-Chip Resistor2', '', ( #449 ) ) ;
#708 = CIRCLE ( 'NONE', #895, 0.04999999999999999584 ) ;
#709 = DIRECTION ( 'NONE',  ( 1.000000000000000000, 0.0000000000000000000, 0.0000000000000000000 ) ) ;
#710 = LINE ( 'NONE', #1108, #493 ) ;
#711 = EDGE_LOOP ( 'NONE', ( #563, #789, #564 ) ) ;
#712 = ADVANCED_FACE ( 'NONE', ( #464 ), #283, .T. ) ;
#713 = VERTEX_POINT ( 'NONE', #1113 ) ;
#714 = CARTESIAN_POINT ( 'NONE',  ( -0.3000000000000001554, 0.3499999999999999778, 0.2500000000000000555 ) ) ;
#715 = AXIS2_PLACEMENT_3D ( 'NONE', #364, #642, #737 ) ;
#716 = EDGE_LOOP ( 'NONE', ( #498, #95, #867, #290 ) ) ;
#717 = DIRECTION ( 'NONE',  ( 0.0000000000000000000, -1.000000000000000000, 0.0000000000000000000 ) ) ;
#718 = DIRECTION ( 'NONE',  ( -1.000000000000000000, 0.0000000000000000000, 0.0000000000000000000 ) ) ;
#719 = FILL_AREA_STYLE_COLOUR ( '', #5 ) ;
#720 = EDGE_CURVE ( 'NONE', #805, #713, #634, .T. ) ;
#721 = EDGE_CURVE ( 'NONE', #824, #940, #586, .T. ) ;
#722 = FACE_OUTER_BOUND ( 'NONE', #970, .T. ) ;
#723 = FILL_AREA_STYLE ('',( #1163 ) ) ;
#724 = CARTESIAN_POINT ( 'NONE',  ( -0.5000000000000001110, 0.3499999999999999778, 0.2500000000000000555 ) ) ;
#725 = SURFACE_STYLE_FILL_AREA ( #780 ) ;
#726 = MECHANICAL_DESIGN_GEOMETRIC_PRESENTATION_REPRESENTATION (  '', ( #861 ), #352 ) ;
#727 = LINE ( 'NONE', #577, #1093 ) ;
#728 =( NAMED_UNIT ( * ) SI_UNIT ( $, .STERADIAN. ) SOLID_ANGLE_UNIT ( ) );
#729 = CARTESIAN_POINT ( 'NONE',  ( -0.5000000000000001110, 0.4000000000000000222, 0.2500000000000000555 ) ) ;
#730 = EDGE_LOOP ( 'NONE', ( #264, #697, #198 ) ) ;
#731 = ORIENTED_EDGE ( 'NONE', *, *, #618, .T. ) ;
#732 = EDGE_CURVE ( 'NONE', #591, #138, #46, .T. ) ;
#733 = EDGE_LOOP ( 'NONE', ( #833, #594, #552, #323 ) ) ;
#734 = CARTESIAN_POINT ( 'NONE',  ( 0.4499999999999997891, 0.3499999999999999778, 0.2000000000000000389 ) ) ;
#735 = CARTESIAN_POINT ( 'NONE',  ( 0.4999999999999998890, 0.4000000000000000222, -0.1999999999999999556 ) ) ;
#736 = DIRECTION ( 'NONE',  ( 1.000000000000000000, 0.0000000000000000000, 0.0000000000000000000 ) ) ;
#737 = DIRECTION ( 'NONE',  ( -1.000000000000000000, 0.0000000000000000000, 0.0000000000000000000 ) ) ;
#738 = VECTOR ( 'NONE', #701, 1000.000000000000000 ) ;
#739 = DIRECTION ( 'NONE',  ( -1.000000000000000000, 0.0000000000000000000, 0.0000000000000000000 ) ) ;
#740 = CARTESIAN_POINT ( 'NONE',  ( 0.4499999999999997891, 0.0000000000000000000, -0.1999999999999999556 ) ) ;
#741 = PRODUCT_DEFINITION_FORMATION_WITH_SPECIFIED_SOURCE ( 'ANY', '', #707, .NOT_KNOWN. ) ;
#742 = VECTOR ( 'NONE', #767, 1000.000000000000000 ) ;
#743 = ADVANCED_FACE ( 'NONE', ( #188 ), #762, .F. ) ;
#744 = EDGE_LOOP ( 'NONE', ( #237, #124, #170, #518 ) ) ;
#745 = ORIENTED_EDGE ( 'NONE', *, *, #644, .T. ) ;
#746 = SURFACE_STYLE_USAGE ( .BOTH. , #558 ) ;
#747 = VERTEX_POINT ( 'NONE', #472 ) ;
#748 = EDGE_CURVE ( 'NONE', #517, #880, #269, .T. ) ;
#749 = UNCERTAINTY_MEASURE_WITH_UNIT (LENGTH_MEASURE( 1.000000000000000082E-05 ), #1139, 'distance_accuracy_value', 'NONE');
#750 = CARTESIAN_POINT ( 'NONE',  ( 0.4499999999999997891, 0.0000000000000000000, 0.2500000000000000555 ) ) ;
#751 = CYLINDRICAL_SURFACE ( 'NONE', #368, 0.04999999999999999584 ) ;
#752 = DIRECTION ( 'NONE',  ( 0.0000000000000000000, -1.000000000000000000, 0.0000000000000000000 ) ) ;
#753 = DIRECTION ( 'NONE',  ( 0.0000000000000000000, 0.0000000000000000000, 1.000000000000000000 ) ) ;
#754 = FACE_OUTER_BOUND ( 'NONE', #916, .T. ) ;
#755 = AXIS2_PLACEMENT_3D ( 'NONE', #864, #216, #1114 ) ;
#756 = FACE_OUTER_BOUND ( 'NONE', #238, .T. ) ;
#757 = LINE ( 'NONE', #407, #496 ) ;
#758 = ORIENTED_EDGE ( 'NONE', *, *, #295, .T. ) ;
#759 = CARTESIAN_POINT ( 'NONE',  ( -0.3000000000000001554, 0.0000000000000000000, 0.2000000000000000666 ) ) ;
#760 = EDGE_LOOP ( 'NONE', ( #390, #775, #1181, #436 ) ) ;
#761 = ORIENTED_EDGE ( 'NONE', *, *, #732, .F. ) ;
#762 = PLANE ( 'NONE',  #460 ) ;
#763 = PRESENTATION_LAYER_ASSIGNMENT (  '', '', ( #554 ) ) ;
#764 = MANIFOLD_SOLID_BREP ( 'Split Line3', #519 ) ;
#765 = PRESENTATION_LAYER_ASSIGNMENT (  '', '', ( #24 ) ) ;
#766 =( NAMED_UNIT ( * ) SI_UNIT ( $, .STERADIAN. ) SOLID_ANGLE_UNIT ( ) );
#767 = DIRECTION ( 'NONE',  ( 0.0000000000000000000, 0.0000000000000000000, 1.000000000000000000 ) ) ;
#768 = CIRCLE ( 'NONE', #851, 0.05000000000000002359 ) ;
#769 = DIRECTION ( 'NONE',  ( 1.000000000000000000, 0.0000000000000000000, 0.0000000000000000000 ) ) ;
#770 = VECTOR ( 'NONE', #806, 1000.000000000000000 ) ;
#771 = ADVANCED_FACE ( 'NONE', ( #924 ), #602, .T. ) ;
#772 = ORIENTED_EDGE ( 'NONE', *, *, #334, .T. ) ;
#773 = ORIENTED_EDGE ( 'NONE', *, *, #846, .F. ) ;
#774 = SURFACE_SIDE_STYLE ('',( #1047 ) ) ;
#775 = ORIENTED_EDGE ( 'NONE', *, *, #423, .F. ) ;
#776 = DIRECTION ( 'NONE',  ( 0.0000000000000000000, 0.0000000000000000000, -1.000000000000000000 ) ) ;
#777 = VERTEX_POINT ( 'NONE', #858 ) ;
#778 = ADVANCED_FACE ( 'NONE', ( #300 ), #1020, .T. ) ;
#779 = DIRECTION ( 'NONE',  ( -0.0000000000000000000, -1.000000000000000000, 0.0000000000000000000 ) ) ;
#780 = FILL_AREA_STYLE ('',( #127 ) ) ;
#781 = FACE_OUTER_BOUND ( 'NONE', #744, .T. ) ;
#782 = VECTOR ( 'NONE', #96, 1000.000000000000000 ) ;
#783 = SPHERICAL_SURFACE ( 'NONE', #923, 0.05000000000000000278 ) ;
#784 = DIRECTION ( 'NONE',  ( 0.0000000000000000000, 0.0000000000000000000, 1.000000000000000000 ) ) ;
#785 = EDGE_CURVE ( 'NONE', #361, #578, #219, .T. ) ;
#786 = VECTOR ( 'NONE', #695, 1000.000000000000000 ) ;
#787 = DIRECTION ( 'NONE',  ( 0.0000000000000000000, 0.0000000000000000000, 1.000000000000000000 ) ) ;
#788 = PRODUCT_DEFINITION ( 'UNKNOWN', '', #741, #658 ) ;
#789 = ORIENTED_EDGE ( 'NONE', *, *, #566, .T. ) ;
#790 = ADVANCED_FACE ( 'NONE', ( #527 ), #592, .T. ) ;
#791 = EDGE_LOOP ( 'NONE', ( #897, #359, #254 ) ) ;
#792 = CARTESIAN_POINT ( 'NONE',  ( -0.4500000000000001221, 0.0000000000000000000, 0.2000000000000000666 ) ) ;
#793 = DIRECTION ( 'NONE',  ( 0.0000000000000000000, -1.084202172485504434E-15, 1.000000000000000000 ) ) ;
#794 = CARTESIAN_POINT ( 'NONE',  ( -0.4500000000000001221, 0.3499999999999999778, 0.2000000000000000389 ) ) ;
#795 = DIRECTION ( 'NONE',  ( -0.0000000000000000000, -0.0000000000000000000, 1.000000000000000000 ) ) ;
#796 = AXIS2_PLACEMENT_3D ( 'NONE', #488, #686, #26 ) ;
#797 = DIRECTION ( 'NONE',  ( 0.0000000000000000000, 0.0000000000000000000, 1.000000000000000000 ) ) ;
#798 = CIRCLE ( 'NONE', #567, 0.04999999999999999584 ) ;
#799 = DIRECTION ( 'NONE',  ( -0.0000000000000000000, 1.000000000000000000, -0.0000000000000000000 ) ) ;
#800 = DIRECTION ( 'NONE',  ( 0.0000000000000000000, 1.000000000000000000, -0.0000000000000000000 ) ) ;
#801 = LINE ( 'NONE', #583, #1006 ) ;
#802 = CYLINDRICAL_SURFACE ( 'NONE', #813, 0.04999999999999999584 ) ;
#803 = UNCERTAINTY_MEASURE_WITH_UNIT (LENGTH_MEASURE( 1.000000000000000082E-05 ), #1079, 'distance_accuracy_value', 'NONE');
#804 = AXIS2_PLACEMENT_3D ( 'NONE', #873, #298, #394 ) ;
#805 = VERTEX_POINT ( 'NONE', #306 ) ;
#806 = DIRECTION ( 'NONE',  ( 0.0000000000000000000, -1.000000000000000000, 0.0000000000000000000 ) ) ;
#807 = EDGE_LOOP ( 'NONE', ( #274, #486, #973, #664 ) ) ;
#808 = PRODUCT_RELATED_PRODUCT_CATEGORY ( 'part', '', ( #707 ) ) ;
#809 = ORIENTED_EDGE ( 'NONE', *, *, #1073, .T. ) ;
#810 = CARTESIAN_POINT ( 'NONE',  ( -0.4500000000000001221, 0.05000000000000000278, 0.2000000000000000666 ) ) ;
#811 = DIRECTION ( 'NONE',  ( 0.0000000000000000000, 1.000000000000000000, 0.0000000000000000000 ) ) ;
#812 =( LENGTH_UNIT ( ) NAMED_UNIT ( * ) SI_UNIT ( .MILLI., .METRE. ) );
#813 = AXIS2_PLACEMENT_3D ( 'NONE', #145, #56, #502 ) ;
#814 = CARTESIAN_POINT ( 'NONE',  ( 0.4499999999999997891, 0.3499999999999999778, -0.2499999999999999445 ) ) ;
#815 = LINE ( 'NONE', #230, #556 ) ;
#816 = CARTESIAN_POINT ( 'NONE',  ( -0.3000000000000001554, 0.05000000000000002359, -0.2499999999999999445 ) ) ;
#817 = CARTESIAN_POINT ( 'NONE',  ( -0.3000000000000001554, 0.0000000000000000000, -0.1999999999999999556 ) ) ;
#818 = CIRCLE ( 'NONE', #545, 0.04999999999999999584 ) ;
#819 = EDGE_LOOP ( 'NONE', ( #941, #1150, #1037 ) ) ;
#820 = ORIENTED_EDGE ( 'NONE', *, *, #721, .F. ) ;
#821 = DIRECTION ( 'NONE',  ( 0.0000000000000000000, 0.0000000000000000000, 1.000000000000000000 ) ) ;
#822 = DIRECTION ( 'NONE',  ( 1.000000000000000000, -0.0000000000000000000, -0.0000000000000000000 ) ) ;
#823 = AXIS2_PLACEMENT_3D ( 'NONE', #321, #1045, #793 ) ;
#824 = VERTEX_POINT ( 'NONE', #792 ) ;
#825 = MECHANICAL_DESIGN_GEOMETRIC_PRESENTATION_REPRESENTATION (  '', ( #554 ), #877 ) ;
#826 = SURFACE_STYLE_USAGE ( .BOTH. , #999 ) ;
#827 = FACE_OUTER_BOUND ( 'NONE', #439, .T. ) ;
#828 = AXIS2_PLACEMENT_3D ( 'NONE', #1121, #297, #692 ) ;
#829 = ADVANCED_FACE ( 'NONE', ( #246 ), #397, .T. ) ;
#830 = FACE_OUTER_BOUND ( 'NONE', #1058, .T. ) ;
#831 = DIRECTION ( 'NONE',  ( 0.0000000000000000000, 0.0000000000000000000, -1.000000000000000000 ) ) ;
#832 = ORIENTED_EDGE ( 'NONE', *, *, #377, .T. ) ;
#833 = ORIENTED_EDGE ( 'NONE', *, *, #71, .F. ) ;
#834 = CARTESIAN_POINT ( 'NONE',  ( 0.4999999999999997780, 0.4000000000000000222, 0.2500000000000000555 ) ) ;
#835 = ORIENTED_EDGE ( 'NONE', *, *, #267, .F. ) ;
#836 = ORIENTED_EDGE ( 'NONE', *, *, #104, .F. ) ;
#837 = ADVANCED_FACE ( 'NONE', ( #342 ), #510, .T. ) ;
#838 = CARTESIAN_POINT ( 'NONE',  ( -0.5000000000000001110, 0.3499999999999999778, -0.1999999999999999278 ) ) ;
#839 = VECTOR ( 'NONE', #616, 1000.000000000000000 ) ;
#840 = AXIS2_PLACEMENT_3D ( 'NONE', #508, #890, #1137 ) ;
#841 = SURFACE_STYLE_FILL_AREA ( #962 ) ;
#842 = CARTESIAN_POINT ( 'NONE',  ( 0.4499999999999997891, 0.05000000000000002359, 0.2500000000000000555 ) ) ;
#843 = ORIENTED_EDGE ( 'NONE', *, *, #423, .T. ) ;
#844 = ORIENTED_EDGE ( 'NONE', *, *, #215, .F. ) ;
#845 = ORIENTED_EDGE ( 'NONE', *, *, #396, .T. ) ;
#846 = EDGE_CURVE ( 'NONE', #39, #650, #798, .T. ) ;
#847 = CARTESIAN_POINT ( 'NONE',  ( 0.4499999999999997891, 0.05000000000000000278, -0.1999999999999999556 ) ) ;
#848 = DIRECTION ( 'NONE',  ( -1.000000000000000000, 0.0000000000000000000, 0.0000000000000000000 ) ) ;
#849 = CARTESIAN_POINT ( 'NONE',  ( 0.4999999999999998890, 0.4000000000000000222, 0.2000000000000000389 ) ) ;
#850 = LINE ( 'NONE', #1097, #165 ) ;
#851 = AXIS2_PLACEMENT_3D ( 'NONE', #437, #345, #992 ) ;
#852 = CARTESIAN_POINT ( 'NONE',  ( -0.5000000000000001110, 0.4000000000000000222, -0.1999999999999999278 ) ) ;
#853 = VECTOR ( 'NONE', #393, 1000.000000000000000 ) ;
#854 = VERTEX_POINT ( 'NONE', #217 ) ;
#855 = EDGE_LOOP ( 'NONE', ( #113, #1165, #141, #684 ) ) ;
#856 = ADVANCED_FACE ( 'NONE', ( #64 ), #268, .T. ) ;
#857 = ORIENTED_EDGE ( 'NONE', *, *, #15, .F. ) ;
#858 = CARTESIAN_POINT ( 'NONE',  ( 0.4499999999999997891, 0.0000000000000000000, 0.2000000000000000666 ) ) ;
#859 = AXIS2_PLACEMENT_3D ( 'NONE', #834, #259, #555 ) ;
#860 = DIRECTION ( 'NONE',  ( 0.0000000000000000000, -1.000000000000000000, 0.0000000000000000000 ) ) ;
#861 = STYLED_ITEM ( 'NONE', ( #1115 ), #443 ) ;
#862 =( LENGTH_UNIT ( ) NAMED_UNIT ( * ) SI_UNIT ( .MILLI., .METRE. ) );
#863 = ADVANCED_FACE ( 'NONE', ( #827 ), #395, .T. ) ;
#864 = CARTESIAN_POINT ( 'NONE',  ( 0.4499999999999997891, 0.3499999999999999778, -0.1999999999999999556 ) ) ;
#865 = EDGE_CURVE ( 'NONE', #136, #641, #646, .T. ) ;
#866 = DIRECTION ( 'NONE',  ( -1.000000000000000000, 0.0000000000000000000, -0.0000000000000000000 ) ) ;
#867 = ORIENTED_EDGE ( 'NONE', *, *, #679, .F. ) ;
#868 = CARTESIAN_POINT ( 'NONE',  ( 0.4999999999999998890, 0.3499999999999999778, 0.2000000000000000389 ) ) ;
#869 = ORIENTED_EDGE ( 'NONE', *, *, #489, .T. ) ;
#870 = ORIENTED_EDGE ( 'NONE', *, *, #128, .T. ) ;
#871 = DIRECTION ( 'NONE',  ( 1.000000000000000000, 0.0000000000000000000, 0.0000000000000000000 ) ) ;
#872 = AXIS2_PLACEMENT_3D ( 'NONE', #847, #459, #565 ) ;
#873 = CARTESIAN_POINT ( 'NONE',  ( -0.5000000000000001110, 0.4000000000000000222, -0.2499999999999999445 ) ) ;
#874 = DIRECTION ( 'NONE',  ( 1.000000000000000000, -0.0000000000000000000, -0.0000000000000000000 ) ) ;
#875 = CARTESIAN_POINT ( 'NONE',  ( -0.3000000000000001554, 0.4000000000000000222, 0.2500000000000000555 ) ) ;
#876 = VECTOR ( 'NONE', #908, 1000.000000000000000 ) ;
#877 =( GEOMETRIC_REPRESENTATION_CONTEXT ( 3 ) GLOBAL_UNCERTAINTY_ASSIGNED_CONTEXT ( ( #749 ) ) GLOBAL_UNIT_ASSIGNED_CONTEXT ( ( #1139, #1062, #41 ) ) REPRESENTATION_CONTEXT ( 'NONE', 'WORKASPACE' ) );
#878 = ORIENTED_EDGE ( 'NONE', *, *, #538, .T. ) ;
#879 = DIRECTION ( 'NONE',  ( 0.0000000000000000000, 0.0000000000000000000, 1.000000000000000000 ) ) ;
#880 = VERTEX_POINT ( 'NONE', #957 ) ;
#881 = AXIS2_PLACEMENT_3D ( 'NONE', #103, #1105, #479 ) ;
#882 = EDGE_LOOP ( 'NONE', ( #612, #649, #454, #1133 ) ) ;
#883 = CARTESIAN_POINT ( 'NONE',  ( -0.5000000000000001110, 0.0000000000000000000, 0.2000000000000000666 ) ) ;
#884 = UNCERTAINTY_MEASURE_WITH_UNIT (LENGTH_MEASURE( 1.000000000000000082E-05 ), #812, 'distance_accuracy_value', 'NONE');
#885 = SURFACE_SIDE_STYLE ('',( #316 ) ) ;
#886 = CARTESIAN_POINT ( 'NONE',  ( 0.4999999999999998890, 0.3499999999999999778, 0.2000000000000000389 ) ) ;
#887 = CARTESIAN_POINT ( 'NONE',  ( 0.4999999999999998890, 0.05000000000000002359, 0.2500000000000000555 ) ) ;
#888 =( NAMED_UNIT ( * ) PLANE_ANGLE_UNIT ( ) SI_UNIT ( $, .RADIAN. ) );
#889 = DIRECTION ( 'NONE',  ( -0.0000000000000000000, 1.000000000000000000, -0.0000000000000000000 ) ) ;
#890 = DIRECTION ( 'NONE',  ( 0.0000000000000000000, -1.000000000000000000, 0.0000000000000000000 ) ) ;
#891 = FACE_OUTER_BOUND ( 'NONE', #694, .T. ) ;
#892 = LINE ( 'NONE', #158, #91 ) ;
#893 = CARTESIAN_POINT ( 'NONE',  ( 0.4499999999999997891, 0.05000000000000000278, -0.1999999999999999556 ) ) ;
#894 = CARTESIAN_POINT ( 'NONE',  ( 0.4999999999999998890, 0.4000000000000000222, -0.1999999999999999556 ) ) ;
#895 = AXIS2_PLACEMENT_3D ( 'NONE', #218, #690, #308 ) ;
#896 = ORIENTED_EDGE ( 'NONE', *, *, #189, .T. ) ;
#897 = ORIENTED_EDGE ( 'NONE', *, *, #846, .T. ) ;
#898 = EDGE_LOOP ( 'NONE', ( #1135, #1098, #1152, #107 ) ) ;
#899 = EDGE_CURVE ( 'NONE', #138, #680, #1090, .T. ) ;
#900 = DIRECTION ( 'NONE',  ( 1.000000000000000000, 0.0000000000000000000, 0.0000000000000000000 ) ) ;
#901 = VECTOR ( 'NONE', #1149, 1000.000000000000000 ) ;
#902 = VECTOR ( 'NONE', #795, 1000.000000000000000 ) ;
#903 = ORIENTED_EDGE ( 'NONE', *, *, #489, .F. ) ;
#904 = DIRECTION ( 'NONE',  ( 1.000000000000000000, 0.0000000000000000000, 0.0000000000000000000 ) ) ;
#905 = DIRECTION ( 'NONE',  ( 0.0000000000000000000, -1.000000000000000000, 0.0000000000000000000 ) ) ;
#906 = STYLED_ITEM ( 'NONE', ( #430 ), #615 ) ;
#907 = ORIENTED_EDGE ( 'NONE', *, *, #1032, .F. ) ;
#908 = DIRECTION ( 'NONE',  ( -2.168404344971009115E-16, 0.0000000000000000000, -1.000000000000000000 ) ) ;
#909 = CARTESIAN_POINT ( 'NONE',  ( 0.4999999999999998890, 0.3499999999999999778, 0.2000000000000000389 ) ) ;
#910 = ADVANCED_FACE ( 'NONE', ( #781 ), #161, .T. ) ;
#911 = STYLED_ITEM ( 'NONE', ( #571 ), #585 ) ;
#912 = APPLICATION_CONTEXT ( 'automotive_design' ) ;
#913 = FACE_OUTER_BOUND ( 'NONE', #606, .T. ) ;
#914 = CIRCLE ( 'NONE', #98, 0.05000000000000002359 ) ;
#915 = FACE_OUTER_BOUND ( 'NONE', #389, .T. ) ;
#916 = EDGE_LOOP ( 'NONE', ( #82, #338, #224, #1070 ) ) ;
#917 = EDGE_CURVE ( 'NONE', #481, #37, #815, .T. ) ;
#918 = VERTEX_POINT ( 'NONE', #678 ) ;
#919 = ORIENTED_EDGE ( 'NONE', *, *, #917, .T. ) ;
#920 = CARTESIAN_POINT ( 'NONE',  ( -0.5000000000000001110, 0.3499999999999999778, 0.2000000000000000666 ) ) ;
#921 = SPHERICAL_SURFACE ( 'NONE', #311, 0.05000000000000000278 ) ;
#922 = CARTESIAN_POINT ( 'NONE',  ( 0.4499999999999997891, 0.4000000000000000222, 0.2000000000000000389 ) ) ;
#923 = AXIS2_PLACEMENT_3D ( 'NONE', #331, #253, #75 ) ;
#924 = FACE_OUTER_BOUND ( 'NONE', #730, .T. ) ;
#925 = VECTOR ( 'NONE', #270, 1000.000000000000000 ) ;
#926 = CIRCLE ( 'NONE', #1099, 0.04999999999999999584 ) ;
#927 = LINE ( 'NONE', #875, #1054 ) ;
#928 = ORIENTED_EDGE ( 'NONE', *, *, #8, .T. ) ;
#929 = ORIENTED_EDGE ( 'NONE', *, *, #948, .T. ) ;
#930 = FILL_AREA_STYLE ('',( #665 ) ) ;
#931 = CARTESIAN_POINT ( 'NONE',  ( -0.4500000000000001221, 0.3499999999999999778, -0.1999999999999999556 ) ) ;
#932 = CARTESIAN_POINT ( 'NONE',  ( -0.4500000000000001221, 0.3499999999999999778, 0.2500000000000000555 ) ) ;
#933 = FACE_OUTER_BOUND ( 'NONE', #499, .T. ) ;
#934 = PLANE ( 'NONE',  #796 ) ;
#935 = VECTOR ( 'NONE', #1042, 1000.000000000000000 ) ;
#936 = ADVANCED_FACE ( 'NONE', ( #913 ), #1046, .T. ) ;
#937 = CIRCLE ( 'NONE', #1067, 0.04999999999999999584 ) ;
#938 =( NAMED_UNIT ( * ) SI_UNIT ( $, .STERADIAN. ) SOLID_ANGLE_UNIT ( ) );
#939 = VERTEX_POINT ( 'NONE', #511 ) ;
#940 = VERTEX_POINT ( 'NONE', #406 ) ;
#941 = ORIENTED_EDGE ( 'NONE', *, *, #653, .T. ) ;
#942 = AXIS2_PLACEMENT_3D ( 'NONE', #1014, #365, #93 ) ;
#943 = SURFACE_STYLE_USAGE ( .BOTH. , #209 ) ;
#944 = FILL_AREA_STYLE ('',( #22 ) ) ;
#945 = VECTOR ( 'NONE', #149, 1000.000000000000000 ) ;
#946 = VECTOR ( 'NONE', #14, 1000.000000000000000 ) ;
#947 = CARTESIAN_POINT ( 'NONE',  ( 0.4999999999999998890, 0.3499999999999999778, -0.1999999999999999556 ) ) ;
#948 = EDGE_CURVE ( 'NONE', #39, #136, #380, .T. ) ;
#949 = SURFACE_STYLE_FILL_AREA ( #457 ) ;
#950 = PLANE ( 'NONE',  #670 ) ;
#951 = VERTEX_POINT ( 'NONE', #620 ) ;
#952 = CARTESIAN_POINT ( 'NONE',  ( 0.4499999999999997891, 0.05000000000000000278, 0.2000000000000000666 ) ) ;
#953 = DIRECTION ( 'NONE',  ( 0.0000000000000000000, 1.000000000000000000, -0.0000000000000000000 ) ) ;
#954 = ORIENTED_EDGE ( 'NONE', *, *, #679, .T. ) ;
#955 = CARTESIAN_POINT ( 'NONE',  ( 0.4499999999999997891, 0.4000000000000000222, -0.2499999999999999445 ) ) ;
#956 = ORIENTED_EDGE ( 'NONE', *, *, #172, .T. ) ;
#957 = CARTESIAN_POINT ( 'NONE',  ( 0.4999999999999997780, 0.3499999999999999778, -0.1999999999999999556 ) ) ;
#958 = UNCERTAINTY_MEASURE_WITH_UNIT (LENGTH_MEASURE( 1.000000000000000082E-05 ), #607, 'distance_accuracy_value', 'NONE');
#959 = DIRECTION ( 'NONE',  ( 0.0000000000000000000, -1.000000000000000000, 0.0000000000000000000 ) ) ;
#960 = AXIS2_PLACEMENT_3D ( 'NONE', #476, #753, #373 ) ;
#961 = CARTESIAN_POINT ( 'NONE',  ( 0.3000000000000002665, 0.4000000000000000222, 0.2000000000000000389 ) ) ;
#962 = FILL_AREA_STYLE ('',( #613 ) ) ;
#963 = CYLINDRICAL_SURFACE ( 'NONE', #983, 0.04999999999999999584 ) ;
#964 = COLOUR_RGB ( '',0.2509803921568627416, 0.2509803921568627416, 0.2509803921568627416 ) ;
#965 = DIRECTION ( 'NONE',  ( 1.000000000000000000, 0.0000000000000000000, 0.0000000000000000000 ) ) ;
#966 = CARTESIAN_POINT ( 'NONE',  ( -0.3000000000000001554, 0.05000000000000002359, 0.2500000000000000555 ) ) ;
#967 = AXIS2_PLACEMENT_3D ( 'NONE', #1084, #59, #355 ) ;
#968 = FACE_OUTER_BOUND ( 'NONE', #183, .T. ) ;
#969 = EDGE_LOOP ( 'NONE', ( #1085, #263, #548, #1124 ) ) ;
#970 = EDGE_LOOP ( 'NONE', ( #956, #156, #363, #181 ) ) ;
#971 = CARTESIAN_POINT ( 'NONE',  ( -0.5000000000000001110, 0.3499999999999999778, -0.2499999999999999445 ) ) ;
#972 = FILL_AREA_STYLE_COLOUR ( '', #663 ) ;
#973 = ORIENTED_EDGE ( 'NONE', *, *, #748, .F. ) ;
#974 = EDGE_CURVE ( 'NONE', #10, #824, #1141, .T. ) ;
#975 = DIRECTION ( 'NONE',  ( -1.000000000000000000, -0.0000000000000000000, -0.0000000000000000000 ) ) ;
#976 = DIRECTION ( 'NONE',  ( -1.000000000000000000, 0.0000000000000000000, -0.0000000000000000000 ) ) ;
#977 = CIRCLE ( 'NONE', #438, 0.05000000000000002359 ) ;
#978 = DIRECTION ( 'NONE',  ( -1.000000000000000000, 0.0000000000000000000, 0.0000000000000000000 ) ) ;
#979 = COLOUR_RGB ( '',0.7960784313725489669, 0.8235294117647058432, 0.9372549019607843146 ) ;
#980 = COLOUR_RGB ( '',0.2509803921568627416, 0.2509803921568627416, 0.2509803921568627416 ) ;
#981 = CYLINDRICAL_SURFACE ( 'NONE', #185, 0.05000000000000002359 ) ;
#982 = DIRECTION ( 'NONE',  ( -1.000000000000000000, 0.0000000000000000000, 0.0000000000000000000 ) ) ;
#983 = AXIS2_PLACEMENT_3D ( 'NONE', #513, #42, #797 ) ;
#984 = VECTOR ( 'NONE', #889, 1000.000000000000000 ) ;
#985 = EDGE_LOOP ( 'NONE', ( #988, #435, #773, #699 ) ) ;
#986 = CARTESIAN_POINT ( 'NONE',  ( -0.3000000000000001554, 0.05000000000000002359, 0.2000000000000000666 ) ) ;
#987 = ORIENTED_EDGE ( 'NONE', *, *, #618, .F. ) ;
#988 = ORIENTED_EDGE ( 'NONE', *, *, #1094, .F. ) ;
#989 = CARTESIAN_POINT ( 'NONE',  ( 0.4999999999999998890, 0.4000000000000000222, -0.2499999999999999445 ) ) ;
#990 = AXIS2_PLACEMENT_3D ( 'NONE', #521, #512, #150 ) ;
#991 = CARTESIAN_POINT ( 'NONE',  ( 0.4499999999999997891, 0.05000000000000000278, 0.2000000000000000666 ) ) ;
#992 = DIRECTION ( 'NONE',  ( 0.0000000000000000000, 1.000000000000000000, -5.421010862427519212E-16 ) ) ;
#993 = PRESENTATION_LAYER_ASSIGNMENT (  '', '', ( #550 ) ) ;
#994 = CARTESIAN_POINT ( 'NONE',  ( 0.0000000000000000000, 0.0000000000000000000, 0.0000000000000000000 ) ) ;
#995 = ADVANCED_FACE ( 'NONE', ( #525 ), #299, .T. ) ;
#996 = PRODUCT_DEFINITION_SHAPE ( 'NONE', 'NONE',  #788 ) ;
#997 = VERTEX_POINT ( 'NONE', #702 ) ;
#998 = EDGE_LOOP ( 'NONE', ( #758, #845, #111, #832 ) ) ;
#999 = SURFACE_SIDE_STYLE ('',( #100 ) ) ;
#1000 = ORIENTED_EDGE ( 'NONE', *, *, #89, .T. ) ;
#1001 = CARTESIAN_POINT ( 'NONE',  ( 0.4999999999999998890, 0.0000000000000000000, -0.1999999999999999556 ) ) ;
#1002 = PRESENTATION_LAYER_ASSIGNMENT (  '', '', ( #244 ) ) ;
#1003 = FACE_OUTER_BOUND ( 'NONE', #350, .T. ) ;
#1004 = CARTESIAN_POINT ( 'NONE',  ( 0.3000000000000001554, 0.3499999999999999778, -0.2499999999999999445 ) ) ;
#1005 = DIRECTION ( 'NONE',  ( 0.0000000000000000000, 0.0000000000000000000, -1.000000000000000000 ) ) ;
#1006 = VECTOR ( 'NONE', #112, 1000.000000000000000 ) ;
#1007 = LINE ( 'NONE', #339, #333 ) ;
#1008 = ORIENTED_EDGE ( 'NONE', *, *, #251, .F. ) ;
#1009 = EDGE_CURVE ( 'NONE', #36, #535, #490, .T. ) ;
#1010 = ORIENTED_EDGE ( 'NONE', *, *, #509, .T. ) ;
#1011 = ORIENTED_EDGE ( 'NONE', *, *, #1167, .F. ) ;
#1012 =( GEOMETRIC_REPRESENTATION_CONTEXT ( 3 ) GLOBAL_UNCERTAINTY_ASSIGNED_CONTEXT ( ( #621 ) ) GLOBAL_UNIT_ASSIGNED_CONTEXT ( ( #1015, #379, #766 ) ) REPRESENTATION_CONTEXT ( 'NONE', 'WORKASPACE' ) );
#1013 = DIRECTION ( 'NONE',  ( 0.0000000000000000000, 0.0000000000000000000, -1.000000000000000000 ) ) ;
#1014 = CARTESIAN_POINT ( 'NONE',  ( 0.4499999999999997891, 0.3499999999999999778, 0.2000000000000000666 ) ) ;
#1015 =( LENGTH_UNIT ( ) NAMED_UNIT ( * ) SI_UNIT ( .MILLI., .METRE. ) );
#1016 = EDGE_CURVE ( 'NONE', #641, #37, #447, .T. ) ;
#1017 = SHAPE_DEFINITION_REPRESENTATION ( #996, #443 ) ;
#1018 = DIRECTION ( 'NONE',  ( 0.0000000000000000000, 0.0000000000000000000, 1.000000000000000000 ) ) ;
#1019 = AXIS2_PLACEMENT_3D ( 'NONE', #240, #717, #420 ) ;
#1020 = SPHERICAL_SURFACE ( 'NONE', #86, 0.05000000000000000278 ) ;
#1021 = ADVANCED_FACE ( 'NONE', ( #933 ), #921, .T. ) ;
#1022 = DIRECTION ( 'NONE',  ( 0.0000000000000000000, 0.0000000000000000000, -1.000000000000000000 ) ) ;
#1023 = CARTESIAN_POINT ( 'NONE',  ( 0.4999999999999998890, 0.3499999999999999778, -0.1999999999999999556 ) ) ;
#1024 = FACE_OUTER_BOUND ( 'NONE', #1122, .T. ) ;
#1025 = VERTEX_POINT ( 'NONE', #714 ) ;
#1026 = ORIENTED_EDGE ( 'NONE', *, *, #468, .F. ) ;
#1027 = STYLED_ITEM ( 'NONE', ( #76 ), #672 ) ;
#1028 = ADVANCED_FACE ( 'NONE', ( #176 ), #1033, .T. ) ;
#1029 =( LENGTH_UNIT ( ) NAMED_UNIT ( * ) SI_UNIT ( .MILLI., .METRE. ) );
#1030 = CARTESIAN_POINT ( 'NONE',  ( -0.5000000000000001110, 0.05000000000000002359, -0.1999999999999999556 ) ) ;
#1031 = ADVANCED_FACE ( 'NONE', ( #619 ), #751, .T. ) ;
#1032 = EDGE_CURVE ( 'NONE', #641, #288, #117, .T. ) ;
#1033 = SPHERICAL_SURFACE ( 'NONE', #1172, 0.05000000000000000278 ) ;
#1034 = PLANE ( 'NONE',  #1160 ) ;
#1035 = LINE ( 'NONE', #955, #770 ) ;
#1036 = VECTOR ( 'NONE', #318, 1000.000000000000000 ) ;
#1037 = ORIENTED_EDGE ( 'NONE', *, *, #87, .F. ) ;
#1038 = SURFACE_STYLE_USAGE ( .BOTH. , #29 ) ;
#1039 = EDGE_LOOP ( 'NONE', ( #1109, #638, #155, #987 ) ) ;
#1040 = DIRECTION ( 'NONE',  ( 0.0000000000000000000, 0.0000000000000000000, 1.000000000000000000 ) ) ;
#1041 = PRESENTATION_LAYER_ASSIGNMENT (  '', '', ( #911 ) ) ;
#1042 = DIRECTION ( 'NONE',  ( 0.0000000000000000000, -1.000000000000000000, 0.0000000000000000000 ) ) ;
#1043 = CARTESIAN_POINT ( 'NONE',  ( -0.4500000000000001221, 0.3499999999999999778, -0.1999999999999999556 ) ) ;
#1044 = PLANE ( 'NONE',  #1049 ) ;
#1045 = DIRECTION ( 'NONE',  ( 1.000000000000000000, -0.0000000000000000000, -0.0000000000000000000 ) ) ;
#1046 = SPHERICAL_SURFACE ( 'NONE', #1053, 0.05000000000000000278 ) ;
#1047 = SURFACE_STYLE_FILL_AREA ( #1100 ) ;
#1048 = DIRECTION ( 'NONE',  ( 1.000000000000000000, -0.0000000000000000000, -2.168404344971009115E-16 ) ) ;
#1049 = AXIS2_PLACEMENT_3D ( 'NONE', #1055, #959, #402 ) ;
#1050 = CIRCLE ( 'NONE', #425, 0.04999999999999999584 ) ;
#1051 = CARTESIAN_POINT ( 'NONE',  ( 0.4999999999999998890, 0.4000000000000000222, -0.1999999999999999556 ) ) ;
#1052 = PRESENTATION_STYLE_ASSIGNMENT (( #1038 ) ) ;
#1053 = AXIS2_PLACEMENT_3D ( 'NONE', #1142, #610, #137 ) ;
#1054 = VECTOR ( 'NONE', #605, 1000.000000000000000 ) ;
#1055 = CARTESIAN_POINT ( 'NONE',  ( 0.4999999999999998890, 0.0000000000000000000, -0.2499999999999999445 ) ) ;
#1056 = ORIENTED_EDGE ( 'NONE', *, *, #442, .T. ) ;
#1057 = ORIENTED_EDGE ( 'NONE', *, *, #1009, .F. ) ;
#1058 = EDGE_LOOP ( 'NONE', ( #469, #514, #609, #919 ) ) ;
#1059 = DIRECTION ( 'NONE',  ( -1.000000000000000000, 0.0000000000000000000, 0.0000000000000000000 ) ) ;
#1060 = CARTESIAN_POINT ( 'NONE',  ( -0.5000000000000001110, 0.05000000000000002359, -0.1999999999999999278 ) ) ;
#1061 = CARTESIAN_POINT ( 'NONE',  ( -0.3000000000000001554, 0.4000000000000000222, 0.2000000000000000389 ) ) ;
#1062 =( NAMED_UNIT ( * ) PLANE_ANGLE_UNIT ( ) SI_UNIT ( $, .RADIAN. ) );
#1063 = VECTOR ( 'NONE', #414, 1000.000000000000000 ) ;
#1064 = CYLINDRICAL_SURFACE ( 'NONE', #139, 0.04999999999999999584 ) ;
#1065 = VECTOR ( 'NONE', #392, 1000.000000000000000 ) ;
#1066 = CARTESIAN_POINT ( 'NONE',  ( -0.4500000000000001221, 0.05000000000000002359, -0.1999999999999999556 ) ) ;
#1067 = AXIS2_PLACEMENT_3D ( 'NONE', #931, #1101, #463 ) ;
#1068 = FACE_OUTER_BOUND ( 'NONE', #711, .T. ) ;
#1069 = VECTOR ( 'NONE', #1111, 1000.000000000000000 ) ;
#1070 = ORIENTED_EDGE ( 'NONE', *, *, #593, .T. ) ;
#1071 = CARTESIAN_POINT ( 'NONE',  ( 0.4499999999999997891, 0.3499999999999999778, -0.1999999999999999556 ) ) ;
#1072 = EDGE_LOOP ( 'NONE', ( #11, #278, #903, #1057 ) ) ;
#1073 = EDGE_CURVE ( 'NONE', #1025, #683, #329, .T. ) ;
#1074 =( GEOMETRIC_REPRESENTATION_CONTEXT ( 3 ) GLOBAL_UNCERTAINTY_ASSIGNED_CONTEXT ( ( #541 ) ) GLOBAL_UNIT_ASSIGNED_CONTEXT ( ( #494, #214, #126 ) ) REPRESENTATION_CONTEXT ( 'NONE', 'WORKASPACE' ) );
#1075 = LINE ( 'NONE', #883, #30 ) ;
#1076 = DIRECTION ( 'NONE',  ( 0.0000000000000000000, 0.0000000000000000000, 1.000000000000000000 ) ) ;
#1077 = FACE_OUTER_BOUND ( 'NONE', #1104, .T. ) ;
#1078 = VECTOR ( 'NONE', #561, 1000.000000000000000 ) ;
#1079 =( LENGTH_UNIT ( ) NAMED_UNIT ( * ) SI_UNIT ( .MILLI., .METRE. ) );
#1080 = DIRECTION ( 'NONE',  ( 0.0000000000000000000, -1.000000000000000000, -0.0000000000000000000 ) ) ;
#1081 = AXIS2_PLACEMENT_3D ( 'NONE', #1168, #77, #1173 ) ;
#1082 = EDGE_LOOP ( 'NONE', ( #225, #53, #551, #418 ) ) ;
#1083 = ORIENTED_EDGE ( 'NONE', *, *, #526, .T. ) ;
#1084 = CARTESIAN_POINT ( 'NONE',  ( -0.5000000000000001110, 0.05000000000000002359, -0.1999999999999999556 ) ) ;
#1085 = ORIENTED_EDGE ( 'NONE', *, *, #721, .T. ) ;
#1086 =( NAMED_UNIT ( * ) PLANE_ANGLE_UNIT ( ) SI_UNIT ( $, .RADIAN. ) );
#1087 = MECHANICAL_DESIGN_GEOMETRIC_PRESENTATION_REPRESENTATION (  '', ( #1027 ), #84 ) ;
#1088 = ADVANCED_FACE ( 'NONE', ( #722 ), #461, .T. ) ;
#1089 = DIRECTION ( 'NONE',  ( -1.000000000000000000, -0.0000000000000000000, 0.0000000000000000000 ) ) ;
#1090 = CIRCLE ( 'NONE', #506, 0.05000000000000002359 ) ;
#1091 = FACE_OUTER_BOUND ( 'NONE', #985, .T. ) ;
#1092 = PLANE ( 'NONE',  #859 ) ;
#1093 = VECTOR ( 'NONE', #279, 1000.000000000000000 ) ;
#1094 = EDGE_CURVE ( 'NONE', #54, #747, #202, .T. ) ;
#1095 = ORIENTED_EDGE ( 'NONE', *, *, #644, .F. ) ;
#1096 = EDGE_LOOP ( 'NONE', ( #387, #809, #1056, #878 ) ) ;
#1097 = CARTESIAN_POINT ( 'NONE',  ( 0.3000000000000001554, 0.0000000000000000000, -0.2499999999999998890 ) ) ;
#1098 = ORIENTED_EDGE ( 'NONE', *, *, #34, .T. ) ;
#1099 = AXIS2_PLACEMENT_3D ( 'NONE', #434, #440, #543 ) ;
#1100 = FILL_AREA_STYLE ('',( #114 ) ) ;
#1101 = DIRECTION ( 'NONE',  ( 1.000000000000000000, -0.0000000000000000000, -0.0000000000000000000 ) ) ;
#1102 = LINE ( 'NONE', #236, #876 ) ;
#1103 = CIRCLE ( 'NONE', #302, 0.04999999999999999584 ) ;
#1104 = EDGE_LOOP ( 'NONE', ( #169, #222, #627, #666 ) ) ;
#1105 = DIRECTION ( 'NONE',  ( 0.0000000000000000000, 1.000000000000000000, 0.0000000000000000000 ) ) ;
#1106 = AXIS2_PLACEMENT_3D ( 'NONE', #50, #811, #703 ) ;
#1107 = ORIENTED_EDGE ( 'NONE', *, *, #89, .F. ) ;
#1108 = CARTESIAN_POINT ( 'NONE',  ( -0.4500000000000001221, 0.0000000000000000000, -0.2499999999999999445 ) ) ;
#1109 = ORIENTED_EDGE ( 'NONE', *, *, #228, .F. ) ;
#1110 = MECHANICAL_DESIGN_GEOMETRIC_PRESENTATION_REPRESENTATION (  '', ( #550 ), #1074 ) ;
#1111 = DIRECTION ( 'NONE',  ( 0.0000000000000000000, 0.0000000000000000000, -1.000000000000000000 ) ) ;
#1112 = DIRECTION ( 'NONE',  ( 0.0000000000000000000, 0.0000000000000000000, -1.000000000000000000 ) ) ;
#1113 = CARTESIAN_POINT ( 'NONE',  ( 0.4499999999999997891, 0.3499999999999999778, 0.2500000000000000555 ) ) ;
#1114 = DIRECTION ( 'NONE',  ( 0.0000000000000000000, 0.0000000000000000000, -1.000000000000000000 ) ) ;
#1115 = PRESENTATION_STYLE_ASSIGNMENT (( #826 ) ) ;
#1116 = CYLINDRICAL_SURFACE ( 'NONE', #20, 0.04999999999999999584 ) ;
#1117 = CYLINDRICAL_SURFACE ( 'NONE', #163, 0.05000000000000002359 ) ;
#1118 = CARTESIAN_POINT ( 'NONE',  ( -0.5000000000000001110, 0.4000000000000000222, 0.2500000000000000555 ) ) ;
#1119 = VECTOR ( 'NONE', #72, 1000.000000000000000 ) ;
#1120 = VERTEX_POINT ( 'NONE', #816 ) ;
#1121 = CARTESIAN_POINT ( 'NONE',  ( -0.5000000000000001110, 0.05000000000000002359, 0.2000000000000000666 ) ) ;
#1122 = EDGE_LOOP ( 'NONE', ( #534, #731, #1095, #1010 ) ) ;
#1123 =( GEOMETRIC_REPRESENTATION_CONTEXT ( 3 ) GLOBAL_UNCERTAINTY_ASSIGNED_CONTEXT ( ( #179 ) ) GLOBAL_UNIT_ASSIGNED_CONTEXT ( ( #1029, #207, #123 ) ) REPRESENTATION_CONTEXT ( 'NONE', 'WORKASPACE' ) );
#1124 = ORIENTED_EDGE ( 'NONE', *, *, #377, .F. ) ;
#1125 = DIRECTION ( 'NONE',  ( 0.0000000000000000000, 0.0000000000000000000, -1.000000000000000000 ) ) ;
#1126 = EDGE_CURVE ( 'NONE', #777, #951, #1075, .T. ) ;
#1127 = VECTOR ( 'NONE', #736, 1000.000000000000000 ) ;
#1128 = CARTESIAN_POINT ( 'NONE',  ( 0.4999999999999997780, 0.05000000000000002359, -0.1999999999999999556 ) ) ;
#1129 = MECHANICAL_DESIGN_GEOMETRIC_PRESENTATION_REPRESENTATION (  '', ( #24 ), #1012 ) ;
#1130 = CIRCLE ( 'NONE', #990, 0.04999999999999999584 ) ;
#1131 = SURFACE_STYLE_USAGE ( .BOTH. , #234 ) ;
#1132 = LINE ( 'NONE', #221, #346 ) ;
#1133 = ORIENTED_EDGE ( 'NONE', *, *, #1134, .F. ) ;
#1134 = EDGE_CURVE ( 'NONE', #378, #713, #584, .T. ) ;
#1135 = ORIENTED_EDGE ( 'NONE', *, *, #28, .T. ) ;
#1136 = CARTESIAN_POINT ( 'NONE',  ( -0.3000000000000001554, 0.3499999999999999778, -0.2499999999999999445 ) ) ;
#1137 = DIRECTION ( 'NONE',  ( 0.0000000000000000000, -0.0000000000000000000, -1.000000000000000000 ) ) ;
#1138 = DIRECTION ( 'NONE',  ( 0.0000000000000000000, 0.0000000000000000000, 1.000000000000000000 ) ) ;
#1139 =( LENGTH_UNIT ( ) NAMED_UNIT ( * ) SI_UNIT ( .MILLI., .METRE. ) );
#1140 = CARTESIAN_POINT ( 'NONE',  ( 0.4499999999999997891, 0.4000000000000000222, -0.1999999999999999556 ) ) ;
#1141 = CIRCLE ( 'NONE', #614, 0.04999999999999999584 ) ;
#1142 = CARTESIAN_POINT ( 'NONE',  ( -0.4500000000000001221, 0.05000000000000000278, 0.2000000000000000666 ) ) ;
#1143 = DIRECTION ( 'NONE',  ( -1.000000000000000000, 0.0000000000000000000, 0.0000000000000000000 ) ) ;
#1144 =( GEOMETRIC_REPRESENTATION_CONTEXT ( 3 ) GLOBAL_UNCERTAINTY_ASSIGNED_CONTEXT ( ( #958 ) ) GLOBAL_UNIT_ASSIGNED_CONTEXT ( ( #607, #888, #129 ) ) REPRESENTATION_CONTEXT ( 'NONE', 'WORKASPACE' ) );
#1145 = CIRCLE ( 'NONE', #715, 0.05000000000000002359 ) ;
#1146 = VECTOR ( 'NONE', #229, 1000.000000000000000 ) ;
#1147 = AXIS2_PLACEMENT_3D ( 'NONE', #242, #604, #43 ) ;
#1148 = VECTOR ( 'NONE', #1143, 1000.000000000000000 ) ;
#1149 = DIRECTION ( 'NONE',  ( 1.000000000000000000, -0.0000000000000000000, -0.0000000000000000000 ) ) ;
#1150 = ORIENTED_EDGE ( 'NONE', *, *, #366, .T. ) ;
#1151 = DIRECTION ( 'NONE',  ( -1.000000000000000000, 0.0000000000000000000, 0.0000000000000000000 ) ) ;
#1152 = ORIENTED_EDGE ( 'NONE', *, *, #310, .T. ) ;
#1153 = UNCERTAINTY_MEASURE_WITH_UNIT (LENGTH_MEASURE( 1.000000000000000082E-05 ), #445, 'distance_accuracy_value', 'NONE');
#1154 = ORIENTED_EDGE ( 'NONE', *, *, #468, .T. ) ;
#1155 = EDGE_CURVE ( 'NONE', #378, #307, #977, .T. ) ;
#1156 = CARTESIAN_POINT ( 'NONE',  ( 0.4499999999999997891, 0.3499999999999999778, -0.2499999999999999445 ) ) ;
#1157 = PLANE ( 'NONE',  #474 ) ;
#1158 = LINE ( 'NONE', #256, #674 ) ;
#1159 = EDGE_CURVE ( 'NONE', #361, #650, #1158, .T. ) ;
#1160 = AXIS2_PLACEMENT_3D ( 'NONE', #497, #860, #292 ) ;
#1161 = VECTOR ( 'NONE', #953, 1000.000000000000000 ) ;
#1162 = ORIENTED_EDGE ( 'NONE', *, *, #974, .F. ) ;
#1163 = FILL_AREA_STYLE_COLOUR ( '', #341 ) ;
#1164 = DIRECTION ( 'NONE',  ( -1.000000000000000000, 0.0000000000000000000, -0.0000000000000000000 ) ) ;
#1165 = ORIENTED_EDGE ( 'NONE', *, *, #251, .T. ) ;
#1166 = UNCERTAINTY_MEASURE_WITH_UNIT (LENGTH_MEASURE( 1.000000000000000082E-05 ), #862, 'distance_accuracy_value', 'NONE');
#1167 = EDGE_CURVE ( 'NONE', #918, #777, #691, .T. ) ;
#1168 = CARTESIAN_POINT ( 'NONE',  ( 0.4999999999999998890, 0.4000000000000000222, -0.2499999999999999445 ) ) ;
#1169 = PLANE ( 'NONE',  #38 ) ;
#1170 = ADVANCED_FACE ( 'NONE', ( #1003 ), #705, .T. ) ;
#1171 = FILL_AREA_STYLE ('',( #719 ) ) ;
#1172 = AXIS2_PLACEMENT_3D ( 'NONE', #893, #330, #326 ) ;
#1173 = DIRECTION ( 'NONE',  ( 0.0000000000000000000, -0.0000000000000000000, -1.000000000000000000 ) ) ;
#1174 = SURFACE_STYLE_FILL_AREA ( #1171 ) ;
#1175 = ADVANCED_FACE ( 'NONE', ( #131 ), #175, .F. ) ;
#1176 = EDGE_CURVE ( 'NONE', #138, #378, #186, .T. ) ;
#1177 = CIRCLE ( 'NONE', #662, 0.04999999999999999584 ) ;
#1178 = LINE ( 'NONE', #617, #1161 ) ;
#1179 = ORIENTED_EDGE ( 'NONE', *, *, #484, .F. ) ;
#1180 =( NAMED_UNIT ( * ) SI_UNIT ( $, .STERADIAN. ) SOLID_ANGLE_UNIT ( ) );
#1181 = ORIENTED_EDGE ( 'NONE', *, *, #653, .F. ) ;
#1182 = ORIENTED_EDGE ( 'NONE', *, *, #1155, .F. ) ;
ENDSEC;
END-ISO-10303-21;
