ISO-10303-21;
HEADER;
FILE_DESCRIPTION (( 'STEP AP214' ),
    '1' );
FILE_NAME ('User Library-Chip Resistor2.STEP',
    '2020-02-19T20:05:25',
    ( '' ),
    ( '' ),
    'SwSTEP 2.0',
    'SolidWorks 2019',
    '' );
FILE_SCHEMA (( 'AUTOMOTIVE_DESIGN' ));
ENDSEC;

DATA;
#1 = CARTESIAN_POINT ( 'NONE',  ( 1.150000000000000577, 0.0000000000000000000, 0.7500000000000001110 ) ) ;
#2 = AXIS2_PLACEMENT_3D ( 'NONE', #889, #175, #899 ) ;
#3 = VECTOR ( 'NONE', #973, 1000.000000000000000 ) ;
#4 = ADVANCED_FACE ( 'NONE', ( #130 ), #1131, .F. ) ;
#5 = FACE_OUTER_BOUND ( 'NONE', #632, .T. ) ;
#6 = ORIENTED_EDGE ( 'NONE', *, *, #1170, .F. ) ;
#7 = DIRECTION ( 'NONE',  ( -1.000000000000000000, 0.0000000000000000000, 0.0000000000000000000 ) ) ;
#8 = ORIENTED_EDGE ( 'NONE', *, *, #1058, .T. ) ;
#9 = EDGE_CURVE ( 'NONE', #1062, #937, #1095, .T. ) ;
#10 = DIRECTION ( 'NONE',  ( 0.0000000000000000000, 2.168404344971008079E-15, -1.000000000000000000 ) ) ;
#11 = FACE_OUTER_BOUND ( 'NONE', #12, .T. ) ;
#12 = EDGE_LOOP ( 'NONE', ( #935, #318, #488 ) ) ;
#13 = DIRECTION ( 'NONE',  ( 0.0000000000000000000, 0.0000000000000000000, 1.000000000000000000 ) ) ;
#14 = MECHANICAL_DESIGN_GEOMETRIC_PRESENTATION_REPRESENTATION (  '', ( #845 ), #914 ) ;
#15 = CARTESIAN_POINT ( 'NONE',  ( 1.550000000000000044, 0.0000000000000000000, 0.8000000000000001554 ) ) ;
#16 = DIRECTION ( 'NONE',  ( 0.0000000000000000000, 0.0000000000000000000, -1.000000000000000000 ) ) ;
#17 = VERTEX_POINT ( 'NONE', #942 ) ;
#18 = LINE ( 'NONE', #917, #108 ) ;
#19 = AXIS2_PLACEMENT_3D ( 'NONE', #83, #699, #519 ) ;
#20 = PRESENTATION_LAYER_ASSIGNMENT (  '', '', ( #719 ) ) ;
#21 = AXIS2_PLACEMENT_3D ( 'NONE', #383, #102, #730 ) ;
#22 = COLOUR_RGB ( '',0.7960784313725489669, 0.8235294117647058432, 0.9372549019607843146 ) ;
#23 = FACE_OUTER_BOUND ( 'NONE', #365, .T. ) ;
#24 = ORIENTED_EDGE ( 'NONE', *, *, #334, .T. ) ;
#25 = EDGE_CURVE ( 'NONE', #916, #1070, #856, .T. ) ;
#26 = LINE ( 'NONE', #819, #807 ) ;
#27 = CARTESIAN_POINT ( 'NONE',  ( -1.550000000000000488, 0.6500000000000000222, 0.7500000000000001110 ) ) ;
#28 = DIRECTION ( 'NONE',  ( -1.000000000000000000, 0.0000000000000000000, -2.168404344971012812E-15 ) ) ;
#29 = DIRECTION ( 'NONE',  ( 0.0000000000000000000, 0.0000000000000000000, 1.000000000000000000 ) ) ;
#30 = EDGE_LOOP ( 'NONE', ( #857, #795, #869, #413 ) ) ;
#31 = AXIS2_PLACEMENT_3D ( 'NONE', #316, #1042, #669 ) ;
#32 = SPHERICAL_SURFACE ( 'NONE', #976, 0.05000000000000000278 ) ;
#33 = LINE ( 'NONE', #1152, #114 ) ;
#34 = ORIENTED_EDGE ( 'NONE', *, *, #1051, .F. ) ;
#35 = DIRECTION ( 'NONE',  ( 0.0000000000000000000, 1.000000000000000000, -0.0000000000000000000 ) ) ;
#36 = ORIENTED_EDGE ( 'NONE', *, *, #97, .F. ) ;
#37 = ADVANCED_FACE ( 'NONE', ( #553 ), #679, .T. ) ;
#38 = DIRECTION ( 'NONE',  ( 4.336808689942015369E-15, -1.000000000000000000, 0.0000000000000000000 ) ) ;
#39 = AXIS2_PLACEMENT_3D ( 'NONE', #1003, #377, #909 ) ;
#40 =( GEOMETRIC_REPRESENTATION_CONTEXT ( 3 ) GLOBAL_UNCERTAINTY_ASSIGNED_CONTEXT ( ( #119 ) ) GLOBAL_UNIT_ASSIGNED_CONTEXT ( ( #593, #855, #391 ) ) REPRESENTATION_CONTEXT ( 'NONE', 'WORKASPACE' ) );
#41 = VERTEX_POINT ( 'NONE', #689 ) ;
#42 = DIRECTION ( 'NONE',  ( 0.0000000000000000000, 0.0000000000000000000, 1.000000000000000000 ) ) ;
#43 = ORIENTED_EDGE ( 'NONE', *, *, #265, .T. ) ;
#44 = EDGE_CURVE ( 'NONE', #387, #1126, #1153, .T. ) ;
#45 = CARTESIAN_POINT ( 'NONE',  ( 1.600000000000000089, 0.0000000000000000000, -0.7999999999999999334 ) ) ;
#46 = ORIENTED_EDGE ( 'NONE', *, *, #53, .T. ) ;
#47 = FILL_AREA_STYLE ('',( #769 ) ) ;
#48 = ORIENTED_EDGE ( 'NONE', *, *, #411, .F. ) ;
#49 = SURFACE_SIDE_STYLE ('',( #858 ) ) ;
#50 =( GEOMETRIC_REPRESENTATION_CONTEXT ( 3 ) GLOBAL_UNCERTAINTY_ASSIGNED_CONTEXT ( ( #1172 ) ) GLOBAL_UNIT_ASSIGNED_CONTEXT ( ( #659, #928, #788 ) ) REPRESENTATION_CONTEXT ( 'NONE', 'WORKASPACE' ) );
#51 = STYLED_ITEM ( 'NONE', ( #1154 ), #491 ) ;
#52 = CARTESIAN_POINT ( 'NONE',  ( -1.600000000000000533, 0.05000000000000002359, -0.7499999999999998890 ) ) ;
#53 = EDGE_CURVE ( 'NONE', #905, #851, #331, .T. ) ;
#54 = LINE ( 'NONE', #1140, #465 ) ;
#55 = ORIENTED_EDGE ( 'NONE', *, *, #411, .T. ) ;
#56 = CARTESIAN_POINT ( 'NONE',  ( 1.150000000000000355, 0.6999999999999999556, -0.7499999999999998890 ) ) ;
#57 = SHAPE_DEFINITION_REPRESENTATION ( #970, #1026 ) ;
#58 = AXIS2_PLACEMENT_3D ( 'NONE', #576, #1039, #511 ) ;
#59 = VECTOR ( 'NONE', #500, 1000.000000000000000 ) ;
#60 = CARTESIAN_POINT ( 'NONE',  ( -1.600000000000000533, 0.05000000000000002359, 0.7500000000000001110 ) ) ;
#61 = DIRECTION ( 'NONE',  ( 1.000000000000000000, 0.0000000000000000000, -0.0000000000000000000 ) ) ;
#62 = AXIS2_PLACEMENT_3D ( 'NONE', #116, #918, #194 ) ;
#63 =( NAMED_UNIT ( * ) PLANE_ANGLE_UNIT ( ) SI_UNIT ( $, .RADIAN. ) );
#64 = ORIENTED_EDGE ( 'NONE', *, *, #381, .F. ) ;
#65 = ADVANCED_FACE ( 'NONE', ( #1054 ), #235, .T. ) ;
#66 = CARTESIAN_POINT ( 'NONE',  ( 1.550000000000000044, 0.0000000000000000000, 0.7500000000000001110 ) ) ;
#67 = DIRECTION ( 'NONE',  ( 0.0000000000000000000, -1.000000000000000000, 0.0000000000000000000 ) ) ;
#68 = CARTESIAN_POINT ( 'NONE',  ( -1.600000000000000533, 0.05000000000000002359, 0.7500000000000001110 ) ) ;
#69 = DIRECTION ( 'NONE',  ( 1.000000000000000000, -0.0000000000000000000, -0.0000000000000000000 ) ) ;
#70 = ORIENTED_EDGE ( 'NONE', *, *, #840, .F. ) ;
#71 = LINE ( 'NONE', #1077, #644 ) ;
#72 = FACE_OUTER_BOUND ( 'NONE', #1027, .T. ) ;
#73 = AXIS2_PLACEMENT_3D ( 'NONE', #846, #35, #192 ) ;
#74 =( NAMED_UNIT ( * ) SI_UNIT ( $, .STERADIAN. ) SOLID_ANGLE_UNIT ( ) );
#75 = ORIENTED_EDGE ( 'NONE', *, *, #830, .T. ) ;
#76 = EDGE_CURVE ( 'NONE', #259, #248, #956, .T. ) ;
#77 =( NAMED_UNIT ( * ) SI_UNIT ( $, .STERADIAN. ) SOLID_ANGLE_UNIT ( ) );
#78 = DIRECTION ( 'NONE',  ( -4.336808689942015369E-15, 0.0000000000000000000, 1.000000000000000000 ) ) ;
#79 = ORIENTED_EDGE ( 'NONE', *, *, #953, .T. ) ;
#80 = COLOUR_RGB ( '',0.2509803921568627416, 0.2509803921568627416, 0.2509803921568627416 ) ;
#81 = FILL_AREA_STYLE_COLOUR ( '', #136 ) ;
#82 = EDGE_CURVE ( 'NONE', #1031, #248, #598, .T. ) ;
#83 = CARTESIAN_POINT ( 'NONE',  ( -1.550000000000000488, 0.05000000000000000278, 0.7500000000000001110 ) ) ;
#84 = ORIENTED_EDGE ( 'NONE', *, *, #166, .F. ) ;
#85 =( LENGTH_UNIT ( ) NAMED_UNIT ( * ) SI_UNIT ( .MILLI., .METRE. ) );
#86 = DIRECTION ( 'NONE',  ( -1.000000000000000000, 0.0000000000000000000, 0.0000000000000000000 ) ) ;
#87 = FILL_AREA_STYLE_COLOUR ( '', #983 ) ;
#88 = ORIENTED_EDGE ( 'NONE', *, *, #766, .T. ) ;
#89 =( GEOMETRIC_REPRESENTATION_CONTEXT ( 3 ) GLOBAL_UNCERTAINTY_ASSIGNED_CONTEXT ( ( #980 ) ) GLOBAL_UNIT_ASSIGNED_CONTEXT ( ( #968, #866, #479 ) ) REPRESENTATION_CONTEXT ( 'NONE', 'WORKASPACE' ) );
#90 = ADVANCED_FACE ( 'NONE', ( #72 ), #779, .T. ) ;
#91 = DIRECTION ( 'NONE',  ( 0.0000000000000000000, 0.0000000000000000000, -1.000000000000000000 ) ) ;
#92 = DIRECTION ( 'NONE',  ( 0.0000000000000000000, -0.0000000000000000000, -1.000000000000000000 ) ) ;
#93 = CARTESIAN_POINT ( 'NONE',  ( 1.600000000000000089, 0.6500000000000000222, 0.7500000000000002220 ) ) ;
#94 = EDGE_LOOP ( 'NONE', ( #753, #739, #435, #421 ) ) ;
#95 = CARTESIAN_POINT ( 'NONE',  ( 1.599999999999999867, 0.05000000000000002359, 0.7500000000000001110 ) ) ;
#96 = VECTOR ( 'NONE', #927, 1000.000000000000000 ) ;
#97 = EDGE_CURVE ( 'NONE', #451, #1182, #515, .T. ) ;
#98 = AXIS2_PLACEMENT_3D ( 'NONE', #1013, #1097, #640 ) ;
#99 = DIRECTION ( 'NONE',  ( 0.0000000000000000000, 0.0000000000000000000, 1.000000000000000000 ) ) ;
#100 = VERTEX_POINT ( 'NONE', #1159 ) ;
#101 = CARTESIAN_POINT ( 'NONE',  ( 1.550000000000000044, 0.6999999999999999556, -0.7499999999999998890 ) ) ;
#102 = DIRECTION ( 'NONE',  ( -0.0000000000000000000, 2.168404344971008079E-15, -1.000000000000000000 ) ) ;
#103 = DIRECTION ( 'NONE',  ( 0.0000000000000000000, 0.0000000000000000000, -1.000000000000000000 ) ) ;
#104 = ORIENTED_EDGE ( 'NONE', *, *, #402, .F. ) ;
#105 = LINE ( 'NONE', #466, #994 ) ;
#106 = ORIENTED_EDGE ( 'NONE', *, *, #883, .T. ) ;
#107 = VECTOR ( 'NONE', #1112, 1000.000000000000000 ) ;
#108 = VECTOR ( 'NONE', #649, 1000.000000000000000 ) ;
#109 = ADVANCED_FACE ( 'NONE', ( #419 ), #1145, .F. ) ;
#110 = PLANE ( 'NONE',  #965 ) ;
#111 = ORIENTED_EDGE ( 'NONE', *, *, #469, .F. ) ;
#112 = CARTESIAN_POINT ( 'NONE',  ( -1.550000000000000711, 0.6999999999999999556, 0.7500000000000002220 ) ) ;
#113 = VECTOR ( 'NONE', #185, 1000.000000000000000 ) ;
#114 = VECTOR ( 'NONE', #514, 1000.000000000000000 ) ;
#115 = STYLED_ITEM ( 'NONE', ( #1123 ), #1026 ) ;
#116 = CARTESIAN_POINT ( 'NONE',  ( -1.550000000000000488, 0.6500000000000000222, -0.7499999999999998890 ) ) ;
#117 = EDGE_CURVE ( 'NONE', #457, #1126, #750, .T. ) ;
#118 = DIRECTION ( 'NONE',  ( 1.000000000000000000, 0.0000000000000000000, -0.0000000000000000000 ) ) ;
#119 = UNCERTAINTY_MEASURE_WITH_UNIT (LENGTH_MEASURE( 1.000000000000000082E-05 ), #593, 'distance_accuracy_value', 'NONE');
#120 = SURFACE_STYLE_USAGE ( .BOTH. , #1016 ) ;
#121 = CARTESIAN_POINT ( 'NONE',  ( -1.600000000000000533, 0.6500000000000000222, 0.8000000000000001554 ) ) ;
#122 = ORIENTED_EDGE ( 'NONE', *, *, #877, .F. ) ;
#123 = DIRECTION ( 'NONE',  ( 1.000000000000000000, 0.0000000000000000000, 0.0000000000000000000 ) ) ;
#124 = DIRECTION ( 'NONE',  ( -1.000000000000000000, 0.0000000000000000000, -0.0000000000000000000 ) ) ;
#125 = ORIENTED_EDGE ( 'NONE', *, *, #972, .F. ) ;
#126 = ADVANCED_FACE ( 'NONE', ( #1142 ), #472, .T. ) ;
#127 = CIRCLE ( 'NONE', #533, 0.05000000000000002359 ) ;
#128 = CYLINDRICAL_SURFACE ( 'NONE', #148, 0.04999999999999991257 ) ;
#129 = FILL_AREA_STYLE_COLOUR ( '', #522 ) ;
#130 = FACE_OUTER_BOUND ( 'NONE', #405, .T. ) ;
#131 = DIRECTION ( 'NONE',  ( 0.0000000000000000000, 0.0000000000000000000, -1.000000000000000000 ) ) ;
#132 = EDGE_LOOP ( 'NONE', ( #1133, #55, #1094, #790 ) ) ;
#133 = EDGE_CURVE ( 'NONE', #744, #451, #168, .T. ) ;
#134 = FACE_OUTER_BOUND ( 'NONE', #1100, .T. ) ;
#135 = DIRECTION ( 'NONE',  ( 0.0000000000000000000, 0.0000000000000000000, 1.000000000000000000 ) ) ;
#136 = COLOUR_RGB ( '',0.2509803921568627416, 0.2509803921568627416, 0.2509803921568627416 ) ;
#137 = CARTESIAN_POINT ( 'NONE',  ( -1.550000000000000488, 0.05000000000000000278, 0.7500000000000001110 ) ) ;
#138 = ORIENTED_EDGE ( 'NONE', *, *, #907, .F. ) ;
#139 = CARTESIAN_POINT ( 'NONE',  ( -1.600000000000000533, 0.05000000000000002359, 0.7500000000000001110 ) ) ;
#140 = ORIENTED_EDGE ( 'NONE', *, *, #740, .T. ) ;
#141 = DIRECTION ( 'NONE',  ( -1.000000000000000000, 0.0000000000000000000, -0.0000000000000000000 ) ) ;
#142 =( LENGTH_UNIT ( ) NAMED_UNIT ( * ) SI_UNIT ( .MILLI., .METRE. ) );
#143 = EDGE_CURVE ( 'NONE', #1031, #770, #947, .T. ) ;
#144 = CARTESIAN_POINT ( 'NONE',  ( -1.600000000000000533, 0.6500000000000000222, 0.7500000000000001110 ) ) ;
#145 = DIRECTION ( 'NONE',  ( 0.0000000000000000000, -0.0000000000000000000, -1.000000000000000000 ) ) ;
#146 = ORIENTED_EDGE ( 'NONE', *, *, #82, .T. ) ;
#147 = DIRECTION ( 'NONE',  ( 0.0000000000000000000, 0.0000000000000000000, -1.000000000000000000 ) ) ;
#148 = AXIS2_PLACEMENT_3D ( 'NONE', #485, #849, #938 ) ;
#149 = AXIS2_PLACEMENT_3D ( 'NONE', #752, #124, #570 ) ;
#150 = CARTESIAN_POINT ( 'NONE',  ( -1.150000000000000355, 0.6999999999999999556, -0.7999999999999999334 ) ) ;
#151 = EDGE_CURVE ( 'NONE', #744, #937, #226, .T. ) ;
#152 = CARTESIAN_POINT ( 'NONE',  ( -1.550000000000000488, 0.6999999999999999556, -0.7999999999999999334 ) ) ;
#153 =( LENGTH_UNIT ( ) NAMED_UNIT ( * ) SI_UNIT ( .MILLI., .METRE. ) );
#154 = PRODUCT ( 'User Library-Chip Resistor2', 'User Library-Chip Resistor2', '', ( #227 ) ) ;
#155 = ORIENTED_EDGE ( 'NONE', *, *, #665, .T. ) ;
#156 = CIRCLE ( 'NONE', #302, 0.05000000000000002359 ) ;
#157 = FILL_AREA_STYLE ('',( #81 ) ) ;
#158 = CARTESIAN_POINT ( 'NONE',  ( 1.550000000000000044, 0.05000000000000000278, 0.7500000000000001110 ) ) ;
#159 = AXIS2_PLACEMENT_3D ( 'NONE', #167, #1174, #437 ) ;
#160 =( LENGTH_UNIT ( ) NAMED_UNIT ( * ) SI_UNIT ( .MILLI., .METRE. ) );
#161 = AXIS2_PLACEMENT_3D ( 'NONE', #939, #396, #135 ) ;
#162 = ORIENTED_EDGE ( 'NONE', *, *, #438, .T. ) ;
#163 =( LENGTH_UNIT ( ) NAMED_UNIT ( * ) SI_UNIT ( .MILLI., .METRE. ) );
#164 = PRESENTATION_STYLE_ASSIGNMENT (( #784 ) ) ;
#165 = ORIENTED_EDGE ( 'NONE', *, *, #1098, .T. ) ;
#166 = EDGE_CURVE ( 'NONE', #526, #224, #1028, .T. ) ;
#167 = CARTESIAN_POINT ( 'NONE',  ( 1.550000000000000044, 0.05000000000000000278, -0.7499999999999998890 ) ) ;
#168 = CIRCLE ( 'NONE', #187, 0.05000000000000002359 ) ;
#169 = VECTOR ( 'NONE', #7, 1000.000000000000000 ) ;
#170 = CARTESIAN_POINT ( 'NONE',  ( -1.550000000000000711, 0.6500000000000000222, -0.7499999999999998890 ) ) ;
#171 = VERTEX_POINT ( 'NONE', #310 ) ;
#172 = EDGE_CURVE ( 'NONE', #224, #910, #686, .T. ) ;
#173 = CARTESIAN_POINT ( 'NONE',  ( 1.150000000000000577, 0.05000000000000002359, -0.7499999999999998890 ) ) ;
#174 = VECTOR ( 'NONE', #969, 1000.000000000000000 ) ;
#175 = DIRECTION ( 'NONE',  ( 1.000000000000000000, 0.0000000000000000000, 0.0000000000000000000 ) ) ;
#176 = ORIENTED_EDGE ( 'NONE', *, *, #198, .T. ) ;
#177 = AXIS2_PLACEMENT_3D ( 'NONE', #455, #368, #749 ) ;
#178 = CYLINDRICAL_SURFACE ( 'NONE', #518, 0.05000000000000002359 ) ;
#179 = LINE ( 'NONE', #808, #1083 ) ;
#180 = ADVANCED_FACE ( 'NONE', ( #238 ), #1134, .T. ) ;
#181 = LINE ( 'NONE', #430, #249 ) ;
#182 = VERTEX_POINT ( 'NONE', #591 ) ;
#183 = DIRECTION ( 'NONE',  ( 0.0000000000000000000, 1.000000000000000000, 0.0000000000000000000 ) ) ;
#184 = EDGE_CURVE ( 'NONE', #387, #627, #127, .T. ) ;
#185 = DIRECTION ( 'NONE',  ( 0.0000000000000000000, 1.000000000000000000, -0.0000000000000000000 ) ) ;
#186 = ORIENTED_EDGE ( 'NONE', *, *, #143, .F. ) ;
#187 = AXIS2_PLACEMENT_3D ( 'NONE', #303, #322, #664 ) ;
#188 = CIRCLE ( 'NONE', #149, 0.05000000000000002359 ) ;
#189 = CARTESIAN_POINT ( 'NONE',  ( 1.600000000000000089, 0.6999999999999999556, 0.7500000000000002220 ) ) ;
#190 = UNCERTAINTY_MEASURE_WITH_UNIT (LENGTH_MEASURE( 1.000000000000000082E-05 ), #1171, 'distance_accuracy_value', 'NONE');
#191 = EDGE_LOOP ( 'NONE', ( #758, #313, #810, #800 ) ) ;
#192 = DIRECTION ( 'NONE',  ( 0.0000000000000000000, 0.0000000000000000000, 1.000000000000000000 ) ) ;
#193 = CIRCLE ( 'NONE', #21, 0.05000000000000002359 ) ;
#194 = DIRECTION ( 'NONE',  ( 1.000000000000000000, 0.0000000000000000000, 0.0000000000000000000 ) ) ;
#195 = CARTESIAN_POINT ( 'NONE',  ( 1.550000000000000044, 0.6500000000000000222, 0.8000000000000001554 ) ) ;
#196 = EDGE_LOOP ( 'NONE', ( #1066, #146, #542 ) ) ;
#197 = LINE ( 'NONE', #217, #1136 ) ;
#198 = EDGE_CURVE ( 'NONE', #371, #1070, #696, .T. ) ;
#199 = CARTESIAN_POINT ( 'NONE',  ( -1.550000000000000488, 0.6500000000000000222, 0.7500000000000001110 ) ) ;
#200 = LINE ( 'NONE', #189, #96 ) ;
#201 = ORIENTED_EDGE ( 'NONE', *, *, #9, .F. ) ;
#202 = CYLINDRICAL_SURFACE ( 'NONE', #977, 0.05000000000000002359 ) ;
#203 = AXIS2_PLACEMENT_3D ( 'NONE', #410, #61, #961 ) ;
#204 = CIRCLE ( 'NONE', #444, 0.05000000000000002359 ) ;
#205 = ADVANCED_FACE ( 'NONE', ( #925 ), #32, .T. ) ;
#206 = DIRECTION ( 'NONE',  ( 0.0000000000000000000, -1.000000000000000000, 0.0000000000000000000 ) ) ;
#207 = CARTESIAN_POINT ( 'NONE',  ( -1.550000000000000488, 0.05000000000000000278, -0.7499999999999998890 ) ) ;
#208 = PRESENTATION_STYLE_ASSIGNMENT (( #120 ) ) ;
#209 = DIRECTION ( 'NONE',  ( 0.0000000000000000000, 0.0000000000000000000, -1.000000000000000000 ) ) ;
#210 = ORIENTED_EDGE ( 'NONE', *, *, #426, .F. ) ;
#211 = MECHANICAL_DESIGN_GEOMETRIC_PRESENTATION_REPRESENTATION (  '', ( #719 ), #40 ) ;
#212 = AXIS2_PLACEMENT_3D ( 'NONE', #967, #528, #86 ) ;
#213 = DIRECTION ( 'NONE',  ( -0.0000000000000000000, -0.0000000000000000000, -1.000000000000000000 ) ) ;
#214 = CARTESIAN_POINT ( 'NONE',  ( 1.550000000000000044, 0.6500000000000000222, 0.7500000000000001110 ) ) ;
#215 = ADVANCED_FACE ( 'NONE', ( #572 ), #128, .T. ) ;
#216 = ORIENTED_EDGE ( 'NONE', *, *, #340, .T. ) ;
#217 = CARTESIAN_POINT ( 'NONE',  ( 1.600000000000000089, 0.0000000000000000000, -0.7499999999999998890 ) ) ;
#218 = ORIENTED_EDGE ( 'NONE', *, *, #143, .T. ) ;
#219 = DIRECTION ( 'NONE',  ( 0.0000000000000000000, 0.0000000000000000000, -1.000000000000000000 ) ) ;
#220 = PLANE ( 'NONE',  #797 ) ;
#221 = ORIENTED_EDGE ( 'NONE', *, *, #804, .F. ) ;
#222 = ADVANCED_FACE ( 'NONE', ( #134 ), #677, .T. ) ;
#223 = CARTESIAN_POINT ( 'NONE',  ( 1.550000000000000044, 0.05000000000000002359, 0.7500000000000001110 ) ) ;
#224 = VERTEX_POINT ( 'NONE', #600 ) ;
#225 = AXIS2_PLACEMENT_3D ( 'NONE', #400, #588, #1033 ) ;
#226 = LINE ( 'NONE', #1127, #634 ) ;
#227 = PRODUCT_CONTEXT ( 'NONE', #276, 'mechanical' ) ;
#228 = DIRECTION ( 'NONE',  ( -2.710505431213761085E-16, 0.0000000000000000000, -1.000000000000000000 ) ) ;
#229 = VERTEX_POINT ( 'NONE', #982 ) ;
#230 = CARTESIAN_POINT ( 'NONE',  ( -1.550000000000000488, 0.6500000000000000222, -0.7499999999999998890 ) ) ;
#231 = ORIENTED_EDGE ( 'NONE', *, *, #1115, .F. ) ;
#232 = CIRCLE ( 'NONE', #641, 0.05000000000000002359 ) ;
#233 = CIRCLE ( 'NONE', #417, 0.05000000000000002359 ) ;
#234 = LINE ( 'NONE', #150, #871 ) ;
#235 = CYLINDRICAL_SURFACE ( 'NONE', #1035, 0.05000000000000002359 ) ;
#236 = VERTEX_POINT ( 'NONE', #56 ) ;
#237 = ADVANCED_FACE ( 'NONE', ( #441 ), #415, .F. ) ;
#238 = FACE_OUTER_BOUND ( 'NONE', #1010, .T. ) ;
#239 = APPLICATION_PROTOCOL_DEFINITION ( 'draft international standard', 'automotive_design', 1998, #276 ) ;
#240 = CARTESIAN_POINT ( 'NONE',  ( 1.150000000000001021, 0.05000000000000002359, 0.7500000000000001110 ) ) ;
#241 = DIRECTION ( 'NONE',  ( 0.0000000000000000000, 0.0000000000000000000, 1.000000000000000000 ) ) ;
#242 = ORIENTED_EDGE ( 'NONE', *, *, #972, .T. ) ;
#243 = AXIS2_PLACEMENT_3D ( 'NONE', #382, #764, #841 ) ;
#244 = VECTOR ( 'NONE', #563, 1000.000000000000000 ) ;
#245 = LINE ( 'NONE', #306, #543 ) ;
#246 = CARTESIAN_POINT ( 'NONE',  ( 1.600000000000000089, 0.6999999999999999556, 0.7500000000000002220 ) ) ;
#247 = DIRECTION ( 'NONE',  ( 1.000000000000000000, 0.0000000000000000000, 0.0000000000000000000 ) ) ;
#248 = VERTEX_POINT ( 'NONE', #66 ) ;
#249 = VECTOR ( 'NONE', #516, 1000.000000000000000 ) ;
#250 = ADVANCED_FACE ( 'NONE', ( #260 ), #959, .T. ) ;
#251 = DIRECTION ( 'NONE',  ( 1.000000000000000000, 0.0000000000000000000, 0.0000000000000000000 ) ) ;
#252 = ORIENTED_EDGE ( 'NONE', *, *, #650, .F. ) ;
#253 = LINE ( 'NONE', #1071, #1067 ) ;
#254 = FACE_OUTER_BOUND ( 'NONE', #517, .T. ) ;
#255 = VERTEX_POINT ( 'NONE', #783 ) ;
#256 = EDGE_CURVE ( 'NONE', #666, #229, #811, .T. ) ;
#257 = SPHERICAL_SURFACE ( 'NONE', #375, 0.05000000000000000278 ) ;
#258 = VECTOR ( 'NONE', #661, 1000.000000000000000 ) ;
#259 = VERTEX_POINT ( 'NONE', #95 ) ;
#260 = FACE_OUTER_BOUND ( 'NONE', #1173, .T. ) ;
#261 = EDGE_CURVE ( 'NONE', #1018, #371, #864, .T. ) ;
#262 = LINE ( 'NONE', #986, #395 ) ;
#263 = ORIENTED_EDGE ( 'NONE', *, *, #672, .T. ) ;
#264 = DIRECTION ( 'NONE',  ( 0.0000000000000000000, 0.0000000000000000000, -1.000000000000000000 ) ) ;
#265 = EDGE_CURVE ( 'NONE', #1018, #1070, #636, .T. ) ;
#266 = SURFACE_SIDE_STYLE ('',( #1157 ) ) ;
#267 = SURFACE_STYLE_FILL_AREA ( #879 ) ;
#268 = ORIENTED_EDGE ( 'NONE', *, *, #151, .F. ) ;
#269 = DIRECTION ( 'NONE',  ( 0.0000000000000000000, 0.0000000000000000000, -1.000000000000000000 ) ) ;
#270 = CARTESIAN_POINT ( 'NONE',  ( -1.550000000000000488, 0.6500000000000000222, 0.8000000000000001554 ) ) ;
#271 = PRESENTATION_LAYER_ASSIGNMENT (  '', '', ( #616 ) ) ;
#272 = CARTESIAN_POINT ( 'NONE',  ( 1.599999999999999867, 0.6999999999999999556, 0.8000000000000001554 ) ) ;
#273 = ORIENTED_EDGE ( 'NONE', *, *, #630, .F. ) ;
#274 = COLOUR_RGB ( '',0.7960784313725489669, 0.8235294117647058432, 0.9372549019607843146 ) ;
#275 = PLANE ( 'NONE',  #1096 ) ;
#276 = APPLICATION_CONTEXT ( 'automotive_design' ) ;
#277 = VERTEX_POINT ( 'NONE', #1 ) ;
#278 = CARTESIAN_POINT ( 'NONE',  ( 1.599999999999999867, 0.6500000000000000222, -0.7499999999999998890 ) ) ;
#279 = CARTESIAN_POINT ( 'NONE',  ( 1.550000000000000044, 0.6999999999999999556, -0.7999999999999999334 ) ) ;
#280 = ORIENTED_EDGE ( 'NONE', *, *, #151, .T. ) ;
#281 = EDGE_CURVE ( 'NONE', #41, #987, #711, .T. ) ;
#282 = CYLINDRICAL_SURFACE ( 'NONE', #348, 0.05000000000000002359 ) ;
#283 = ORIENTED_EDGE ( 'NONE', *, *, #867, .T. ) ;
#284 =( GEOMETRIC_REPRESENTATION_CONTEXT ( 3 ) GLOBAL_UNCERTAINTY_ASSIGNED_CONTEXT ( ( #647 ) ) GLOBAL_UNIT_ASSIGNED_CONTEXT ( ( #163, #1163, #77 ) ) REPRESENTATION_CONTEXT ( 'NONE', 'WORKASPACE' ) );
#285 = CARTESIAN_POINT ( 'NONE',  ( -1.550000000000000488, 0.6500000000000000222, -0.7500000000000000000 ) ) ;
#286 = CARTESIAN_POINT ( 'NONE',  ( -1.600000000000000533, 0.6999999999999999556, -0.7999999999999999334 ) ) ;
#287 = ORIENTED_EDGE ( 'NONE', *, *, #529, .F. ) ;
#288 = CARTESIAN_POINT ( 'NONE',  ( -1.150000000000000355, 0.6999999999999999556, 0.8000000000000001554 ) ) ;
#289 = EDGE_CURVE ( 'NONE', #854, #425, #988, .T. ) ;
#290 = DIRECTION ( 'NONE',  ( 1.000000000000000000, 0.0000000000000000000, -0.0000000000000000000 ) ) ;
#291 = FACE_OUTER_BOUND ( 'NONE', #727, .T. ) ;
#292 = ORIENTED_EDGE ( 'NONE', *, *, #557, .F. ) ;
#293 = SURFACE_STYLE_USAGE ( .BOTH. , #1025 ) ;
#294 = ORIENTED_EDGE ( 'NONE', *, *, #921, .T. ) ;
#295 = CIRCLE ( 'NONE', #534, 0.05000000000000002359 ) ;
#296 = ADVANCED_FACE ( 'NONE', ( #357 ), #178, .T. ) ;
#297 = FACE_OUTER_BOUND ( 'NONE', #307, .T. ) ;
#298 = CARTESIAN_POINT ( 'NONE',  ( 1.150000000000000355, 0.6999999999999999556, -0.7999999999999998224 ) ) ;
#299 = ORIENTED_EDGE ( 'NONE', *, *, #362, .F. ) ;
#300 = PLANE ( 'NONE',  #791 ) ;
#301 = ORIENTED_EDGE ( 'NONE', *, *, #592, .F. ) ;
#302 = AXIS2_PLACEMENT_3D ( 'NONE', #715, #530, #809 ) ;
#303 = CARTESIAN_POINT ( 'NONE',  ( -1.550000000000000488, 0.05000000000000002359, -0.7500000000000000000 ) ) ;
#304 = CARTESIAN_POINT ( 'NONE',  ( -1.550000000000000488, 0.6500000000000000222, -0.7999999999999999334 ) ) ;
#305 = ADVANCED_FACE ( 'NONE', ( #891 ), #350, .T. ) ;
#306 = CARTESIAN_POINT ( 'NONE',  ( 1.150000000000000355, 0.0000000000000000000, -0.7999999999999998224 ) ) ;
#307 = EDGE_LOOP ( 'NONE', ( #735, #1050, #709 ) ) ;
#308 = CARTESIAN_POINT ( 'NONE',  ( -1.550000000000000711, 0.6999999999999999556, -0.7999999999999999334 ) ) ;
#309 = ORIENTED_EDGE ( 'NONE', *, *, #946, .T. ) ;
#310 = CARTESIAN_POINT ( 'NONE',  ( 1.150000000000000577, 0.6500000000000000222, -0.7999999999999999334 ) ) ;
#311 = EDGE_LOOP ( 'NONE', ( #210, #643, #125, #273 ) ) ;
#312 = DIRECTION ( 'NONE',  ( 0.0000000000000000000, 0.0000000000000000000, -1.000000000000000000 ) ) ;
#313 = ORIENTED_EDGE ( 'NONE', *, *, #557, .T. ) ;
#314 = AXIS2_PLACEMENT_3D ( 'NONE', #656, #566, #580 ) ;
#315 = VECTOR ( 'NONE', #420, 1000.000000000000000 ) ;
#316 = CARTESIAN_POINT ( 'NONE',  ( -1.550000000000000488, 0.6999999999999999556, -0.7500000000000000000 ) ) ;
#317 = DIRECTION ( 'NONE',  ( 0.0000000000000000000, 0.0000000000000000000, -1.000000000000000000 ) ) ;
#318 = ORIENTED_EDGE ( 'NONE', *, *, #351, .T. ) ;
#319 = EDGE_LOOP ( 'NONE', ( #446, #975, #681, #165 ) ) ;
#320 = EDGE_CURVE ( 'NONE', #171, #236, #204, .T. ) ;
#321 = AXIS2_PLACEMENT_3D ( 'NONE', #170, #721, #78 ) ;
#322 = DIRECTION ( 'NONE',  ( -0.0000000000000000000, -1.000000000000000000, -0.0000000000000000000 ) ) ;
#323 = DIRECTION ( 'NONE',  ( 1.000000000000000000, 0.0000000000000000000, 0.0000000000000000000 ) ) ;
#324 = AXIS2_PLACEMENT_3D ( 'NONE', #827, #539, #1104 ) ;
#325 = DIRECTION ( 'NONE',  ( 0.0000000000000000000, 0.0000000000000000000, 1.000000000000000000 ) ) ;
#326 = SURFACE_STYLE_FILL_AREA ( #1065 ) ;
#327 = ORIENTED_EDGE ( 'NONE', *, *, #823, .T. ) ;
#328 = ADVANCED_FACE ( 'NONE', ( #1093 ), #275, .T. ) ;
#329 = DIRECTION ( 'NONE',  ( -0.0000000000000000000, -0.0000000000000000000, -1.000000000000000000 ) ) ;
#330 = DIRECTION ( 'NONE',  ( 0.0000000000000000000, -1.000000000000000000, 0.0000000000000000000 ) ) ;
#331 = LINE ( 'NONE', #246, #1160 ) ;
#332 = DIRECTION ( 'NONE',  ( -1.000000000000000000, 0.0000000000000000000, 0.0000000000000000000 ) ) ;
#333 = ORIENTED_EDGE ( 'NONE', *, *, #281, .F. ) ;
#334 = EDGE_CURVE ( 'NONE', #1126, #1062, #458, .T. ) ;
#335 = AXIS2_PLACEMENT_3D ( 'NONE', #1088, #628, #805 ) ;
#336 = ORIENTED_EDGE ( 'NONE', *, *, #1177, .T. ) ;
#337 =( GEOMETRIC_REPRESENTATION_CONTEXT ( 3 ) GLOBAL_UNCERTAINTY_ASSIGNED_CONTEXT ( ( #525 ) ) GLOBAL_UNIT_ASSIGNED_CONTEXT ( ( #160, #404, #774 ) ) REPRESENTATION_CONTEXT ( 'NONE', 'WORKASPACE' ) );
#338 = VECTOR ( 'NONE', #815, 1000.000000000000000 ) ;
#339 = DIRECTION ( 'NONE',  ( 0.0000000000000000000, -1.000000000000000000, 0.0000000000000000000 ) ) ;
#340 = EDGE_CURVE ( 'NONE', #277, #374, #26, .T. ) ;
#341 = ORIENTED_EDGE ( 'NONE', *, *, #537, .F. ) ;
#342 = DIRECTION ( 'NONE',  ( -0.0000000000000000000, -0.0000000000000000000, 1.000000000000000000 ) ) ;
#343 = CARTESIAN_POINT ( 'NONE',  ( 1.550000000000000044, 0.05000000000000002359, 0.8000000000000001554 ) ) ;
#344 = EDGE_LOOP ( 'NONE', ( #104, #242, #380, #355 ) ) ;
#345 = DIRECTION ( 'NONE',  ( -1.000000000000000000, 0.0000000000000000000, 0.0000000000000000000 ) ) ;
#346 = CARTESIAN_POINT ( 'NONE',  ( 1.550000000000000044, 0.6500000000000000222, -0.7499999999999998890 ) ) ;
#347 = PRESENTATION_LAYER_ASSIGNMENT (  '', '', ( #443 ) ) ;
#348 = AXIS2_PLACEMENT_3D ( 'NONE', #734, #923, #29 ) ;
#349 = ORIENTED_EDGE ( 'NONE', *, *, #998, .F. ) ;
#350 = CYLINDRICAL_SURFACE ( 'NONE', #654, 0.05000000000000002359 ) ;
#351 = EDGE_CURVE ( 'NONE', #770, #885, #731, .T. ) ;
#352 = CARTESIAN_POINT ( 'NONE',  ( -1.550000000000000488, 0.05000000000000002359, 0.8000000000000001554 ) ) ;
#353 = AXIS2_PLACEMENT_3D ( 'NONE', #412, #789, #861 ) ;
#354 = DIRECTION ( 'NONE',  ( 0.0000000000000000000, 0.0000000000000000000, -1.000000000000000000 ) ) ;
#355 = ORIENTED_EDGE ( 'NONE', *, *, #672, .F. ) ;
#356 = AXIS2_PLACEMENT_3D ( 'NONE', #199, #913, #1118 ) ;
#357 = FACE_OUTER_BOUND ( 'NONE', #344, .T. ) ;
#358 =( NAMED_UNIT ( * ) SI_UNIT ( $, .STERADIAN. ) SOLID_ANGLE_UNIT ( ) );
#359 = CARTESIAN_POINT ( 'NONE',  ( -1.600000000000000533, 0.6500000000000000222, -0.7999999999999999334 ) ) ;
#360 = ORIENTED_EDGE ( 'NONE', *, *, #117, .F. ) ;
#361 = DIRECTION ( 'NONE',  ( 1.000000000000000000, -0.0000000000000000000, -2.710505431213761085E-16 ) ) ;
#362 = EDGE_CURVE ( 'NONE', #987, #387, #1101, .T. ) ;
#363 = VECTOR ( 'NONE', #748, 1000.000000000000000 ) ;
#364 = PLANE ( 'NONE',  #683 ) ;
#365 = EDGE_LOOP ( 'NONE', ( #895, #668, #1102, #336 ) ) ;
#366 = CARTESIAN_POINT ( 'NONE',  ( -1.150000000000000355, 0.6500000000000000222, 0.8000000000000001554 ) ) ;
#367 = PRESENTATION_LAYER_ASSIGNMENT (  '', '', ( #51 ) ) ;
#368 = DIRECTION ( 'NONE',  ( -1.000000000000000000, 0.0000000000000000000, -0.0000000000000000000 ) ) ;
#369 = EDGE_CURVE ( 'NONE', #854, #1126, #1014, .T. ) ;
#370 = FACE_OUTER_BOUND ( 'NONE', #820, .T. ) ;
#371 = VERTEX_POINT ( 'NONE', #101 ) ;
#372 = DIRECTION ( 'NONE',  ( 0.0000000000000000000, 0.0000000000000000000, 1.000000000000000000 ) ) ;
#373 = VECTOR ( 'NONE', #920, 1000.000000000000000 ) ;
#374 = VERTEX_POINT ( 'NONE', #929 ) ;
#375 = AXIS2_PLACEMENT_3D ( 'NONE', #346, #442, #714 ) ;
#376 = SURFACE_STYLE_FILL_AREA ( #449 ) ;
#377 = DIRECTION ( 'NONE',  ( -0.0000000000000000000, -0.0000000000000000000, -1.000000000000000000 ) ) ;
#378 = ORIENTED_EDGE ( 'NONE', *, *, #1041, .T. ) ;
#379 = SURFACE_STYLE_FILL_AREA ( #471 ) ;
#380 = ORIENTED_EDGE ( 'NONE', *, *, #946, .F. ) ;
#381 = EDGE_CURVE ( 'NONE', #916, #255, #295, .T. ) ;
#382 = CARTESIAN_POINT ( 'NONE',  ( -1.550000000000000488, 0.05000000000000000278, -0.7499999999999998890 ) ) ;
#383 = CARTESIAN_POINT ( 'NONE',  ( 1.550000000000000044, 0.6500000000000000222, 0.7500000000000001110 ) ) ;
#384 = LINE ( 'NONE', #726, #432 ) ;
#385 = ORIENTED_EDGE ( 'NONE', *, *, #320, .T. ) ;
#386 = DIRECTION ( 'NONE',  ( -1.000000000000000000, 0.0000000000000000000, 0.0000000000000000000 ) ) ;
#387 = VERTEX_POINT ( 'NONE', #366 ) ;
#388 = COLOUR_RGB ( '',0.2509803921568627416, 0.2509803921568627416, 0.2509803921568627416 ) ;
#389 = ADVANCED_FACE ( 'NONE', ( #645 ), #282, .T. ) ;
#390 = CARTESIAN_POINT ( 'NONE',  ( 1.550000000000000044, 0.05000000000000000278, 0.7500000000000001110 ) ) ;
#391 =( NAMED_UNIT ( * ) SI_UNIT ( $, .STERADIAN. ) SOLID_ANGLE_UNIT ( ) );
#392 = DIRECTION ( 'NONE',  ( 1.000000000000000000, -0.0000000000000000000, -0.0000000000000000000 ) ) ;
#393 = ORIENTED_EDGE ( 'NONE', *, *, #602, .T. ) ;
#394 = CIRCLE ( 'NONE', #39, 0.04999999999999991257 ) ;
#395 = VECTOR ( 'NONE', #342, 1000.000000000000000 ) ;
#396 = DIRECTION ( 'NONE',  ( 1.000000000000000000, 0.0000000000000000000, 0.0000000000000000000 ) ) ;
#397 = FILL_AREA_STYLE ('',( #129 ) ) ;
#398 = EDGE_LOOP ( 'NONE', ( #722, #299, #880, #991 ) ) ;
#399 = VERTEX_POINT ( 'NONE', #1005 ) ;
#400 = CARTESIAN_POINT ( 'NONE',  ( -1.600000000000000533, 0.6999999999999999556, 0.8000000000000001554 ) ) ;
#401 = DIRECTION ( 'NONE',  ( 0.0000000000000000000, -1.000000000000000000, 0.0000000000000000000 ) ) ;
#402 = EDGE_CURVE ( 'NONE', #100, #399, #197, .T. ) ;
#403 = ORIENTED_EDGE ( 'NONE', *, *, #921, .F. ) ;
#404 =( NAMED_UNIT ( * ) PLANE_ANGLE_UNIT ( ) SI_UNIT ( $, .RADIAN. ) );
#405 = EDGE_LOOP ( 'NONE', ( #971, #46, #75, #575 ) ) ;
#406 = PRESENTATION_LAYER_ASSIGNMENT (  '', '', ( #845 ) ) ;
#407 = SURFACE_STYLE_USAGE ( .BOTH. , #49 ) ;
#408 = DIRECTION ( 'NONE',  ( -0.0000000000000000000, -1.000000000000000000, 0.0000000000000000000 ) ) ;
#409 = FACE_OUTER_BOUND ( 'NONE', #459, .T. ) ;
#410 = CARTESIAN_POINT ( 'NONE',  ( 1.550000000000000044, 0.05000000000000002359, 0.7500000000000001110 ) ) ;
#411 = EDGE_CURVE ( 'NONE', #1114, #17, #1011, .T. ) ;
#412 = CARTESIAN_POINT ( 'NONE',  ( 1.600000000000000089, 0.6500000000000000222, -0.7499999999999998890 ) ) ;
#413 = ORIENTED_EDGE ( 'NONE', *, *, #281, .T. ) ;
#414 = AXIS2_PLACEMENT_3D ( 'NONE', #1078, #354, #974 ) ;
#415 = PLANE ( 'NONE',  #335 ) ;
#416 =( LENGTH_UNIT ( ) NAMED_UNIT ( * ) SI_UNIT ( .MILLI., .METRE. ) );
#417 = AXIS2_PLACEMENT_3D ( 'NONE', #285, #10, #556 ) ;
#418 = PRESENTATION_STYLE_ASSIGNMENT (( #940 ) ) ;
#419 = FACE_OUTER_BOUND ( 'NONE', #30, .T. ) ;
#420 = DIRECTION ( 'NONE',  ( 0.0000000000000000000, 0.0000000000000000000, 1.000000000000000000 ) ) ;
#421 = ORIENTED_EDGE ( 'NONE', *, *, #117, .T. ) ;
#422 = EDGE_CURVE ( 'NONE', #259, #916, #18, .T. ) ;
#423 = DIRECTION ( 'NONE',  ( -1.000000000000000000, 0.0000000000000000000, 0.0000000000000000000 ) ) ;
#424 = DIRECTION ( 'NONE',  ( 0.0000000000000000000, 0.0000000000000000000, 1.000000000000000000 ) ) ;
#425 = VERTEX_POINT ( 'NONE', #911 ) ;
#426 = EDGE_CURVE ( 'NONE', #229, #910, #188, .T. ) ;
#427 = VECTOR ( 'NONE', #1060, 1000.000000000000000 ) ;
#428 = DIRECTION ( 'NONE',  ( 1.000000000000000000, -0.0000000000000000000, -2.710505431213761085E-16 ) ) ;
#429 = DIRECTION ( 'NONE',  ( -0.0000000000000000000, 1.000000000000000000, -0.0000000000000000000 ) ) ;
#430 = CARTESIAN_POINT ( 'NONE',  ( -1.150000000000000577, 0.6999999999999999556, -0.7999999999999999334 ) ) ;
#431 = EDGE_LOOP ( 'NONE', ( #675, #294, #951, #79 ) ) ;
#432 = VECTOR ( 'NONE', #123, 1000.000000000000000 ) ;
#433 = CIRCLE ( 'NONE', #177, 0.05000000000000002359 ) ;
#434 = FACE_OUTER_BOUND ( 'NONE', #1024, .T. ) ;
#435 = ORIENTED_EDGE ( 'NONE', *, *, #782, .F. ) ;
#436 = CARTESIAN_POINT ( 'NONE',  ( 1.550000000000000044, 0.6500000000000000222, -0.7499999999999998890 ) ) ;
#437 = DIRECTION ( 'NONE',  ( 1.000000000000000000, 0.0000000000000000000, 0.0000000000000000000 ) ) ;
#438 = EDGE_CURVE ( 'NONE', #236, #1114, #105, .T. ) ;
#439 = LINE ( 'NONE', #610, #174 ) ;
#440 = ORIENTED_EDGE ( 'NONE', *, *, #261, .T. ) ;
#441 = FACE_OUTER_BOUND ( 'NONE', #775, .T. ) ;
#442 = DIRECTION ( 'NONE',  ( 0.0000000000000000000, 1.000000000000000000, 0.0000000000000000000 ) ) ;
#443 = STYLED_ITEM ( 'NONE', ( #164 ), #109 ) ;
#444 = AXIS2_PLACEMENT_3D ( 'NONE', #532, #361, #728 ) ;
#445 = CYLINDRICAL_SURFACE ( 'NONE', #2, 0.05000000000000002359 ) ;
#446 = ORIENTED_EDGE ( 'NONE', *, *, #998, .T. ) ;
#447 = MECHANICAL_DESIGN_GEOMETRIC_PRESENTATION_REPRESENTATION (  '', ( #51 ), #337 ) ;
#448 = ADVANCED_FACE ( 'NONE', ( #826 ), #300, .F. ) ;
#449 = FILL_AREA_STYLE ('',( #635 ) ) ;
#450 = LINE ( 'NONE', #990, #113 ) ;
#451 = VERTEX_POINT ( 'NONE', #741 ) ;
#452 = PRESENTATION_LAYER_ASSIGNMENT (  '', '', ( #685 ) ) ;
#453 = CARTESIAN_POINT ( 'NONE',  ( -1.600000000000000533, 0.05000000000000002359, -0.7499999999999998890 ) ) ;
#454 = EDGE_CURVE ( 'NONE', #387, #1056, #1108, .T. ) ;
#455 = CARTESIAN_POINT ( 'NONE',  ( -1.150000000000000355, 0.05000000000000002359, 0.7500000000000001110 ) ) ;
#456 = DIRECTION ( 'NONE',  ( 1.000000000000000000, 0.0000000000000000000, 0.0000000000000000000 ) ) ;
#457 = VERTEX_POINT ( 'NONE', #112 ) ;
#458 = LINE ( 'NONE', #745, #599 ) ;
#459 = EDGE_LOOP ( 'NONE', ( #577, #268, #512, #84 ) ) ;
#460 = MANIFOLD_SOLID_BREP ( 'Split Line3', #1074 ) ;
#461 = ADVANCED_FACE ( 'NONE', ( #584 ), #202, .T. ) ;
#462 = DIRECTION ( 'NONE',  ( -0.0000000000000000000, -0.0000000000000000000, 1.000000000000000000 ) ) ;
#463 = CARTESIAN_POINT ( 'NONE',  ( 1.550000000000000044, 0.6999999999999999556, 0.7500000000000001110 ) ) ;
#464 = ORIENTED_EDGE ( 'NONE', *, *, #1084, .T. ) ;
#465 = VECTOR ( 'NONE', #69, 1000.000000000000000 ) ;
#466 = CARTESIAN_POINT ( 'NONE',  ( 1.600000000000000089, 0.6999999999999999556, -0.7499999999999998890 ) ) ;
#467 = LINE ( 'NONE', #473, #508 ) ;
#468 = LINE ( 'NONE', #279, #759 ) ;
#469 = EDGE_CURVE ( 'NONE', #17, #457, #1055, .T. ) ;
#470 = DIRECTION ( 'NONE',  ( 0.0000000000000000000, 0.0000000000000000000, -1.000000000000000000 ) ) ;
#471 = FILL_AREA_STYLE ('',( #555 ) ) ;
#472 = SPHERICAL_SURFACE ( 'NONE', #243, 0.05000000000000000278 ) ;
#473 = CARTESIAN_POINT ( 'NONE',  ( -1.600000000000000533, 0.6999999999999999556, -0.7500000000000000000 ) ) ;
#474 = CARTESIAN_POINT ( 'NONE',  ( -1.600000000000000533, 0.05000000000000002359, -0.7499999999999998890 ) ) ;
#475 = ORIENTED_EDGE ( 'NONE', *, *, #25, .T. ) ;
#476 = EDGE_CURVE ( 'NONE', #182, #171, #54, .T. ) ;
#477 = CARTESIAN_POINT ( 'NONE',  ( 1.600000000000000089, 0.6999999999999999556, -0.7499999999999998890 ) ) ;
#478 = ORIENTED_EDGE ( 'NONE', *, *, #351, .F. ) ;
#479 =( NAMED_UNIT ( * ) SI_UNIT ( $, .STERADIAN. ) SOLID_ANGLE_UNIT ( ) );
#480 =( NAMED_UNIT ( * ) SI_UNIT ( $, .STERADIAN. ) SOLID_ANGLE_UNIT ( ) );
#481 = CARTESIAN_POINT ( 'NONE',  ( 1.550000000000000044, 0.6999999999999999556, 0.7500000000000002220 ) ) ;
#482 = EDGE_LOOP ( 'NONE', ( #403, #378, #700, #155 ) ) ;
#483 = CARTESIAN_POINT ( 'NONE',  ( 1.550000000000000044, 0.6500000000000000222, 0.7500000000000001110 ) ) ;
#484 = ORIENTED_EDGE ( 'NONE', *, *, #369, .T. ) ;
#485 = CARTESIAN_POINT ( 'NONE',  ( -1.550000000000000711, 0.6500000000000000222, -0.7999999999999999334 ) ) ;
#486 = ORIENTED_EDGE ( 'NONE', *, *, #1058, .F. ) ;
#487 = LINE ( 'NONE', #853, #1020 ) ;
#488 = ORIENTED_EDGE ( 'NONE', *, *, #1084, .F. ) ;
#489 = AXIS2_PLACEMENT_3D ( 'NONE', #694, #247, #312 ) ;
#490 = VECTOR ( 'NONE', #1072, 1000.000000000000000 ) ;
#491 = ADVANCED_FACE ( 'NONE', ( #680 ), #963, .T. ) ;
#492 = FILL_AREA_STYLE_COLOUR ( '', #1135 ) ;
#493 = DIRECTION ( 'NONE',  ( 0.0000000000000000000, 0.0000000000000000000, 1.000000000000000000 ) ) ;
#494 = DIRECTION ( 'NONE',  ( 0.0000000000000000000, -1.000000000000000000, 0.0000000000000000000 ) ) ;
#495 = DIRECTION ( 'NONE',  ( 0.0000000000000000000, -1.000000000000000000, 0.0000000000000000000 ) ) ;
#496 = EDGE_LOOP ( 'NONE', ( #900, #111, #231, #620 ) ) ;
#497 = FILL_AREA_STYLE ('',( #492 ) ) ;
#498 = CARTESIAN_POINT ( 'NONE',  ( -1.600000000000000533, 0.0000000000000000000, 0.7500000000000001110 ) ) ;
#499 = EDGE_CURVE ( 'NONE', #770, #987, #780, .T. ) ;
#500 = DIRECTION ( 'NONE',  ( 1.000000000000000000, 0.0000000000000000000, 0.0000000000000000000 ) ) ;
#501 = DIRECTION ( 'NONE',  ( 0.0000000000000000000, 0.0000000000000000000, -1.000000000000000000 ) ) ;
#502 = EDGE_LOOP ( 'NONE', ( #48, #597, #1079, #648 ) ) ;
#503 = CARTESIAN_POINT ( 'NONE',  ( 1.600000000000000089, 0.0000000000000000000, -0.7999999999999999334 ) ) ;
#504 = SURFACE_STYLE_USAGE ( .BOTH. , #1043 ) ;
#505 = DIRECTION ( 'NONE',  ( 0.0000000000000000000, 1.000000000000000000, -0.0000000000000000000 ) ) ;
#506 = FACE_OUTER_BOUND ( 'NONE', #655, .T. ) ;
#507 = EDGE_LOOP ( 'NONE', ( #8, #263, #64 ) ) ;
#508 = VECTOR ( 'NONE', #408, 1000.000000000000000 ) ;
#509 = DIRECTION ( 'NONE',  ( 0.0000000000000000000, 0.0000000000000000000, -1.000000000000000000 ) ) ;
#510 = DIRECTION ( 'NONE',  ( 1.000000000000000000, 0.0000000000000000000, 0.0000000000000000000 ) ) ;
#511 = DIRECTION ( 'NONE',  ( 1.000000000000000000, 0.0000000000000000000, 2.168404344971012812E-15 ) ) ;
#512 = ORIENTED_EDGE ( 'NONE', *, *, #766, .F. ) ;
#513 = EDGE_CURVE ( 'NONE', #1182, #425, #657, .T. ) ;
#514 = DIRECTION ( 'NONE',  ( -1.000000000000000000, 0.0000000000000000000, 0.0000000000000000000 ) ) ;
#515 = LINE ( 'NONE', #152, #1158 ) ;
#516 = DIRECTION ( 'NONE',  ( 0.0000000000000000000, 0.0000000000000000000, 1.000000000000000000 ) ) ;
#517 = EDGE_LOOP ( 'NONE', ( #464, #520, #1155, #1107 ) ) ;
#518 = AXIS2_PLACEMENT_3D ( 'NONE', #453, #527, #147 ) ;
#519 = DIRECTION ( 'NONE',  ( 0.0000000000000000000, 0.0000000000000000000, 1.000000000000000000 ) ) ;
#520 = ORIENTED_EDGE ( 'NONE', *, *, #962, .F. ) ;
#521 = ADVANCED_FACE ( 'NONE', ( #506 ), #868, .T. ) ;
#522 = COLOUR_RGB ( '',0.2509803921568627416, 0.2509803921568627416, 0.2509803921568627416 ) ;
#523 = MECHANICAL_DESIGN_GEOMETRIC_PRESENTATION_REPRESENTATION (  '', ( #702 ), #284 ) ;
#524 = CARTESIAN_POINT ( 'NONE',  ( -1.150000000000000577, 0.6999999999999999556, 0.7500000000000002220 ) ) ;
#525 = UNCERTAINTY_MEASURE_WITH_UNIT (LENGTH_MEASURE( 1.000000000000000082E-05 ), #160, 'distance_accuracy_value', 'NONE');
#526 = VERTEX_POINT ( 'NONE', #604 ) ;
#527 = DIRECTION ( 'NONE',  ( 1.000000000000000000, 0.0000000000000000000, -0.0000000000000000000 ) ) ;
#528 = DIRECTION ( 'NONE',  ( 0.0000000000000000000, 0.0000000000000000000, -1.000000000000000000 ) ) ;
#529 = EDGE_CURVE ( 'NONE', #854, #457, #1044, .T. ) ;
#530 = DIRECTION ( 'NONE',  ( 1.000000000000000000, 0.0000000000000000000, 0.0000000000000000000 ) ) ;
#531 = ORIENTED_EDGE ( 'NONE', *, *, #798, .T. ) ;
#532 = CARTESIAN_POINT ( 'NONE',  ( 1.150000000000000355, 0.6500000000000000222, -0.7499999999999998890 ) ) ;
#533 = AXIS2_PLACEMENT_3D ( 'NONE', #1117, #141, #219 ) ;
#534 = AXIS2_PLACEMENT_3D ( 'NONE', #544, #906, #209 ) ;
#535 = CYLINDRICAL_SURFACE ( 'NONE', #852, 0.05000000000000002359 ) ;
#536 = EDGE_LOOP ( 'NONE', ( #997, #385, #34, #1141 ) ) ;
#537 = EDGE_CURVE ( 'NONE', #259, #1031, #1000, .T. ) ;
#538 = CARTESIAN_POINT ( 'NONE',  ( -1.600000000000000533, 0.05000000000000002359, -0.7999999999999999334 ) ) ;
#539 = DIRECTION ( 'NONE',  ( 0.0000000000000000000, -1.000000000000000000, 0.0000000000000000000 ) ) ;
#540 = AXIS2_PLACEMENT_3D ( 'NONE', #343, #1069, #708 ) ;
#541 = DIRECTION ( 'NONE',  ( 1.000000000000000000, -0.0000000000000000000, 0.0000000000000000000 ) ) ;
#542 = ORIENTED_EDGE ( 'NONE', *, *, #76, .F. ) ;
#543 = VECTOR ( 'NONE', #228, 1000.000000000000000 ) ;
#544 = CARTESIAN_POINT ( 'NONE',  ( 1.550000000000000044, 0.05000000000000002359, -0.7499999999999998890 ) ) ;
#545 = ORIENTED_EDGE ( 'NONE', *, *, #422, .T. ) ;
#546 = PRODUCT_RELATED_PRODUCT_CATEGORY ( 'part', '', ( #154 ) ) ;
#547 = FACE_OUTER_BOUND ( 'NONE', #768, .T. ) ;
#548 = DIRECTION ( 'NONE',  ( 1.000000000000000000, 0.0000000000000000000, 0.0000000000000000000 ) ) ;
#549 = ORIENTED_EDGE ( 'NONE', *, *, #1156, .F. ) ;
#550 = DIRECTION ( 'NONE',  ( -1.000000000000000000, 0.0000000000000000000, 0.0000000000000000000 ) ) ;
#551 = DIRECTION ( 'NONE',  ( 0.0000000000000000000, 0.0000000000000000000, 1.000000000000000000 ) ) ;
#552 = DIRECTION ( 'NONE',  ( 0.0000000000000000000, 0.0000000000000000000, -1.000000000000000000 ) ) ;
#553 = FACE_OUTER_BOUND ( 'NONE', #311, .T. ) ;
#554 = COLOUR_RGB ( '',0.2509803921568627416, 0.2509803921568627416, 0.2509803921568627416 ) ;
#555 = FILL_AREA_STYLE_COLOUR ( '', #274 ) ;
#556 = DIRECTION ( 'NONE',  ( 0.0000000000000000000, 1.000000000000000000, 2.168404344971007685E-15 ) ) ;
#557 = EDGE_CURVE ( 'NONE', #910, #374, #487, .T. ) ;
#558 = VECTOR ( 'NONE', #1132, 1000.000000000000000 ) ;
#559 = DIRECTION ( 'NONE',  ( 2.168404344971012418E-15, 0.0000000000000000000, -1.000000000000000000 ) ) ;
#560 = UNCERTAINTY_MEASURE_WITH_UNIT (LENGTH_MEASURE( 1.000000000000000082E-05 ), #898, 'distance_accuracy_value', 'NONE');
#561 = ORIENTED_EDGE ( 'NONE', *, *, #877, .T. ) ;
#562 = AXIS2_PLACEMENT_3D ( 'NONE', #207, #559, #28 ) ;
#563 = DIRECTION ( 'NONE',  ( -1.000000000000000000, -0.0000000000000000000, -0.0000000000000000000 ) ) ;
#564 = AXIS2_PLACEMENT_3D ( 'NONE', #892, #1068, #509 ) ;
#565 = ORIENTED_EDGE ( 'NONE', *, *, #1021, .F. ) ;
#566 = DIRECTION ( 'NONE',  ( 0.0000000000000000000, 0.0000000000000000000, -1.000000000000000000 ) ) ;
#567 =( NAMED_UNIT ( * ) PLANE_ANGLE_UNIT ( ) SI_UNIT ( $, .RADIAN. ) );
#568 = DIRECTION ( 'NONE',  ( -1.000000000000000000, 0.0000000000000000000, 0.0000000000000000000 ) ) ;
#569 = EDGE_LOOP ( 'NONE', ( #43, #585, #706, #964 ) ) ;
#570 = DIRECTION ( 'NONE',  ( 0.0000000000000000000, 0.0000000000000000000, -1.000000000000000000 ) ) ;
#571 = ORIENTED_EDGE ( 'NONE', *, *, #1098, .F. ) ;
#572 = FACE_OUTER_BOUND ( 'NONE', #496, .T. ) ;
#573 = LINE ( 'NONE', #949, #59 ) ;
#574 = PRODUCT_DEFINITION_CONTEXT ( 'detailed design', #595, 'design' ) ;
#575 = ORIENTED_EDGE ( 'NONE', *, *, #1051, .T. ) ;
#576 = CARTESIAN_POINT ( 'NONE',  ( -1.550000000000000711, 0.6500000000000000222, 0.7500000000000002220 ) ) ;
#577 = ORIENTED_EDGE ( 'NONE', *, *, #840, .T. ) ;
#578 = MECHANICAL_DESIGN_GEOMETRIC_PRESENTATION_REPRESENTATION (  '', ( #933 ), #882 ) ;
#579 = ADVANCED_FACE ( 'NONE', ( #1086 ), #445, .T. ) ;
#580 = DIRECTION ( 'NONE',  ( -1.000000000000000000, 0.0000000000000000000, 0.0000000000000000000 ) ) ;
#581 = APPLICATION_PROTOCOL_DEFINITION ( 'draft international standard', 'automotive_design', 1998, #595 ) ;
#582 = SPHERICAL_SURFACE ( 'NONE', #1001, 0.05000000000000000278 ) ;
#583 = CARTESIAN_POINT ( 'NONE',  ( -1.550000000000000488, 0.05000000000000002359, 0.7500000000000001110 ) ) ;
#584 = FACE_OUTER_BOUND ( 'NONE', #1149, .T. ) ;
#585 = ORIENTED_EDGE ( 'NONE', *, *, #25, .F. ) ;
#586 = CIRCLE ( 'NONE', #1047, 0.05000000000000002359 ) ;
#587 = PRODUCT_DEFINITION ( 'UNKNOWN', '', #687, #574 ) ;
#588 = DIRECTION ( 'NONE',  ( 0.0000000000000000000, 0.0000000000000000000, -1.000000000000000000 ) ) ;
#589 = FACE_OUTER_BOUND ( 'NONE', #773, .T. ) ;
#590 = ORIENTED_EDGE ( 'NONE', *, *, #53, .F. ) ;
#591 = CARTESIAN_POINT ( 'NONE',  ( -1.150000000000000355, 0.6500000000000000222, -0.7999999999999999334 ) ) ;
#592 = EDGE_CURVE ( 'NONE', #1062, #526, #870, .T. ) ;
#593 =( LENGTH_UNIT ( ) NAMED_UNIT ( * ) SI_UNIT ( .MILLI., .METRE. ) );
#594 = DIRECTION ( 'NONE',  ( -1.000000000000000000, 0.0000000000000000000, 0.0000000000000000000 ) ) ;
#595 = APPLICATION_CONTEXT ( 'automotive_design' ) ;
#596 = DIRECTION ( 'NONE',  ( 0.0000000000000000000, 1.000000000000000000, 0.0000000000000000000 ) ) ;
#597 = ORIENTED_EDGE ( 'NONE', *, *, #1021, .T. ) ;
#598 = CIRCLE ( 'NONE', #203, 0.05000000000000002359 ) ;
#599 = VECTOR ( 'NONE', #999, 1000.000000000000000 ) ;
#600 = CARTESIAN_POINT ( 'NONE',  ( -1.550000000000000488, 0.0000000000000000000, -0.7499999999999998890 ) ) ;
#601 = DIRECTION ( 'NONE',  ( 0.0000000000000000000, -0.0000000000000000000, -1.000000000000000000 ) ) ;
#602 = EDGE_CURVE ( 'NONE', #937, #854, #450, .T. ) ;
#603 = CARTESIAN_POINT ( 'NONE',  ( -1.600000000000000533, 0.6500000000000000222, 0.8000000000000001554 ) ) ;
#604 = CARTESIAN_POINT ( 'NONE',  ( -1.550000000000000488, 0.0000000000000000000, 0.7500000000000001110 ) ) ;
#605 = ORIENTED_EDGE ( 'NONE', *, *, #82, .F. ) ;
#606 = VECTOR ( 'NONE', #1091, 1000.000000000000000 ) ;
#607 = CIRCLE ( 'NONE', #161, 0.05000000000000002359 ) ;
#608 = AXIS2_PLACEMENT_3D ( 'NONE', #1143, #493, #323 ) ;
#609 = CARTESIAN_POINT ( 'NONE',  ( 1.150000000000001021, 0.6500000000000000222, 0.8000000000000001554 ) ) ;
#610 = CARTESIAN_POINT ( 'NONE',  ( 1.600000000000000089, 0.0000000000000000000, -0.7499999999999998890 ) ) ;
#611 = ORIENTED_EDGE ( 'NONE', *, *, #1156, .T. ) ;
#612 = CARTESIAN_POINT ( 'NONE',  ( 1.600000000000000089, 0.6999999999999999556, -0.7499999999999998890 ) ) ;
#613 = CYLINDRICAL_SURFACE ( 'NONE', #414, 0.04999999999999991257 ) ;
#614 = ORIENTED_EDGE ( 'NONE', *, *, #265, .F. ) ;
#615 = ADVANCED_FACE ( 'NONE', ( #619 ), #535, .T. ) ;
#616 = STYLED_ITEM ( 'NONE', ( #208 ), #37 ) ;
#617 = AXIS2_PLACEMENT_3D ( 'NONE', #896, #633, #269 ) ;
#618 = FACE_OUTER_BOUND ( 'NONE', #847, .T. ) ;
#619 = FACE_OUTER_BOUND ( 'NONE', #94, .T. ) ;
#620 = ORIENTED_EDGE ( 'NONE', *, *, #289, .F. ) ;
#621 = CARTESIAN_POINT ( 'NONE',  ( -1.600000000000000533, 0.6500000000000000222, 0.8000000000000001554 ) ) ;
#622 = ADVANCED_FACE ( 'NONE', ( #434 ), #979, .T. ) ;
#623 = AXIS2_PLACEMENT_3D ( 'NONE', #45, #401, #601 ) ;
#624 = CARTESIAN_POINT ( 'NONE',  ( -1.150000000000000577, 0.05000000000000002359, 0.8000000000000001554 ) ) ;
#625 = PRESENTATION_STYLE_ASSIGNMENT (( #631 ) ) ;
#626 = UNCERTAINTY_MEASURE_WITH_UNIT (LENGTH_MEASURE( 1.000000000000000082E-05 ), #85, 'distance_accuracy_value', 'NONE');
#627 = VERTEX_POINT ( 'NONE', #524 ) ;
#628 = DIRECTION ( 'NONE',  ( 0.0000000000000000000, 0.0000000000000000000, -1.000000000000000000 ) ) ;
#629 = SURFACE_STYLE_USAGE ( .BOTH. , #266 ) ;
#630 = EDGE_CURVE ( 'NONE', #910, #100, #439, .T. ) ;
#631 = SURFACE_STYLE_USAGE ( .BOTH. , #799 ) ;
#632 = EDGE_LOOP ( 'NONE', ( #475, #981, #283, #545 ) ) ;
#633 = DIRECTION ( 'NONE',  ( 0.0000000000000000000, -1.000000000000000000, 0.0000000000000000000 ) ) ;
#634 = VECTOR ( 'NONE', #1019, 1000.000000000000000 ) ;
#635 = FILL_AREA_STYLE_COLOUR ( '', #80 ) ;
#636 = CIRCLE ( 'NONE', #697, 0.05000000000000002359 ) ;
#637 = EDGE_CURVE ( 'NONE', #1114, #627, #181, .T. ) ;
#638 = ORIENTED_EDGE ( 'NONE', *, *, #867, .F. ) ;
#639 = DIRECTION ( 'NONE',  ( 0.0000000000000000000, -0.0000000000000000000, -1.000000000000000000 ) ) ;
#640 = DIRECTION ( 'NONE',  ( 0.0000000000000000000, 0.0000000000000000000, 1.000000000000000000 ) ) ;
#641 = AXIS2_PLACEMENT_3D ( 'NONE', #996, #456, #1099 ) ;
#642 = DIRECTION ( 'NONE',  ( 0.0000000000000000000, 0.0000000000000000000, -1.000000000000000000 ) ) ;
#643 = ORIENTED_EDGE ( 'NONE', *, *, #256, .F. ) ;
#644 = VECTOR ( 'NONE', #423, 1000.000000000000000 ) ;
#645 = FACE_OUTER_BOUND ( 'NONE', #502, .T. ) ;
#646 = CARTESIAN_POINT ( 'NONE',  ( -1.600000000000000533, 0.6999999999999999556, 0.8000000000000001554 ) ) ;
#647 = UNCERTAINTY_MEASURE_WITH_UNIT (LENGTH_MEASURE( 1.000000000000000082E-05 ), #163, 'distance_accuracy_value', 'NONE');
#648 = ORIENTED_EDGE ( 'NONE', *, *, #691, .T. ) ;
#649 = DIRECTION ( 'NONE',  ( 0.0000000000000000000, 0.0000000000000000000, -1.000000000000000000 ) ) ;
#650 = EDGE_CURVE ( 'NONE', #1056, #41, #794, .T. ) ;
#651 = SPHERICAL_SURFACE ( 'NONE', #62, 0.05000000000000000278 ) ;
#652 = DIRECTION ( 'NONE',  ( 0.0000000000000000000, -1.000000000000000000, 0.0000000000000000000 ) ) ;
#653 = SURFACE_STYLE_FILL_AREA ( #832 ) ;
#654 = AXIS2_PLACEMENT_3D ( 'NONE', #717, #1081, #264 ) ;
#655 = EDGE_LOOP ( 'NONE', ( #590, #1004, #863, #221 ) ) ;
#656 = CARTESIAN_POINT ( 'NONE',  ( 1.550000000000000044, 0.6500000000000000222, -0.7499999999999998890 ) ) ;
#657 = CIRCLE ( 'NONE', #1080, 0.05000000000000002359 ) ;
#658 = CARTESIAN_POINT ( 'NONE',  ( -1.600000000000000533, 0.6999999999999999556, 0.8000000000000001554 ) ) ;
#659 =( LENGTH_UNIT ( ) NAMED_UNIT ( * ) SI_UNIT ( .MILLI., .METRE. ) );
#660 = PRESENTATION_LAYER_ASSIGNMENT (  '', '', ( #813 ) ) ;
#661 = DIRECTION ( 'NONE',  ( 0.0000000000000000000, -1.000000000000000000, 0.0000000000000000000 ) ) ;
#662 = CIRCLE ( 'NONE', #1146, 0.05000000000000002359 ) ;
#663 = EDGE_LOOP ( 'NONE', ( #565, #924, #825, #723 ) ) ;
#664 = DIRECTION ( 'NONE',  ( 0.0000000000000000000, 0.0000000000000000000, -1.000000000000000000 ) ) ;
#665 = EDGE_CURVE ( 'NONE', #1182, #182, #1165, .T. ) ;
#666 = VERTEX_POINT ( 'NONE', #1175 ) ;
#667 = SURFACE_SIDE_STYLE ('',( #875 ) ) ;
#668 = ORIENTED_EDGE ( 'NONE', *, *, #426, .T. ) ;
#669 = DIRECTION ( 'NONE',  ( 0.0000000000000000000, 0.0000000000000000000, -1.000000000000000000 ) ) ;
#670 = DIRECTION ( 'NONE',  ( 0.0000000000000000000, 1.000000000000000000, 0.0000000000000000000 ) ) ;
#671 = ORIENTED_EDGE ( 'NONE', *, *, #9, .T. ) ;
#672 = EDGE_CURVE ( 'NONE', #399, #255, #156, .T. ) ;
#673 = AXIS2_PLACEMENT_3D ( 'NONE', #68, #594, #424 ) ;
#674 =( NAMED_UNIT ( * ) SI_UNIT ( $, .STERADIAN. ) SOLID_ANGLE_UNIT ( ) );
#675 = ORIENTED_EDGE ( 'NONE', *, *, #256, .T. ) ;
#676 = PRESENTATION_LAYER_ASSIGNMENT (  '', '', ( #933 ) ) ;
#677 = CYLINDRICAL_SURFACE ( 'NONE', #1036, 0.05000000000000002359 ) ;
#678 = CARTESIAN_POINT ( 'NONE',  ( -1.550000000000000488, 0.05000000000000002359, 0.8000000000000001554 ) ) ;
#679 = CYLINDRICAL_SURFACE ( 'NONE', #712, 0.05000000000000002359 ) ;
#680 = FACE_OUTER_BOUND ( 'NONE', #663, .T. ) ;
#681 = ORIENTED_EDGE ( 'NONE', *, *, #402, .T. ) ;
#682 =( GEOMETRIC_REPRESENTATION_CONTEXT ( 3 ) GLOBAL_UNCERTAINTY_ASSIGNED_CONTEXT ( ( #190 ) ) GLOBAL_UNIT_ASSIGNED_CONTEXT ( ( #1171, #1161, #74 ) ) REPRESENTATION_CONTEXT ( 'NONE', 'WORKASPACE' ) );
#683 = AXIS2_PLACEMENT_3D ( 'NONE', #658, #541, #16 ) ;
#684 = ADVANCED_FACE ( 'NONE', ( #254 ), #613, .T. ) ;
#685 = STYLED_ITEM ( 'NONE', ( #725 ), #1090 ) ;
#686 = LINE ( 'NONE', #835, #1061 ) ;
#687 = PRODUCT_DEFINITION_FORMATION_WITH_SPECIFIED_SOURCE ( 'ANY', '', #154, .NOT_KNOWN. ) ;
#688 = DIRECTION ( 'NONE',  ( 0.0000000000000000000, -0.0000000000000000000, -1.000000000000000000 ) ) ;
#689 = CARTESIAN_POINT ( 'NONE',  ( 1.150000000000001021, 0.05000000000000002359, 0.8000000000000001554 ) ) ;
#690 = EDGE_LOOP ( 'NONE', ( #162, #922, #327, #140 ) ) ;
#691 = EDGE_CURVE ( 'NONE', #1182, #17, #1167, .T. ) ;
#692 = PRESENTATION_STYLE_ASSIGNMENT (( #407 ) ) ;
#693 = CARTESIAN_POINT ( 'NONE',  ( 1.599999999999999867, 0.6500000000000000222, 0.7500000000000001110 ) ) ;
#694 = CARTESIAN_POINT ( 'NONE',  ( 1.600000000000000089, 0.6500000000000000222, 0.7500000000000002220 ) ) ;
#695 = ORIENTED_EDGE ( 'NONE', *, *, #499, .T. ) ;
#696 = CIRCLE ( 'NONE', #314, 0.04999999999999991257 ) ;
#697 = AXIS2_PLACEMENT_3D ( 'NONE', #952, #992, #1075 ) ;
#698 = FILL_AREA_STYLE_COLOUR ( '', #881 ) ;
#699 = DIRECTION ( 'NONE',  ( 1.000000000000000000, -0.0000000000000000000, -0.0000000000000000000 ) ) ;
#700 = ORIENTED_EDGE ( 'NONE', *, *, #97, .T. ) ;
#701 = AXIS2_PLACEMENT_3D ( 'NONE', #646, #552, #850 ) ;
#702 = STYLED_ITEM ( 'NONE', ( #873 ), #1064 ) ;
#703 = SPHERICAL_SURFACE ( 'NONE', #159, 0.05000000000000000278 ) ;
#704 = EDGE_CURVE ( 'NONE', #171, #1018, #743, .T. ) ;
#705 = CARTESIAN_POINT ( 'NONE',  ( -1.600000000000000533, 0.6500000000000000222, -0.7999999999999999334 ) ) ;
#706 = ORIENTED_EDGE ( 'NONE', *, *, #381, .T. ) ;
#707 = CARTESIAN_POINT ( 'NONE',  ( 1.550000000000000044, 0.6500000000000000222, -0.7999999999999999334 ) ) ;
#708 = DIRECTION ( 'NONE',  ( 1.000000000000000000, 0.0000000000000000000, 0.0000000000000000000 ) ) ;
#709 = ORIENTED_EDGE ( 'NONE', *, *, #691, .F. ) ;
#710 = ADVANCED_FACE ( 'NONE', ( #291 ), #364, .F. ) ;
#711 = LINE ( 'NONE', #1151, #1180 ) ;
#712 = AXIS2_PLACEMENT_3D ( 'NONE', #52, #955, #501 ) ;
#713 = VECTOR ( 'NONE', #550, 1000.000000000000000 ) ;
#714 = DIRECTION ( 'NONE',  ( 1.000000000000000000, 0.0000000000000000000, 0.0000000000000000000 ) ) ;
#715 = CARTESIAN_POINT ( 'NONE',  ( 1.550000000000000044, 0.05000000000000000278, -0.7499999999999998890 ) ) ;
#716 = EDGE_LOOP ( 'NONE', ( #890, #1166, #1092, #309 ) ) ;
#717 = CARTESIAN_POINT ( 'NONE',  ( 1.550000000000000044, 0.6999999999999999556, -0.7499999999999998890 ) ) ;
#718 = ADVANCED_FACE ( 'NONE', ( #11 ), #915, .T. ) ;
#719 = STYLED_ITEM ( 'NONE', ( #418 ), #888 ) ;
#720 = LINE ( 'NONE', #612, #3 ) ;
#721 = DIRECTION ( 'NONE',  ( 1.000000000000000000, -0.0000000000000000000, 4.336808689942016158E-15 ) ) ;
#722 = ORIENTED_EDGE ( 'NONE', *, *, #184, .F. ) ;
#723 = ORIENTED_EDGE ( 'NONE', *, *, #476, .F. ) ;
#724 = ADVANCED_FACE ( 'NONE', ( #837 ), #904, .T. ) ;
#725 = PRESENTATION_STYLE_ASSIGNMENT (( #1110 ) ) ;
#726 = CARTESIAN_POINT ( 'NONE',  ( 1.600000000000000089, 0.6999999999999999556, 0.7500000000000002220 ) ) ;
#727 = EDGE_LOOP ( 'NONE', ( #393, #781, #611, #280 ) ) ;
#728 = DIRECTION ( 'NONE',  ( 0.0000000000000000000, 0.0000000000000000000, 1.000000000000000000 ) ) ;
#729 = ORIENTED_EDGE ( 'NONE', *, *, #76, .T. ) ;
#730 = DIRECTION ( 'NONE',  ( 0.0000000000000000000, -1.000000000000000000, -2.168404344971007685E-15 ) ) ;
#731 = CIRCLE ( 'NONE', #822, 0.05000000000000002359 ) ;
#732 = CARTESIAN_POINT ( 'NONE',  ( -1.600000000000000533, 0.05000000000000002359, -0.7500000000000000000 ) ) ;
#733 = ORIENTED_EDGE ( 'NONE', *, *, #369, .F. ) ;
#734 = CARTESIAN_POINT ( 'NONE',  ( 1.600000000000000089, 0.6500000000000000222, -0.7499999999999998890 ) ) ;
#735 = ORIENTED_EDGE ( 'NONE', *, *, #513, .T. ) ;
#736 = CARTESIAN_POINT ( 'NONE',  ( -1.150000000000000577, 0.6999999999999999556, -0.7499999999999998890 ) ) ;
#737 = AXIS2_PLACEMENT_3D ( 'NONE', #463, #652, #103 ) ;
#738 = PLANE ( 'NONE',  #701 ) ;
#739 = ORIENTED_EDGE ( 'NONE', *, *, #184, .T. ) ;
#740 = EDGE_CURVE ( 'NONE', #905, #236, #1015, .T. ) ;
#741 = CARTESIAN_POINT ( 'NONE',  ( -1.550000000000000488, 0.05000000000000002359, -0.7999999999999999334 ) ) ;
#742 = PLANE ( 'NONE',  #324 ) ;
#743 = LINE ( 'NONE', #359, #373 ) ;
#744 = VERTEX_POINT ( 'NONE', #732 ) ;
#745 = CARTESIAN_POINT ( 'NONE',  ( -1.550000000000000488, 0.6999999999999999556, 0.8000000000000001554 ) ) ;
#746 = ORIENTED_EDGE ( 'NONE', *, *, #133, .T. ) ;
#747 = ADVANCED_FACE ( 'NONE', ( #23 ), #1111, .T. ) ;
#748 = DIRECTION ( 'NONE',  ( -0.0000000000000000000, 1.000000000000000000, -0.0000000000000000000 ) ) ;
#749 = DIRECTION ( 'NONE',  ( 0.0000000000000000000, 0.0000000000000000000, -1.000000000000000000 ) ) ;
#750 = CIRCLE ( 'NONE', #1178, 0.05000000000000002359 ) ;
#751 = LINE ( 'NONE', #1119, #606 ) ;
#752 = CARTESIAN_POINT ( 'NONE',  ( -1.150000000000000355, 0.05000000000000002359, -0.7499999999999998890 ) ) ;
#753 = ORIENTED_EDGE ( 'NONE', *, *, #44, .F. ) ;
#754 = ADVANCED_FACE ( 'NONE', ( #5 ), #110, .F. ) ;
#755 = DIRECTION ( 'NONE',  ( 0.0000000000000000000, 1.000000000000000000, 0.0000000000000000000 ) ) ;
#756 = SURFACE_STYLE_FILL_AREA ( #1128 ) ;
#757 = SURFACE_STYLE_FILL_AREA ( #397 ) ;
#758 = ORIENTED_EDGE ( 'NONE', *, *, #172, .T. ) ;
#759 = VECTOR ( 'NONE', #642, 1000.000000000000000 ) ;
#760 = PRESENTATION_STYLE_ASSIGNMENT (( #293 ) ) ;
#761 = VECTOR ( 'NONE', #1029, 1000.000000000000000 ) ;
#762 = EDGE_LOOP ( 'NONE', ( #88, #746, #816 ) ) ;
#763 = PRESENTATION_LAYER_ASSIGNMENT (  '', '', ( #115 ) ) ;
#764 = DIRECTION ( 'NONE',  ( 0.0000000000000000000, 1.000000000000000000, 0.0000000000000000000 ) ) ;
#765 =( NAMED_UNIT ( * ) SI_UNIT ( $, .STERADIAN. ) SOLID_ANGLE_UNIT ( ) );
#766 = EDGE_CURVE ( 'NONE', #224, #744, #796, .T. ) ;
#767 = CARTESIAN_POINT ( 'NONE',  ( 1.600000000000000089, 0.6999999999999999556, -0.7999999999999999334 ) ) ;
#768 = EDGE_LOOP ( 'NONE', ( #287, #484, #360 ) ) ;
#769 = FILL_AREA_STYLE_COLOUR ( '', #554 ) ;
#770 = VERTEX_POINT ( 'NONE', #195 ) ;
#771 = DIRECTION ( 'NONE',  ( 1.000000000000000000, -0.0000000000000000000, -0.0000000000000000000 ) ) ;
#772 = DIRECTION ( 'NONE',  ( 1.000000000000000000, -0.0000000000000000000, -2.710505431213761085E-16 ) ) ;
#773 = EDGE_LOOP ( 'NONE', ( #301, #671, #70 ) ) ;
#774 =( NAMED_UNIT ( * ) SI_UNIT ( $, .STERADIAN. ) SOLID_ANGLE_UNIT ( ) );
#775 = EDGE_LOOP ( 'NONE', ( #786, #803, #24, #561 ) ) ;
#776 = VECTOR ( 'NONE', #329, 1000.000000000000000 ) ;
#777 = CARTESIAN_POINT ( 'NONE',  ( 1.550000000000000044, 0.6999999999999999556, 0.8000000000000001554 ) ) ;
#778 = DIRECTION ( 'NONE',  ( -1.000000000000000000, 0.0000000000000000000, 0.0000000000000000000 ) ) ;
#779 = CYLINDRICAL_SURFACE ( 'NONE', #673, 0.05000000000000002359 ) ;
#780 = LINE ( 'NONE', #1048, #558 ) ;
#781 = ORIENTED_EDGE ( 'NONE', *, *, #289, .T. ) ;
#782 = EDGE_CURVE ( 'NONE', #457, #627, #384, .T. ) ;
#783 = CARTESIAN_POINT ( 'NONE',  ( 1.550000000000000044, 0.05000000000000002359, -0.7999999999999999334 ) ) ;
#784 = SURFACE_STYLE_USAGE ( .BOTH. , #793 ) ;
#785 = SURFACE_STYLE_USAGE ( .BOTH. , #667 ) ;
#786 = ORIENTED_EDGE ( 'NONE', *, *, #454, .F. ) ;
#787 = DIRECTION ( 'NONE',  ( -1.000000000000000000, -0.0000000000000000000, 0.0000000000000000000 ) ) ;
#788 =( NAMED_UNIT ( * ) SI_UNIT ( $, .STERADIAN. ) SOLID_ANGLE_UNIT ( ) );
#789 = DIRECTION ( 'NONE',  ( -1.000000000000000000, 0.0000000000000000000, 0.0000000000000000000 ) ) ;
#790 = ORIENTED_EDGE ( 'NONE', *, *, #782, .T. ) ;
#791 = AXIS2_PLACEMENT_3D ( 'NONE', #1120, #372, #834 ) ;
#792 = FACE_OUTER_BOUND ( 'NONE', #876, .T. ) ;
#793 = SURFACE_SIDE_STYLE ('',( #326 ) ) ;
#794 = LINE ( 'NONE', #884, #828 ) ;
#795 = ORIENTED_EDGE ( 'NONE', *, *, #454, .T. ) ;
#796 = CIRCLE ( 'NONE', #562, 0.04999999999999991257 ) ;
#797 = AXIS2_PLACEMENT_3D ( 'NONE', #767, #330, #688 ) ;
#798 = EDGE_CURVE ( 'NONE', #41, #1031, #751, .T. ) ;
#799 = SURFACE_SIDE_STYLE ('',( #267 ) ) ;
#800 = ORIENTED_EDGE ( 'NONE', *, *, #166, .T. ) ;
#801 = DIRECTION ( 'NONE',  ( 1.000000000000000000, -0.0000000000000000000, 0.0000000000000000000 ) ) ;
#802 = FACE_OUTER_BOUND ( 'NONE', #507, .T. ) ;
#803 = ORIENTED_EDGE ( 'NONE', *, *, #44, .T. ) ;
#804 = EDGE_CURVE ( 'NONE', #851, #770, #232, .T. ) ;
#805 = DIRECTION ( 'NONE',  ( -1.000000000000000000, 0.0000000000000000000, -0.0000000000000000000 ) ) ;
#806 = AXIS2_PLACEMENT_3D ( 'NONE', #1038, #1138, #1125 ) ;
#807 = VECTOR ( 'NONE', #1113, 1000.000000000000000 ) ;
#808 = CARTESIAN_POINT ( 'NONE',  ( -1.600000000000000533, 0.0000000000000000000, 0.7500000000000001110 ) ) ;
#809 = DIRECTION ( 'NONE',  ( 0.0000000000000000000, 0.0000000000000000000, -1.000000000000000000 ) ) ;
#810 = ORIENTED_EDGE ( 'NONE', *, *, #1170, .T. ) ;
#811 = LINE ( 'NONE', #538, #169 ) ;
#812 = ADVANCED_FACE ( 'NONE', ( #824 ), #1009, .F. ) ;
#813 = STYLED_ITEM ( 'NONE', ( #625 ), #579 ) ;
#814 = VECTOR ( 'NONE', #67, 1000.000000000000000 ) ;
#815 = DIRECTION ( 'NONE',  ( -2.710505431213761085E-16, 0.0000000000000000000, -1.000000000000000000 ) ) ;
#816 = ORIENTED_EDGE ( 'NONE', *, *, #1177, .F. ) ;
#817 = DIRECTION ( 'NONE',  ( 0.0000000000000000000, 0.0000000000000000000, -1.000000000000000000 ) ) ;
#818 = ORIENTED_EDGE ( 'NONE', *, *, #630, .T. ) ;
#819 = CARTESIAN_POINT ( 'NONE',  ( -1.600000000000000533, 0.0000000000000000000, 0.7500000000000001110 ) ) ;
#820 = EDGE_LOOP ( 'NONE', ( #333, #531, #218, #695 ) ) ;
#821 = SURFACE_SIDE_STYLE ('',( #376 ) ) ;
#822 = AXIS2_PLACEMENT_3D ( 'NONE', #483, #838, #13 ) ;
#823 = EDGE_CURVE ( 'NONE', #627, #905, #200, .T. ) ;
#824 = FACE_OUTER_BOUND ( 'NONE', #716, .T. ) ;
#825 = ORIENTED_EDGE ( 'NONE', *, *, #320, .F. ) ;
#826 = FACE_OUTER_BOUND ( 'NONE', #482, .T. ) ;
#827 = CARTESIAN_POINT ( 'NONE',  ( 1.600000000000000089, 0.6999999999999999556, -0.7999999999999999334 ) ) ;
#828 = VECTOR ( 'NONE', #894, 1000.000000000000000 ) ;
#829 = PRESENTATION_LAYER_ASSIGNMENT (  '', '', ( #702 ) ) ;
#830 = EDGE_CURVE ( 'NONE', #851, #371, #468, .T. ) ;
#831 = DIRECTION ( 'NONE',  ( 0.0000000000000000000, 0.0000000000000000000, 1.000000000000000000 ) ) ;
#832 = FILL_AREA_STYLE ('',( #1046 ) ) ;
#833 = CIRCLE ( 'NONE', #98, 0.05000000000000002359 ) ;
#834 = DIRECTION ( 'NONE',  ( 1.000000000000000000, 0.0000000000000000000, -0.0000000000000000000 ) ) ;
#835 = CARTESIAN_POINT ( 'NONE',  ( 1.600000000000000089, 0.0000000000000000000, -0.7499999999999998890 ) ) ;
#836 = FACE_OUTER_BOUND ( 'NONE', #132, .T. ) ;
#837 = FACE_OUTER_BOUND ( 'NONE', #1162, .T. ) ;
#838 = DIRECTION ( 'NONE',  ( 0.0000000000000000000, 1.000000000000000000, 0.0000000000000000000 ) ) ;
#839 = ORIENTED_EDGE ( 'NONE', *, *, #1109, .F. ) ;
#840 = EDGE_CURVE ( 'NONE', #526, #937, #394, .T. ) ;
#841 = DIRECTION ( 'NONE',  ( 1.000000000000000000, 0.0000000000000000000, 0.0000000000000000000 ) ) ;
#842 = AXIS2_PLACEMENT_3D ( 'NONE', #158, #145, #860 ) ;
#843 = CARTESIAN_POINT ( 'NONE',  ( -1.150000000000000577, 0.0000000000000000000, -0.7499999999999998890 ) ) ;
#844 = CARTESIAN_POINT ( 'NONE',  ( 1.599999999999999867, 0.6999999999999999556, -0.7500000000000000000 ) ) ;
#845 = STYLED_ITEM ( 'NONE', ( #692 ), #222 ) ;
#846 = CARTESIAN_POINT ( 'NONE',  ( -1.550000000000000488, 0.6500000000000000222, 0.7500000000000001110 ) ) ;
#847 = EDGE_LOOP ( 'NONE', ( #440, #176, #614 ) ) ;
#848 = ADVANCED_FACE ( 'NONE', ( #370 ), #738, .F. ) ;
#849 = DIRECTION ( 'NONE',  ( 0.0000000000000000000, 0.0000000000000000000, 1.000000000000000000 ) ) ;
#850 = DIRECTION ( 'NONE',  ( -1.000000000000000000, 0.0000000000000000000, -0.0000000000000000000 ) ) ;
#851 = VERTEX_POINT ( 'NONE', #481 ) ;
#852 = AXIS2_PLACEMENT_3D ( 'NONE', #93, #251, #1181 ) ;
#853 = CARTESIAN_POINT ( 'NONE',  ( -1.150000000000000577, 0.0000000000000000000, -0.7999999999999999334 ) ) ;
#854 = VERTEX_POINT ( 'NONE', #144 ) ;
#855 =( NAMED_UNIT ( * ) PLANE_ANGLE_UNIT ( ) SI_UNIT ( $, .RADIAN. ) );
#856 = LINE ( 'NONE', #844, #107 ) ;
#857 = ORIENTED_EDGE ( 'NONE', *, *, #362, .T. ) ;
#858 = SURFACE_STYLE_FILL_AREA ( #497 ) ;
#859 = ADVANCED_FACE ( 'NONE', ( #589 ), #582, .T. ) ;
#860 = DIRECTION ( 'NONE',  ( 1.000000000000000000, 0.0000000000000000000, 0.0000000000000000000 ) ) ;
#861 = DIRECTION ( 'NONE',  ( 0.0000000000000000000, 0.0000000000000000000, 1.000000000000000000 ) ) ;
#862 = UNCERTAINTY_MEASURE_WITH_UNIT (LENGTH_MEASURE( 1.000000000000000082E-05 ), #153, 'distance_accuracy_value', 'NONE');
#863 = ORIENTED_EDGE ( 'NONE', *, *, #499, .F. ) ;
#864 = CIRCLE ( 'NONE', #1063, 0.05000000000000002359 ) ;
#865 = PLANE ( 'NONE',  #623 ) ;
#866 =( NAMED_UNIT ( * ) PLANE_ANGLE_UNIT ( ) SI_UNIT ( $, .RADIAN. ) );
#867 = EDGE_CURVE ( 'NONE', #885, #259, #1053, .T. ) ;
#868 = CYLINDRICAL_SURFACE ( 'NONE', #489, 0.05000000000000002359 ) ;
#869 = ORIENTED_EDGE ( 'NONE', *, *, #650, .T. ) ;
#870 = CIRCLE ( 'NONE', #19, 0.05000000000000002359 ) ;
#871 = VECTOR ( 'NONE', #505, 1000.000000000000000 ) ;
#872 = CARTESIAN_POINT ( 'NONE',  ( -1.600000000000000533, 0.05000000000000002359, 0.7500000000000001110 ) ) ;
#873 = PRESENTATION_STYLE_ASSIGNMENT (( #629 ) ) ;
#874 = DIRECTION ( 'NONE',  ( -1.000000000000000000, 0.0000000000000000000, 0.0000000000000000000 ) ) ;
#875 = SURFACE_STYLE_FILL_AREA ( #47 ) ;
#876 = EDGE_LOOP ( 'NONE', ( #292, #818, #138, #216 ) ) ;
#877 = EDGE_CURVE ( 'NONE', #1062, #1056, #573, .T. ) ;
#878 = CARTESIAN_POINT ( 'NONE',  ( 1.150000000000000577, 0.6999999999999999556, -0.7999999999999999334 ) ) ;
#879 = FILL_AREA_STYLE ('',( #87 ) ) ;
#880 = ORIENTED_EDGE ( 'NONE', *, *, #1139, .F. ) ;
#881 = COLOUR_RGB ( '',0.2509803921568627416, 0.2509803921568627416, 0.2509803921568627416 ) ;
#882 =( GEOMETRIC_REPRESENTATION_CONTEXT ( 3 ) GLOBAL_UNCERTAINTY_ASSIGNED_CONTEXT ( ( #862 ) ) GLOBAL_UNIT_ASSIGNED_CONTEXT ( ( #153, #63, #674 ) ) REPRESENTATION_CONTEXT ( 'NONE', 'WORKASPACE' ) );
#883 = EDGE_CURVE ( 'NONE', #41, #277, #586, .T. ) ;
#884 = CARTESIAN_POINT ( 'NONE',  ( 1.600000000000000089, 0.05000000000000002359, 0.8000000000000001554 ) ) ;
#885 = VERTEX_POINT ( 'NONE', #693 ) ;
#886 = AXIS2_PLACEMENT_3D ( 'NONE', #214, #1106, #548 ) ;
#887 = CARTESIAN_POINT ( 'NONE',  ( 1.550000000000000044, 0.05000000000000002359, 0.8000000000000001554 ) ) ;
#888 = ADVANCED_FACE ( 'NONE', ( #1059 ), #220, .F. ) ;
#889 = CARTESIAN_POINT ( 'NONE',  ( 1.600000000000000089, 0.6500000000000000222, 0.7500000000000002220 ) ) ;
#890 = ORIENTED_EDGE ( 'NONE', *, *, #953, .F. ) ;
#891 = FACE_OUTER_BOUND ( 'NONE', #569, .T. ) ;
#892 = CARTESIAN_POINT ( 'NONE',  ( -1.150000000000000577, 0.6500000000000000222, -0.7499999999999998890 ) ) ;
#893 = ADVANCED_FACE ( 'NONE', ( #409 ), #1129, .T. ) ;
#894 = DIRECTION ( 'NONE',  ( 1.000000000000000000, 0.0000000000000000000, 0.0000000000000000000 ) ) ;
#895 = ORIENTED_EDGE ( 'NONE', *, *, #1041, .F. ) ;
#896 = CARTESIAN_POINT ( 'NONE',  ( -1.550000000000000488, 0.6999999999999999556, 0.7500000000000001110 ) ) ;
#897 = VECTOR ( 'NONE', #213, 1000.000000000000000 ) ;
#898 =( LENGTH_UNIT ( ) NAMED_UNIT ( * ) SI_UNIT ( .MILLI., .METRE. ) );
#899 = DIRECTION ( 'NONE',  ( 0.0000000000000000000, 0.0000000000000000000, -1.000000000000000000 ) ) ;
#900 = ORIENTED_EDGE ( 'NONE', *, *, #529, .T. ) ;
#901 = DIRECTION ( 'NONE',  ( 0.0000000000000000000, 0.0000000000000000000, 1.000000000000000000 ) ) ;
#902 = AXIS2_PLACEMENT_3D ( 'NONE', #678, #317, #778 ) ;
#903 = FACE_OUTER_BOUND ( 'NONE', #431, .T. ) ;
#904 = CYLINDRICAL_SURFACE ( 'NONE', #737, 0.05000000000000002359 ) ;
#905 = VERTEX_POINT ( 'NONE', #954 ) ;
#906 = DIRECTION ( 'NONE',  ( -0.0000000000000000000, 1.000000000000000000, -0.0000000000000000000 ) ) ;
#907 = EDGE_CURVE ( 'NONE', #277, #100, #245, .T. ) ;
#908 = CARTESIAN_POINT ( 'NONE',  ( -1.600000000000000533, 0.6999999999999999556, -0.7999999999999999334 ) ) ;
#909 = DIRECTION ( 'NONE',  ( 1.000000000000000000, 0.0000000000000000000, 0.0000000000000000000 ) ) ;
#910 = VERTEX_POINT ( 'NONE', #843 ) ;
#911 = CARTESIAN_POINT ( 'NONE',  ( -1.600000000000000533, 0.6500000000000000222, -0.7500000000000000000 ) ) ;
#912 = ADVANCED_FACE ( 'NONE', ( #934 ), #865, .T. ) ;
#913 = DIRECTION ( 'NONE',  ( 0.0000000000000000000, 1.000000000000000000, 0.0000000000000000000 ) ) ;
#914 =( GEOMETRIC_REPRESENTATION_CONTEXT ( 3 ) GLOBAL_UNCERTAINTY_ASSIGNED_CONTEXT ( ( #626 ) ) GLOBAL_UNIT_ASSIGNED_CONTEXT ( ( #85, #1057, #1179 ) ) REPRESENTATION_CONTEXT ( 'NONE', 'WORKASPACE' ) );
#915 = SPHERICAL_SURFACE ( 'NONE', #886, 0.05000000000000000278 ) ;
#916 = VERTEX_POINT ( 'NONE', #960 ) ;
#917 = CARTESIAN_POINT ( 'NONE',  ( 1.599999999999999867, 0.05000000000000002359, -0.7999999999999999334 ) ) ;
#918 = DIRECTION ( 'NONE',  ( 0.0000000000000000000, 1.000000000000000000, 0.0000000000000000000 ) ) ;
#919 = AXIS2_PLACEMENT_3D ( 'NONE', #908, #551, #290 ) ;
#920 = DIRECTION ( 'NONE',  ( 1.000000000000000000, -0.0000000000000000000, -0.0000000000000000000 ) ) ;
#921 = EDGE_CURVE ( 'NONE', #229, #182, #234, .T. ) ;
#922 = ORIENTED_EDGE ( 'NONE', *, *, #637, .T. ) ;
#923 = DIRECTION ( 'NONE',  ( -1.000000000000000000, 0.0000000000000000000, 0.0000000000000000000 ) ) ;
#924 = ORIENTED_EDGE ( 'NONE', *, *, #438, .F. ) ;
#925 = FACE_OUTER_BOUND ( 'NONE', #196, .T. ) ;
#926 = FILL_AREA_STYLE_COLOUR ( '', #22 ) ;
#927 = DIRECTION ( 'NONE',  ( 1.000000000000000000, 0.0000000000000000000, 0.0000000000000000000 ) ) ;
#928 =( NAMED_UNIT ( * ) PLANE_ANGLE_UNIT ( ) SI_UNIT ( $, .RADIAN. ) );
#929 = CARTESIAN_POINT ( 'NONE',  ( -1.150000000000000577, 0.0000000000000000000, 0.7500000000000001110 ) ) ;
#930 = ORIENTED_EDGE ( 'NONE', *, *, #883, .F. ) ;
#931 = DIRECTION ( 'NONE',  ( 1.000000000000000000, 4.336808689942016158E-15, -0.0000000000000000000 ) ) ;
#932 = MECHANICAL_DESIGN_GEOMETRIC_PRESENTATION_REPRESENTATION (  '', ( #616 ), #50 ) ;
#933 = STYLED_ITEM ( 'NONE', ( #760 ), #460 ) ;
#934 = FACE_OUTER_BOUND ( 'NONE', #319, .T. ) ;
#935 = ORIENTED_EDGE ( 'NONE', *, *, #804, .T. ) ;
#936 = DIRECTION ( 'NONE',  ( 0.0000000000000000000, -1.000000000000000000, 0.0000000000000000000 ) ) ;
#937 = VERTEX_POINT ( 'NONE', #60 ) ;
#938 = DIRECTION ( 'NONE',  ( 1.000000000000000000, 0.0000000000000000000, 0.0000000000000000000 ) ) ;
#939 = CARTESIAN_POINT ( 'NONE',  ( -1.550000000000000488, 0.05000000000000002359, -0.7499999999999998890 ) ) ;
#940 = SURFACE_STYLE_USAGE ( .BOTH. , #1037 ) ;
#941 = UNCERTAINTY_MEASURE_WITH_UNIT (LENGTH_MEASURE( 1.000000000000000082E-05 ), #416, 'distance_accuracy_value', 'NONE');
#942 = CARTESIAN_POINT ( 'NONE',  ( -1.550000000000000711, 0.6999999999999999556, -0.7499999999999998890 ) ) ;
#943 = AXIS2_PLACEMENT_3D ( 'NONE', #286, #831, #1023 ) ;
#944 = VECTOR ( 'NONE', #462, 1000.000000000000000 ) ;
#945 = ORIENTED_EDGE ( 'NONE', *, *, #592, .T. ) ;
#946 = EDGE_CURVE ( 'NONE', #255, #666, #33, .T. ) ;
#947 = LINE ( 'NONE', #777, #363 ) ;
#948 =( NAMED_UNIT ( * ) PLANE_ANGLE_UNIT ( ) SI_UNIT ( $, .RADIAN. ) );
#949 = CARTESIAN_POINT ( 'NONE',  ( 1.600000000000000089, 0.05000000000000002359, 0.8000000000000001554 ) ) ;
#950 = CARTESIAN_POINT ( 'NONE',  ( 1.600000000000000089, 0.6500000000000000222, -0.7499999999999998890 ) ) ;
#951 = ORIENTED_EDGE ( 'NONE', *, *, #476, .T. ) ;
#952 = CARTESIAN_POINT ( 'NONE',  ( 1.550000000000000044, 0.6500000000000000222, -0.7499999999999998890 ) ) ;
#953 = EDGE_CURVE ( 'NONE', #171, #666, #978, .T. ) ;
#954 = CARTESIAN_POINT ( 'NONE',  ( 1.150000000000000799, 0.6999999999999999556, 0.7500000000000002220 ) ) ;
#955 = DIRECTION ( 'NONE',  ( 1.000000000000000000, 0.0000000000000000000, -0.0000000000000000000 ) ) ;
#956 = CIRCLE ( 'NONE', #842, 0.04999999999999991257 ) ;
#957 = DIRECTION ( 'NONE',  ( 0.0000000000000000000, 0.0000000000000000000, 1.000000000000000000 ) ) ;
#958 = ORIENTED_EDGE ( 'NONE', *, *, #422, .F. ) ;
#959 = CYLINDRICAL_SURFACE ( 'NONE', #617, 0.05000000000000002359 ) ;
#960 = CARTESIAN_POINT ( 'NONE',  ( 1.599999999999999867, 0.05000000000000002359, -0.7499999999999998890 ) ) ;
#961 = DIRECTION ( 'NONE',  ( 0.0000000000000000000, 0.0000000000000000000, -1.000000000000000000 ) ) ;
#962 = EDGE_CURVE ( 'NONE', #1070, #885, #262, .T. ) ;
#963 = CYLINDRICAL_SURFACE ( 'NONE', #353, 0.05000000000000002359 ) ;
#964 = ORIENTED_EDGE ( 'NONE', *, *, #1012, .F. ) ;
#965 = AXIS2_PLACEMENT_3D ( 'NONE', #272, #568, #99 ) ;
#966 = CIRCLE ( 'NONE', #564, 0.05000000000000002359 ) ;
#967 = CARTESIAN_POINT ( 'NONE',  ( 1.550000000000000044, 0.05000000000000002359, -0.7499999999999998890 ) ) ;
#968 =( LENGTH_UNIT ( ) NAMED_UNIT ( * ) SI_UNIT ( .MILLI., .METRE. ) );
#969 = DIRECTION ( 'NONE',  ( 1.000000000000000000, -0.0000000000000000000, -0.0000000000000000000 ) ) ;
#970 = PRODUCT_DEFINITION_SHAPE ( 'NONE', 'NONE',  #587 ) ;
#971 = ORIENTED_EDGE ( 'NONE', *, *, #740, .F. ) ;
#972 = EDGE_CURVE ( 'NONE', #100, #666, #662, .T. ) ;
#973 = DIRECTION ( 'NONE',  ( -1.000000000000000000, 0.0000000000000000000, 0.0000000000000000000 ) ) ;
#974 = DIRECTION ( 'NONE',  ( -1.000000000000000000, 0.0000000000000000000, 0.0000000000000000000 ) ) ;
#975 = ORIENTED_EDGE ( 'NONE', *, *, #907, .T. ) ;
#976 = AXIS2_PLACEMENT_3D ( 'NONE', #390, #755, #1122 ) ;
#977 = AXIS2_PLACEMENT_3D ( 'NONE', #139, #332, #1147 ) ;
#978 = LINE ( 'NONE', #878, #814 ) ;
#979 = CYLINDRICAL_SURFACE ( 'NONE', #540, 0.04999999999999991257 ) ;
#980 = UNCERTAINTY_MEASURE_WITH_UNIT (LENGTH_MEASURE( 1.000000000000000082E-05 ), #968, 'distance_accuracy_value', 'NONE');
#981 = ORIENTED_EDGE ( 'NONE', *, *, #962, .T. ) ;
#982 = CARTESIAN_POINT ( 'NONE',  ( -1.150000000000000355, 0.05000000000000002359, -0.7999999999999999334 ) ) ;
#983 = COLOUR_RGB ( '',0.2509803921568627416, 0.2509803921568627416, 0.2509803921568627416 ) ;
#984 =( GEOMETRIC_REPRESENTATION_CONTEXT ( 3 ) GLOBAL_UNCERTAINTY_ASSIGNED_CONTEXT ( ( #1030 ) ) GLOBAL_UNIT_ASSIGNED_CONTEXT ( ( #142, #567, #480 ) ) REPRESENTATION_CONTEXT ( 'NONE', 'WORKASPACE' ) );
#985 = ADVANCED_FACE ( 'NONE', ( #802 ), #703, .T. ) ;
#986 = CARTESIAN_POINT ( 'NONE',  ( 1.599999999999999867, 0.6500000000000000222, 0.8000000000000001554 ) ) ;
#987 = VERTEX_POINT ( 'NONE', #609 ) ;
#988 = LINE ( 'NONE', #621, #776 ) ;
#989 = CARTESIAN_POINT ( 'NONE',  ( 1.600000000000000089, 0.0000000000000000000, -0.7999999999999999334 ) ) ;
#990 = CARTESIAN_POINT ( 'NONE',  ( -1.600000000000000533, 0.6999999999999999556, 0.7500000000000001110 ) ) ;
#991 = ORIENTED_EDGE ( 'NONE', *, *, #823, .F. ) ;
#992 = DIRECTION ( 'NONE',  ( 0.0000000000000000000, -1.000000000000000000, -0.0000000000000000000 ) ) ;
#993 = AXIS2_PLACEMENT_3D ( 'NONE', #583, #495, #470 ) ;
#994 = VECTOR ( 'NONE', #386, 1000.000000000000000 ) ;
#995 = LINE ( 'NONE', #15, #944 ) ;
#996 = CARTESIAN_POINT ( 'NONE',  ( 1.550000000000000044, 0.6500000000000000222, 0.7500000000000002220 ) ) ;
#997 = ORIENTED_EDGE ( 'NONE', *, *, #704, .F. ) ;
#998 = EDGE_CURVE ( 'NONE', #248, #277, #179, .T. ) ;
#999 = DIRECTION ( 'NONE',  ( 0.0000000000000000000, -1.000000000000000000, 0.0000000000000000000 ) ) ;
#1000 = CIRCLE ( 'NONE', #1164, 0.05000000000000002359 ) ;
#1001 = AXIS2_PLACEMENT_3D ( 'NONE', #137, #670, #1045 ) ;
#1002 =( NAMED_UNIT ( * ) PLANE_ANGLE_UNIT ( ) SI_UNIT ( $, .RADIAN. ) );
#1003 = CARTESIAN_POINT ( 'NONE',  ( -1.550000000000000488, 0.05000000000000002359, 0.7500000000000001110 ) ) ;
#1004 = ORIENTED_EDGE ( 'NONE', *, *, #1139, .T. ) ;
#1005 = CARTESIAN_POINT ( 'NONE',  ( 1.550000000000000044, 0.0000000000000000000, -0.7499999999999998890 ) ) ;
#1006 = ORIENTED_EDGE ( 'NONE', *, *, #513, .F. ) ;
#1007 = ADVANCED_FACE ( 'NONE', ( #618 ), #257, .T. ) ;
#1008 = SPHERICAL_SURFACE ( 'NONE', #356, 0.05000000000000000278 ) ;
#1009 = PLANE ( 'NONE',  #943 ) ;
#1010 = EDGE_LOOP ( 'NONE', ( #1073, #549, #1006, #36 ) ) ;
#1011 = LINE ( 'NONE', #477, #713 ) ;
#1012 = EDGE_CURVE ( 'NONE', #1018, #255, #253, .T. ) ;
#1013 = CARTESIAN_POINT ( 'NONE',  ( 1.150000000000000799, 0.6500000000000000222, 0.7500000000000002220 ) ) ;
#1014 = CIRCLE ( 'NONE', #73, 0.05000000000000002359 ) ;
#1015 = LINE ( 'NONE', #298, #338 ) ;
#1016 = SURFACE_SIDE_STYLE ('',( #653 ) ) ;
#1017 = DIRECTION ( 'NONE',  ( 0.0000000000000000000, -1.000000000000000000, 0.0000000000000000000 ) ) ;
#1018 = VERTEX_POINT ( 'NONE', #707 ) ;
#1019 = DIRECTION ( 'NONE',  ( -0.0000000000000000000, 0.0000000000000000000, 1.000000000000000000 ) ) ;
#1020 = VECTOR ( 'NONE', #42, 1000.000000000000000 ) ;
#1021 = EDGE_CURVE ( 'NONE', #1114, #182, #966, .T. ) ;
#1022 = AXIS2_PLACEMENT_3D ( 'NONE', #989, #206, #92 ) ;
#1023 = DIRECTION ( 'NONE',  ( 1.000000000000000000, 0.0000000000000000000, -0.0000000000000000000 ) ) ;
#1024 = EDGE_LOOP ( 'NONE', ( #729, #571, #486, #958 ) ) ;
#1025 = SURFACE_SIDE_STYLE ('',( #379 ) ) ;
#1026 = ADVANCED_BREP_SHAPE_REPRESENTATION ( 'User Library-Chip Resistor2', ( #460, #608 ), #984 ) ;
#1027 = EDGE_LOOP ( 'NONE', ( #1087, #106, #349, #605 ) ) ;
#1028 = LINE ( 'NONE', #1052, #897 ) ;
#1029 = DIRECTION ( 'NONE',  ( -1.000000000000000000, -0.0000000000000000000, 0.0000000000000000000 ) ) ;
#1030 = UNCERTAINTY_MEASURE_WITH_UNIT (LENGTH_MEASURE( 1.000000000000000082E-05 ), #142, 'distance_accuracy_value', 'NONE');
#1031 = VERTEX_POINT ( 'NONE', #887 ) ;
#1032 = ORIENTED_EDGE ( 'NONE', *, *, #1109, .T. ) ;
#1033 = DIRECTION ( 'NONE',  ( -1.000000000000000000, 0.0000000000000000000, -0.0000000000000000000 ) ) ;
#1034 = LINE ( 'NONE', #498, #761 ) ;
#1035 = AXIS2_PLACEMENT_3D ( 'NONE', #950, #874, #241 ) ;
#1036 = AXIS2_PLACEMENT_3D ( 'NONE', #872, #345, #901 ) ;
#1037 = SURFACE_SIDE_STYLE ('',( #757 ) ) ;
#1038 = CARTESIAN_POINT ( 'NONE',  ( 1.600000000000000089, 0.6999999999999999556, -0.7999999999999999334 ) ) ;
#1039 = DIRECTION ( 'NONE',  ( 2.168404344971022279E-15, -0.0000000000000000000, -1.000000000000000000 ) ) ;
#1040 = ORIENTED_EDGE ( 'NONE', *, *, #602, .F. ) ;
#1041 = EDGE_CURVE ( 'NONE', #229, #451, #71, .T. ) ;
#1042 = DIRECTION ( 'NONE',  ( -0.0000000000000000000, -1.000000000000000000, 0.0000000000000000000 ) ) ;
#1043 = SURFACE_SIDE_STYLE ('',( #756 ) ) ;
#1044 = CIRCLE ( 'NONE', #58, 0.04999999999999991257 ) ;
#1045 = DIRECTION ( 'NONE',  ( 1.000000000000000000, 0.0000000000000000000, 0.0000000000000000000 ) ) ;
#1046 = FILL_AREA_STYLE_COLOUR ( '', #388 ) ;
#1047 = AXIS2_PLACEMENT_3D ( 'NONE', #240, #772, #325 ) ;
#1048 = CARTESIAN_POINT ( 'NONE',  ( -1.600000000000000533, 0.6500000000000000222, 0.8000000000000001554 ) ) ;
#1049 = CIRCLE ( 'NONE', #212, 0.04999999999999991257 ) ;
#1050 = ORIENTED_EDGE ( 'NONE', *, *, #1115, .T. ) ;
#1051 = EDGE_CURVE ( 'NONE', #371, #236, #720, .T. ) ;
#1052 = CARTESIAN_POINT ( 'NONE',  ( -1.550000000000000488, 0.0000000000000000000, -0.7999999999999999334 ) ) ;
#1053 = LINE ( 'NONE', #1137, #1103 ) ;
#1054 = FACE_OUTER_BOUND ( 'NONE', #536, .T. ) ;
#1055 = LINE ( 'NONE', #308, #315 ) ;
#1056 = VERTEX_POINT ( 'NONE', #624 ) ;
#1057 =( NAMED_UNIT ( * ) PLANE_ANGLE_UNIT ( ) SI_UNIT ( $, .RADIAN. ) );
#1058 = EDGE_CURVE ( 'NONE', #916, #399, #1049, .T. ) ;
#1059 = FACE_OUTER_BOUND ( 'NONE', #690, .T. ) ;
#1060 = DIRECTION ( 'NONE',  ( -1.000000000000000000, -0.0000000000000000000, -0.0000000000000000000 ) ) ;
#1061 = VECTOR ( 'NONE', #771, 1000.000000000000000 ) ;
#1062 = VERTEX_POINT ( 'NONE', #352 ) ;
#1063 = AXIS2_PLACEMENT_3D ( 'NONE', #436, #801, #91 ) ;
#1064 = ADVANCED_FACE ( 'NONE', ( #792 ), #1085, .T. ) ;
#1065 = FILL_AREA_STYLE ('',( #698 ) ) ;
#1066 = ORIENTED_EDGE ( 'NONE', *, *, #537, .T. ) ;
#1067 = VECTOR ( 'NONE', #339, 1000.000000000000000 ) ;
#1068 = DIRECTION ( 'NONE',  ( -1.000000000000000000, 0.0000000000000000000, -0.0000000000000000000 ) ) ;
#1069 = DIRECTION ( 'NONE',  ( 0.0000000000000000000, 0.0000000000000000000, 1.000000000000000000 ) ) ;
#1070 = VERTEX_POINT ( 'NONE', #278 ) ;
#1071 = CARTESIAN_POINT ( 'NONE',  ( 1.550000000000000044, 0.6999999999999999556, -0.7999999999999999334 ) ) ;
#1072 = DIRECTION ( 'NONE',  ( 1.000000000000000000, -0.0000000000000000000, -0.0000000000000000000 ) ) ;
#1073 = ORIENTED_EDGE ( 'NONE', *, *, #133, .F. ) ;
#1074 = CLOSED_SHELL ( 'NONE', ( #1076, #4, #615, #521, #237, #848, #461, #90, #328, #912, #389, #65, #747, #296, #448, #812, #754, #1090, #710, #109, #888, #1064, #250, #1150, #859, #579, #215, #180, #893, #222, #724, #718, #1130, #126, #205, #684, #491, #37, #622, #1007, #985, #305 ) ) ;
#1075 = DIRECTION ( 'NONE',  ( 0.0000000000000000000, 0.0000000000000000000, 1.000000000000000000 ) ) ;
#1076 = ADVANCED_FACE ( 'NONE', ( #836 ), #742, .F. ) ;
#1077 = CARTESIAN_POINT ( 'NONE',  ( -1.600000000000000533, 0.05000000000000002359, -0.7999999999999999334 ) ) ;
#1078 = CARTESIAN_POINT ( 'NONE',  ( 1.550000000000000044, 0.6500000000000000222, -0.7999999999999999334 ) ) ;
#1079 = ORIENTED_EDGE ( 'NONE', *, *, #665, .F. ) ;
#1080 = AXIS2_PLACEMENT_3D ( 'NONE', #230, #596, #957 ) ;
#1081 = DIRECTION ( 'NONE',  ( 0.0000000000000000000, -1.000000000000000000, 0.0000000000000000000 ) ) ;
#1082 = AXIS2_PLACEMENT_3D ( 'NONE', #474, #118, #817 ) ;
#1083 = VECTOR ( 'NONE', #787, 1000.000000000000000 ) ;
#1084 = EDGE_CURVE ( 'NONE', #851, #885, #193, .T. ) ;
#1085 = PLANE ( 'NONE',  #1022 ) ;
#1086 = FACE_OUTER_BOUND ( 'NONE', #398, .T. ) ;
#1087 = ORIENTED_EDGE ( 'NONE', *, *, #798, .F. ) ;
#1088 = CARTESIAN_POINT ( 'NONE',  ( -1.600000000000000533, 0.6999999999999999556, 0.8000000000000001554 ) ) ;
#1089 = PLANE ( 'NONE',  #919 ) ;
#1090 = ADVANCED_FACE ( 'NONE', ( #903 ), #1089, .F. ) ;
#1091 = DIRECTION ( 'NONE',  ( 1.000000000000000000, 0.0000000000000000000, 0.0000000000000000000 ) ) ;
#1092 = ORIENTED_EDGE ( 'NONE', *, *, #1012, .T. ) ;
#1093 = FACE_OUTER_BOUND ( 'NONE', #191, .T. ) ;
#1094 = ORIENTED_EDGE ( 'NONE', *, *, #469, .T. ) ;
#1095 = CIRCLE ( 'NONE', #993, 0.05000000000000002359 ) ;
#1096 = AXIS2_PLACEMENT_3D ( 'NONE', #503, #1017, #639 ) ;
#1097 = DIRECTION ( 'NONE',  ( 1.000000000000000000, -0.0000000000000000000, -2.710505431213761085E-16 ) ) ;
#1098 = EDGE_CURVE ( 'NONE', #399, #248, #995, .T. ) ;
#1099 = DIRECTION ( 'NONE',  ( 0.0000000000000000000, 0.0000000000000000000, -1.000000000000000000 ) ) ;
#1100 = EDGE_LOOP ( 'NONE', ( #839, #1176, #930, #252 ) ) ;
#1101 = LINE ( 'NONE', #121, #244 ) ;
#1102 = ORIENTED_EDGE ( 'NONE', *, *, #172, .F. ) ;
#1103 = VECTOR ( 'NONE', #494, 1000.000000000000000 ) ;
#1104 = DIRECTION ( 'NONE',  ( 0.0000000000000000000, -0.0000000000000000000, -1.000000000000000000 ) ) ;
#1105 = MECHANICAL_DESIGN_GEOMETRIC_PRESENTATION_REPRESENTATION (  '', ( #115 ), #1148 ) ;
#1106 = DIRECTION ( 'NONE',  ( 0.0000000000000000000, 1.000000000000000000, 0.0000000000000000000 ) ) ;
#1107 = ORIENTED_EDGE ( 'NONE', *, *, #830, .F. ) ;
#1108 = LINE ( 'NONE', #288, #258 ) ;
#1109 = EDGE_CURVE ( 'NONE', #374, #1056, #433, .T. ) ;
#1110 = SURFACE_STYLE_USAGE ( .BOTH. , #821 ) ;
#1111 = CYLINDRICAL_SURFACE ( 'NONE', #1082, 0.05000000000000002359 ) ;
#1112 = DIRECTION ( 'NONE',  ( -0.0000000000000000000, 1.000000000000000000, -0.0000000000000000000 ) ) ;
#1113 = DIRECTION ( 'NONE',  ( -1.000000000000000000, -0.0000000000000000000, 0.0000000000000000000 ) ) ;
#1114 = VERTEX_POINT ( 'NONE', #736 ) ;
#1115 = EDGE_CURVE ( 'NONE', #425, #17, #233, .T. ) ;
#1116 = MECHANICAL_DESIGN_GEOMETRIC_PRESENTATION_REPRESENTATION (  '', ( #443 ), #89 ) ;
#1117 = CARTESIAN_POINT ( 'NONE',  ( -1.150000000000000577, 0.6500000000000000222, 0.7500000000000002220 ) ) ;
#1118 = DIRECTION ( 'NONE',  ( 1.000000000000000000, 0.0000000000000000000, 0.0000000000000000000 ) ) ;
#1119 = CARTESIAN_POINT ( 'NONE',  ( 1.600000000000000089, 0.05000000000000002359, 0.8000000000000001554 ) ) ;
#1120 = CARTESIAN_POINT ( 'NONE',  ( -1.600000000000000533, 0.6999999999999999556, -0.7999999999999999334 ) ) ;
#1121 = ORIENTED_EDGE ( 'NONE', *, *, #334, .F. ) ;
#1122 = DIRECTION ( 'NONE',  ( 1.000000000000000000, 0.0000000000000000000, 0.0000000000000000000 ) ) ;
#1123 = PRESENTATION_STYLE_ASSIGNMENT (( #504 ) ) ;
#1124 = MECHANICAL_DESIGN_GEOMETRIC_PRESENTATION_REPRESENTATION (  '', ( #685 ), #1168 ) ;
#1125 = DIRECTION ( 'NONE',  ( 0.0000000000000000000, -0.0000000000000000000, -1.000000000000000000 ) ) ;
#1126 = VERTEX_POINT ( 'NONE', #270 ) ;
#1127 = CARTESIAN_POINT ( 'NONE',  ( -1.600000000000000533, 0.05000000000000002359, 0.8000000000000001554 ) ) ;
#1128 = FILL_AREA_STYLE ('',( #926 ) ) ;
#1129 = CYLINDRICAL_SURFACE ( 'NONE', #902, 0.04999999999999991257 ) ;
#1130 = ADVANCED_FACE ( 'NONE', ( #297 ), #651, .T. ) ;
#1131 = PLANE ( 'NONE',  #806 ) ;
#1132 = DIRECTION ( 'NONE',  ( -1.000000000000000000, -0.0000000000000000000, -0.0000000000000000000 ) ) ;
#1133 = ORIENTED_EDGE ( 'NONE', *, *, #637, .F. ) ;
#1134 = CYLINDRICAL_SURFACE ( 'NONE', #31, 0.05000000000000002359 ) ;
#1135 = COLOUR_RGB ( '',0.2509803921568627416, 0.2509803921568627416, 0.2509803921568627416 ) ;
#1136 = VECTOR ( 'NONE', #392, 1000.000000000000000 ) ;
#1137 = CARTESIAN_POINT ( 'NONE',  ( 1.599999999999999867, 0.6999999999999999556, 0.7500000000000001110 ) ) ;
#1138 = DIRECTION ( 'NONE',  ( 0.0000000000000000000, -1.000000000000000000, 0.0000000000000000000 ) ) ;
#1139 = EDGE_CURVE ( 'NONE', #905, #987, #833, .T. ) ;
#1140 = CARTESIAN_POINT ( 'NONE',  ( -1.600000000000000533, 0.6500000000000000222, -0.7999999999999999334 ) ) ;
#1141 = ORIENTED_EDGE ( 'NONE', *, *, #261, .F. ) ;
#1142 = FACE_OUTER_BOUND ( 'NONE', #762, .T. ) ;
#1143 = CARTESIAN_POINT ( 'NONE',  ( 0.0000000000000000000, 0.0000000000000000000, 0.0000000000000000000 ) ) ;
#1144 = MECHANICAL_DESIGN_GEOMETRIC_PRESENTATION_REPRESENTATION (  '', ( #813 ), #682 ) ;
#1145 = PLANE ( 'NONE',  #225 ) ;
#1146 = AXIS2_PLACEMENT_3D ( 'NONE', #173, #428, #1169 ) ;
#1147 = DIRECTION ( 'NONE',  ( 0.0000000000000000000, 0.0000000000000000000, 1.000000000000000000 ) ) ;
#1148 =( GEOMETRIC_REPRESENTATION_CONTEXT ( 3 ) GLOBAL_UNCERTAINTY_ASSIGNED_CONTEXT ( ( #941 ) ) GLOBAL_UNIT_ASSIGNED_CONTEXT ( ( #416, #948, #765 ) ) REPRESENTATION_CONTEXT ( 'NONE', 'WORKASPACE' ) );
#1149 = EDGE_LOOP ( 'NONE', ( #6, #1032, #122, #945 ) ) ;
#1150 = ADVANCED_FACE ( 'NONE', ( #547 ), #1008, .T. ) ;
#1151 = CARTESIAN_POINT ( 'NONE',  ( 1.150000000000001021, 0.6999999999999999556, 0.8000000000000001554 ) ) ;
#1152 = CARTESIAN_POINT ( 'NONE',  ( -1.600000000000000533, 0.05000000000000002359, -0.7999999999999999334 ) ) ;
#1153 = LINE ( 'NONE', #603, #427 ) ;
#1154 = PRESENTATION_STYLE_ASSIGNMENT (( #785 ) ) ;
#1155 = ORIENTED_EDGE ( 'NONE', *, *, #198, .F. ) ;
#1156 = EDGE_CURVE ( 'NONE', #425, #744, #467, .T. ) ;
#1157 = SURFACE_STYLE_FILL_AREA ( #157 ) ;
#1158 = VECTOR ( 'NONE', #429, 1000.000000000000000 ) ;
#1159 = CARTESIAN_POINT ( 'NONE',  ( 1.150000000000000577, 0.0000000000000000000, -0.7499999999999998890 ) ) ;
#1160 = VECTOR ( 'NONE', #510, 1000.000000000000000 ) ;
#1161 =( NAMED_UNIT ( * ) PLANE_ANGLE_UNIT ( ) SI_UNIT ( $, .RADIAN. ) );
#1162 = EDGE_LOOP ( 'NONE', ( #478, #186, #341, #638 ) ) ;
#1163 =( NAMED_UNIT ( * ) PLANE_ANGLE_UNIT ( ) SI_UNIT ( $, .RADIAN. ) );
#1164 = AXIS2_PLACEMENT_3D ( 'NONE', #223, #936, #131 ) ;
#1165 = LINE ( 'NONE', #705, #490 ) ;
#1166 = ORIENTED_EDGE ( 'NONE', *, *, #704, .T. ) ;
#1167 = CIRCLE ( 'NONE', #321, 0.05000000000000002359 ) ;
#1168 =( GEOMETRIC_REPRESENTATION_CONTEXT ( 3 ) GLOBAL_UNCERTAINTY_ASSIGNED_CONTEXT ( ( #560 ) ) GLOBAL_UNIT_ASSIGNED_CONTEXT ( ( #898, #1002, #358 ) ) REPRESENTATION_CONTEXT ( 'NONE', 'WORKASPACE' ) );
#1169 = DIRECTION ( 'NONE',  ( 0.0000000000000000000, 0.0000000000000000000, 1.000000000000000000 ) ) ;
#1170 = EDGE_CURVE ( 'NONE', #374, #526, #1034, .T. ) ;
#1171 =( LENGTH_UNIT ( ) NAMED_UNIT ( * ) SI_UNIT ( .MILLI., .METRE. ) );
#1172 = UNCERTAINTY_MEASURE_WITH_UNIT (LENGTH_MEASURE( 1.000000000000000082E-05 ), #659, 'distance_accuracy_value', 'NONE');
#1173 = EDGE_LOOP ( 'NONE', ( #733, #1040, #201, #1121 ) ) ;
#1174 = DIRECTION ( 'NONE',  ( 0.0000000000000000000, 1.000000000000000000, 0.0000000000000000000 ) ) ;
#1175 = CARTESIAN_POINT ( 'NONE',  ( 1.150000000000000577, 0.05000000000000002359, -0.7999999999999999334 ) ) ;
#1176 = ORIENTED_EDGE ( 'NONE', *, *, #340, .F. ) ;
#1177 = EDGE_CURVE ( 'NONE', #224, #451, #607, .T. ) ;
#1178 = AXIS2_PLACEMENT_3D ( 'NONE', #27, #931, #38 ) ;
#1179 =( NAMED_UNIT ( * ) SI_UNIT ( $, .STERADIAN. ) SOLID_ANGLE_UNIT ( ) );
#1180 = VECTOR ( 'NONE', #183, 1000.000000000000000 ) ;
#1181 = DIRECTION ( 'NONE',  ( 0.0000000000000000000, 0.0000000000000000000, -1.000000000000000000 ) ) ;
#1182 = VERTEX_POINT ( 'NONE', #304 ) ;
ENDSEC;
END-ISO-10303-21;
