ISO-10303-21;
HEADER;
FILE_DESCRIPTION(('FreeCAD Model'),'2;1');
FILE_NAME('W:/vault/_altium_/libraries/openvault/mechanics/SOT23-3.step'
  ,'2020-12-16T00:10:21',('Author'),(''),
  'Open CASCADE STEP processor 7.3','FreeCAD','Unknown');
FILE_SCHEMA(('AUTOMOTIVE_DESIGN { 1 0 10303 214 1 1 1 1 }'));
ENDSEC;
DATA;
#1 = APPLICATION_PROTOCOL_DEFINITION('international standard',
  'automotive_design',2000,#2);
#2 = APPLICATION_CONTEXT(
  'core data for automotive mechanical design processes');
#3 = SHAPE_DEFINITION_REPRESENTATION(#4,#10);
#4 = PRODUCT_DEFINITION_SHAPE('','',#5);
#5 = PRODUCT_DEFINITION('design','',#6,#9);
#6 = PRODUCT_DEFINITION_FORMATION('','',#7);
#7 = PRODUCT('SOT-23-3','SOT-23-3','',(#8));
#8 = PRODUCT_CONTEXT('',#2,'mechanical');
#9 = PRODUCT_DEFINITION_CONTEXT('part definition',#2,'design');
#10 = SHAPE_REPRESENTATION('',(#11,#15,#557,#899,#1441),#1983);
#11 = AXIS2_PLACEMENT_3D('',#12,#13,#14);
#12 = CARTESIAN_POINT('',(0.,0.,0.));
#13 = DIRECTION('',(0.,0.,1.));
#14 = DIRECTION('',(1.,0.,-0.));
#15 = MANIFOLD_SOLID_BREP('',#16);
#16 = CLOSED_SHELL('',(#17,#57,#88,#112,#136,#153,#186,#211,#236,#253,
    #284,#308,#332,#349,#382,#407,#432,#449,#480,#511,#528,#545));
#17 = ADVANCED_FACE('',(#18),#52,.F.);
#18 = FACE_BOUND('',#19,.F.);
#19 = EDGE_LOOP('',(#20,#30,#38,#46));
#20 = ORIENTED_EDGE('',*,*,#21,.T.);
#21 = EDGE_CURVE('',#22,#24,#26,.T.);
#22 = VERTEX_POINT('',#23);
#23 = CARTESIAN_POINT('',(-0.2,0.8,0.85));
#24 = VERTEX_POINT('',#25);
#25 = CARTESIAN_POINT('',(0.2,0.8,0.85));
#26 = LINE('',#27,#28);
#27 = CARTESIAN_POINT('',(-0.2,0.8,0.85));
#28 = VECTOR('',#29,1.);
#29 = DIRECTION('',(1.,0.,0.));
#30 = ORIENTED_EDGE('',*,*,#31,.T.);
#31 = EDGE_CURVE('',#24,#32,#34,.T.);
#32 = VERTEX_POINT('',#33);
#33 = CARTESIAN_POINT('',(0.2,0.8,0.7));
#34 = LINE('',#35,#36);
#35 = CARTESIAN_POINT('',(0.2,0.8,0.85));
#36 = VECTOR('',#37,1.);
#37 = DIRECTION('',(0.,2.2E-16,-1.));
#38 = ORIENTED_EDGE('',*,*,#39,.T.);
#39 = EDGE_CURVE('',#32,#40,#42,.T.);
#40 = VERTEX_POINT('',#41);
#41 = CARTESIAN_POINT('',(-0.2,0.8,0.7));
#42 = LINE('',#43,#44);
#43 = CARTESIAN_POINT('',(0.2,0.8,0.7));
#44 = VECTOR('',#45,1.);
#45 = DIRECTION('',(-1.,0.,0.));
#46 = ORIENTED_EDGE('',*,*,#47,.T.);
#47 = EDGE_CURVE('',#40,#22,#48,.T.);
#48 = LINE('',#49,#50);
#49 = CARTESIAN_POINT('',(-0.2,0.8,0.7));
#50 = VECTOR('',#51,1.);
#51 = DIRECTION('',(0.,-2.2E-16,1.));
#52 = PLANE('',#53);
#53 = AXIS2_PLACEMENT_3D('',#54,#55,#56);
#54 = CARTESIAN_POINT('',(-1.E-17,0.8,0.775));
#55 = DIRECTION('',(0.,1.,2.2E-16));
#56 = DIRECTION('',(0.,2.2E-16,-1.));
#57 = ADVANCED_FACE('',(#58),#83,.T.);
#58 = FACE_BOUND('',#59,.T.);
#59 = EDGE_LOOP('',(#60,#68,#69,#77));
#60 = ORIENTED_EDGE('',*,*,#61,.F.);
#61 = EDGE_CURVE('',#22,#62,#64,.T.);
#62 = VERTEX_POINT('',#63);
#63 = CARTESIAN_POINT('',(-0.2,0.95,0.85));
#64 = LINE('',#65,#66);
#65 = CARTESIAN_POINT('',(-0.2,0.8,0.85));
#66 = VECTOR('',#67,1.);
#67 = DIRECTION('',(0.,1.,-2.2E-16));
#68 = ORIENTED_EDGE('',*,*,#21,.T.);
#69 = ORIENTED_EDGE('',*,*,#70,.T.);
#70 = EDGE_CURVE('',#24,#71,#73,.T.);
#71 = VERTEX_POINT('',#72);
#72 = CARTESIAN_POINT('',(0.2,0.95,0.85));
#73 = LINE('',#74,#75);
#74 = CARTESIAN_POINT('',(0.2,0.8,0.85));
#75 = VECTOR('',#76,1.);
#76 = DIRECTION('',(0.,1.,-2.2E-16));
#77 = ORIENTED_EDGE('',*,*,#78,.F.);
#78 = EDGE_CURVE('',#62,#71,#79,.T.);
#79 = LINE('',#80,#81);
#80 = CARTESIAN_POINT('',(-0.2,0.95,0.85));
#81 = VECTOR('',#82,1.);
#82 = DIRECTION('',(1.,0.,0.));
#83 = PLANE('',#84);
#84 = AXIS2_PLACEMENT_3D('',#85,#86,#87);
#85 = CARTESIAN_POINT('',(-0.2,0.8,0.85));
#86 = DIRECTION('',(0.,2.2E-16,1.));
#87 = DIRECTION('',(1.,0.,0.));
#88 = ADVANCED_FACE('',(#89),#107,.T.);
#89 = FACE_BOUND('',#90,.T.);
#90 = EDGE_LOOP('',(#91,#92,#93,#101));
#91 = ORIENTED_EDGE('',*,*,#70,.F.);
#92 = ORIENTED_EDGE('',*,*,#31,.T.);
#93 = ORIENTED_EDGE('',*,*,#94,.T.);
#94 = EDGE_CURVE('',#32,#95,#97,.T.);
#95 = VERTEX_POINT('',#96);
#96 = CARTESIAN_POINT('',(0.2,0.95,0.7));
#97 = LINE('',#98,#99);
#98 = CARTESIAN_POINT('',(0.2,0.8,0.7));
#99 = VECTOR('',#100,1.);
#100 = DIRECTION('',(2.2E-16,1.,2.2E-16));
#101 = ORIENTED_EDGE('',*,*,#102,.F.);
#102 = EDGE_CURVE('',#71,#95,#103,.T.);
#103 = LINE('',#104,#105);
#104 = CARTESIAN_POINT('',(0.2,0.95,0.85));
#105 = VECTOR('',#106,1.);
#106 = DIRECTION('',(0.,2.2E-16,-1.));
#107 = PLANE('',#108);
#108 = AXIS2_PLACEMENT_3D('',#109,#110,#111);
#109 = CARTESIAN_POINT('',(0.2,0.8,0.85));
#110 = DIRECTION('',(1.,-2.2E-16,0.));
#111 = DIRECTION('',(4.84E-32,2.2E-16,-1.));
#112 = ADVANCED_FACE('',(#113),#131,.T.);
#113 = FACE_BOUND('',#114,.T.);
#114 = EDGE_LOOP('',(#115,#116,#117,#125));
#115 = ORIENTED_EDGE('',*,*,#94,.F.);
#116 = ORIENTED_EDGE('',*,*,#39,.T.);
#117 = ORIENTED_EDGE('',*,*,#118,.T.);
#118 = EDGE_CURVE('',#40,#119,#121,.T.);
#119 = VERTEX_POINT('',#120);
#120 = CARTESIAN_POINT('',(-0.2,0.95,0.7));
#121 = LINE('',#122,#123);
#122 = CARTESIAN_POINT('',(-0.2,0.8,0.7));
#123 = VECTOR('',#124,1.);
#124 = DIRECTION('',(0.,1.,-2.2E-16));
#125 = ORIENTED_EDGE('',*,*,#126,.F.);
#126 = EDGE_CURVE('',#95,#119,#127,.T.);
#127 = LINE('',#128,#129);
#128 = CARTESIAN_POINT('',(0.2,0.95,0.7));
#129 = VECTOR('',#130,1.);
#130 = DIRECTION('',(-1.,0.,0.));
#131 = PLANE('',#132);
#132 = AXIS2_PLACEMENT_3D('',#133,#134,#135);
#133 = CARTESIAN_POINT('',(0.2,0.8,0.7));
#134 = DIRECTION('',(0.,-2.2E-16,-1.));
#135 = DIRECTION('',(-1.,0.,0.));
#136 = ADVANCED_FACE('',(#137),#148,.T.);
#137 = FACE_BOUND('',#138,.T.);
#138 = EDGE_LOOP('',(#139,#140,#141,#142));
#139 = ORIENTED_EDGE('',*,*,#118,.F.);
#140 = ORIENTED_EDGE('',*,*,#47,.T.);
#141 = ORIENTED_EDGE('',*,*,#61,.T.);
#142 = ORIENTED_EDGE('',*,*,#143,.F.);
#143 = EDGE_CURVE('',#119,#62,#144,.T.);
#144 = LINE('',#145,#146);
#145 = CARTESIAN_POINT('',(-0.2,0.95,0.7));
#146 = VECTOR('',#147,1.);
#147 = DIRECTION('',(0.,-2.2E-16,1.));
#148 = PLANE('',#149);
#149 = AXIS2_PLACEMENT_3D('',#150,#151,#152);
#150 = CARTESIAN_POINT('',(-0.2,0.8,0.7));
#151 = DIRECTION('',(-1.,2.2E-16,0.));
#152 = DIRECTION('',(-4.84E-32,-2.2E-16,1.));
#153 = ADVANCED_FACE('',(#154),#181,.T.);
#154 = FACE_BOUND('',#155,.T.);
#155 = EDGE_LOOP('',(#156,#165,#166,#175));
#156 = ORIENTED_EDGE('',*,*,#157,.F.);
#157 = EDGE_CURVE('',#62,#158,#160,.T.);
#158 = VERTEX_POINT('',#159);
#159 = CARTESIAN_POINT('',(-0.2,1.121840364064,0.708104218438));
#160 = CIRCLE('',#161,0.175);
#161 = AXIS2_PLACEMENT_3D('',#162,#163,#164);
#162 = CARTESIAN_POINT('',(-0.2,0.95,0.675));
#163 = DIRECTION('',(-1.,2.2E-16,-2.2E-16));
#164 = DIRECTION('',(2.2E-16,1.,2.2E-16));
#165 = ORIENTED_EDGE('',*,*,#78,.T.);
#166 = ORIENTED_EDGE('',*,*,#167,.T.);
#167 = EDGE_CURVE('',#71,#168,#170,.T.);
#168 = VERTEX_POINT('',#169);
#169 = CARTESIAN_POINT('',(0.2,1.121840364064,0.708104218438));
#170 = CIRCLE('',#171,0.175);
#171 = AXIS2_PLACEMENT_3D('',#172,#173,#174);
#172 = CARTESIAN_POINT('',(0.2,0.95,0.675));
#173 = DIRECTION('',(-1.,2.2E-16,-2.2E-16));
#174 = DIRECTION('',(2.2E-16,1.,2.2E-16));
#175 = ORIENTED_EDGE('',*,*,#176,.T.);
#176 = EDGE_CURVE('',#168,#158,#177,.T.);
#177 = LINE('',#178,#179);
#178 = CARTESIAN_POINT('',(-0.2,1.121840364064,0.708104218438));
#179 = VECTOR('',#180,1.);
#180 = DIRECTION('',(-1.,2.2E-16,-2.2E-16));
#181 = CYLINDRICAL_SURFACE('',#182,0.175);
#182 = AXIS2_PLACEMENT_3D('',#183,#184,#185);
#183 = CARTESIAN_POINT('',(-0.2,0.95,0.675));
#184 = DIRECTION('',(-1.,2.2E-16,-2.2E-16));
#185 = DIRECTION('',(2.2E-16,1.,2.2E-16));
#186 = ADVANCED_FACE('',(#187),#206,.F.);
#187 = FACE_BOUND('',#188,.F.);
#188 = EDGE_LOOP('',(#189,#190,#198,#205));
#189 = ORIENTED_EDGE('',*,*,#167,.T.);
#190 = ORIENTED_EDGE('',*,*,#191,.T.);
#191 = EDGE_CURVE('',#168,#192,#194,.T.);
#192 = VERTEX_POINT('',#193);
#193 = CARTESIAN_POINT('',(0.2,0.974548623438,0.679729174063));
#194 = LINE('',#195,#196);
#195 = CARTESIAN_POINT('',(0.2,1.121840364064,0.708104218438));
#196 = VECTOR('',#197,1.);
#197 = DIRECTION('',(-1.8E-16,-0.981944937508,-0.189166962505));
#198 = ORIENTED_EDGE('',*,*,#199,.F.);
#199 = EDGE_CURVE('',#95,#192,#200,.T.);
#200 = CIRCLE('',#201,2.5E-02);
#201 = AXIS2_PLACEMENT_3D('',#202,#203,#204);
#202 = CARTESIAN_POINT('',(0.2,0.95,0.675));
#203 = DIRECTION('',(-1.,2.2E-16,-2.2E-16));
#204 = DIRECTION('',(2.2E-16,1.,2.2E-16));
#205 = ORIENTED_EDGE('',*,*,#102,.F.);
#206 = PLANE('',#207);
#207 = AXIS2_PLACEMENT_3D('',#208,#209,#210);
#208 = CARTESIAN_POINT('',(0.2,1.013672326701,0.752109239476));
#209 = DIRECTION('',(-1.,2.2E-16,-2.2E-16));
#210 = DIRECTION('',(3.09719445588E-16,0.771092394757,-0.636723267007));
#211 = ADVANCED_FACE('',(#212),#231,.F.);
#212 = FACE_BOUND('',#213,.F.);
#213 = EDGE_LOOP('',(#214,#215,#223,#230));
#214 = ORIENTED_EDGE('',*,*,#199,.T.);
#215 = ORIENTED_EDGE('',*,*,#216,.T.);
#216 = EDGE_CURVE('',#192,#217,#219,.T.);
#217 = VERTEX_POINT('',#218);
#218 = CARTESIAN_POINT('',(-0.2,0.974548623438,0.679729174063));
#219 = LINE('',#220,#221);
#220 = CARTESIAN_POINT('',(0.2,0.974548623438,0.679729174063));
#221 = VECTOR('',#222,1.);
#222 = DIRECTION('',(-1.,2.2E-16,-2.2E-16));
#223 = ORIENTED_EDGE('',*,*,#224,.F.);
#224 = EDGE_CURVE('',#119,#217,#225,.T.);
#225 = CIRCLE('',#226,2.5E-02);
#226 = AXIS2_PLACEMENT_3D('',#227,#228,#229);
#227 = CARTESIAN_POINT('',(-0.2,0.95,0.675));
#228 = DIRECTION('',(-1.,2.2E-16,-2.2E-16));
#229 = DIRECTION('',(2.2E-16,1.,2.2E-16));
#230 = ORIENTED_EDGE('',*,*,#126,.F.);
#231 = CYLINDRICAL_SURFACE('',#232,2.5E-02);
#232 = AXIS2_PLACEMENT_3D('',#233,#234,#235);
#233 = CARTESIAN_POINT('',(0.2,0.95,0.675));
#234 = DIRECTION('',(-1.,2.2E-16,-2.2E-16));
#235 = DIRECTION('',(2.2E-16,1.,2.2E-16));
#236 = ADVANCED_FACE('',(#237),#248,.F.);
#237 = FACE_BOUND('',#238,.F.);
#238 = EDGE_LOOP('',(#239,#240,#246,#247));
#239 = ORIENTED_EDGE('',*,*,#224,.T.);
#240 = ORIENTED_EDGE('',*,*,#241,.T.);
#241 = EDGE_CURVE('',#217,#158,#242,.T.);
#242 = LINE('',#243,#244);
#243 = CARTESIAN_POINT('',(-0.2,0.974548623438,0.679729174063));
#244 = VECTOR('',#245,1.);
#245 = DIRECTION('',(1.8E-16,0.981944937508,0.189166962505));
#246 = ORIENTED_EDGE('',*,*,#157,.F.);
#247 = ORIENTED_EDGE('',*,*,#143,.F.);
#248 = PLANE('',#249);
#249 = AXIS2_PLACEMENT_3D('',#250,#251,#252);
#250 = CARTESIAN_POINT('',(-0.2,1.013672326701,0.752109239476));
#251 = DIRECTION('',(1.,-2.2E-16,2.2E-16));
#252 = DIRECTION('',(3.09719445588E-16,0.771092394757,-0.636723267007));
#253 = ADVANCED_FACE('',(#254),#279,.T.);
#254 = FACE_BOUND('',#255,.T.);
#255 = EDGE_LOOP('',(#256,#264,#265,#273));
#256 = ORIENTED_EDGE('',*,*,#257,.F.);
#257 = EDGE_CURVE('',#158,#258,#260,.T.);
#258 = VERTEX_POINT('',#259);
#259 = CARTESIAN_POINT('',(-0.2,1.225451376562,0.170270825937));
#260 = LINE('',#261,#262);
#261 = CARTESIAN_POINT('',(-0.2,1.121840364064,0.708104218438));
#262 = VECTOR('',#263,1.);
#263 = DIRECTION('',(4.E-17,0.189166962505,-0.981944937508));
#264 = ORIENTED_EDGE('',*,*,#176,.F.);
#265 = ORIENTED_EDGE('',*,*,#266,.T.);
#266 = EDGE_CURVE('',#168,#267,#269,.T.);
#267 = VERTEX_POINT('',#268);
#268 = CARTESIAN_POINT('',(0.2,1.225451376562,0.170270825937));
#269 = LINE('',#270,#271);
#270 = CARTESIAN_POINT('',(0.2,1.121840364064,0.708104218438));
#271 = VECTOR('',#272,1.);
#272 = DIRECTION('',(4.E-17,0.189166962505,-0.981944937508));
#273 = ORIENTED_EDGE('',*,*,#274,.F.);
#274 = EDGE_CURVE('',#258,#267,#275,.T.);
#275 = LINE('',#276,#277);
#276 = CARTESIAN_POINT('',(-0.2,1.225451376562,0.170270825937));
#277 = VECTOR('',#278,1.);
#278 = DIRECTION('',(1.,-1.8E-16,0.));
#279 = PLANE('',#280);
#280 = AXIS2_PLACEMENT_3D('',#281,#282,#283);
#281 = CARTESIAN_POINT('',(-0.2,1.121840364064,0.708104218438));
#282 = DIRECTION('',(1.8E-16,0.981944937508,0.189166962505));
#283 = DIRECTION('',(1.,-1.831912338979E-16,-6.147758393132E-19));
#284 = ADVANCED_FACE('',(#285),#303,.T.);
#285 = FACE_BOUND('',#286,.T.);
#286 = EDGE_LOOP('',(#287,#288,#289,#297));
#287 = ORIENTED_EDGE('',*,*,#266,.F.);
#288 = ORIENTED_EDGE('',*,*,#191,.T.);
#289 = ORIENTED_EDGE('',*,*,#290,.T.);
#290 = EDGE_CURVE('',#192,#291,#293,.T.);
#291 = VERTEX_POINT('',#292);
#292 = CARTESIAN_POINT('',(0.2,1.078159635936,0.141895781562));
#293 = LINE('',#294,#295);
#294 = CARTESIAN_POINT('',(0.2,0.974548623438,0.679729174063));
#295 = VECTOR('',#296,1.);
#296 = DIRECTION('',(2.6E-16,0.189166962505,-0.981944937508));
#297 = ORIENTED_EDGE('',*,*,#298,.F.);
#298 = EDGE_CURVE('',#267,#291,#299,.T.);
#299 = LINE('',#300,#301);
#300 = CARTESIAN_POINT('',(0.2,1.225451376562,0.170270825937));
#301 = VECTOR('',#302,1.);
#302 = DIRECTION('',(-1.8E-16,-0.981944937508,-0.189166962505));
#303 = PLANE('',#304);
#304 = AXIS2_PLACEMENT_3D('',#305,#306,#307);
#305 = CARTESIAN_POINT('',(0.2,1.121840364064,0.708104218438));
#306 = DIRECTION('',(1.,-2.2E-16,2.2E-16));
#307 = DIRECTION('',(-1.744111545006E-16,-0.981944937508,-0.189166962505
    ));
#308 = ADVANCED_FACE('',(#309),#327,.T.);
#309 = FACE_BOUND('',#310,.T.);
#310 = EDGE_LOOP('',(#311,#312,#313,#321));
#311 = ORIENTED_EDGE('',*,*,#290,.F.);
#312 = ORIENTED_EDGE('',*,*,#216,.T.);
#313 = ORIENTED_EDGE('',*,*,#314,.T.);
#314 = EDGE_CURVE('',#217,#315,#317,.T.);
#315 = VERTEX_POINT('',#316);
#316 = CARTESIAN_POINT('',(-0.2,1.078159635936,0.141895781562));
#317 = LINE('',#318,#319);
#318 = CARTESIAN_POINT('',(-0.2,0.974548623438,0.679729174063));
#319 = VECTOR('',#320,1.);
#320 = DIRECTION('',(4.E-17,0.189166962505,-0.981944937508));
#321 = ORIENTED_EDGE('',*,*,#322,.F.);
#322 = EDGE_CURVE('',#291,#315,#323,.T.);
#323 = LINE('',#324,#325);
#324 = CARTESIAN_POINT('',(0.2,1.078159635936,0.141895781562));
#325 = VECTOR('',#326,1.);
#326 = DIRECTION('',(-1.,1.8E-16,0.));
#327 = PLANE('',#328);
#328 = AXIS2_PLACEMENT_3D('',#329,#330,#331);
#329 = CARTESIAN_POINT('',(0.2,0.974548623438,0.679729174063));
#330 = DIRECTION('',(-1.8E-16,-0.981944937508,-0.189166962505));
#331 = DIRECTION('',(-1.,1.831912338979E-16,6.147758393132E-19));
#332 = ADVANCED_FACE('',(#333),#344,.T.);
#333 = FACE_BOUND('',#334,.T.);
#334 = EDGE_LOOP('',(#335,#336,#337,#338));
#335 = ORIENTED_EDGE('',*,*,#314,.F.);
#336 = ORIENTED_EDGE('',*,*,#241,.T.);
#337 = ORIENTED_EDGE('',*,*,#257,.T.);
#338 = ORIENTED_EDGE('',*,*,#339,.F.);
#339 = EDGE_CURVE('',#315,#258,#340,.T.);
#340 = LINE('',#341,#342);
#341 = CARTESIAN_POINT('',(-0.2,1.078159635936,0.141895781562));
#342 = VECTOR('',#343,1.);
#343 = DIRECTION('',(1.8E-16,0.981944937508,0.189166962505));
#344 = PLANE('',#345);
#345 = AXIS2_PLACEMENT_3D('',#346,#347,#348);
#346 = CARTESIAN_POINT('',(-0.2,0.974548623438,0.679729174063));
#347 = DIRECTION('',(-1.,2.2E-16,-2.2E-16));
#348 = DIRECTION('',(1.744111545006E-16,0.981944937508,0.189166962505));
#349 = ADVANCED_FACE('',(#350),#377,.F.);
#350 = FACE_BOUND('',#351,.F.);
#351 = EDGE_LOOP('',(#352,#361,#369,#376));
#352 = ORIENTED_EDGE('',*,*,#353,.T.);
#353 = EDGE_CURVE('',#258,#354,#356,.T.);
#354 = VERTEX_POINT('',#355);
#355 = CARTESIAN_POINT('',(-0.2,1.25,0.15));
#356 = CIRCLE('',#357,2.5E-02);
#357 = AXIS2_PLACEMENT_3D('',#358,#359,#360);
#358 = CARTESIAN_POINT('',(-0.2,1.25,0.175));
#359 = DIRECTION('',(1.,-2.2E-16,2.2E-16));
#360 = DIRECTION('',(2.2E-16,1.,-8.9E-16));
#361 = ORIENTED_EDGE('',*,*,#362,.T.);
#362 = EDGE_CURVE('',#354,#363,#365,.T.);
#363 = VERTEX_POINT('',#364);
#364 = CARTESIAN_POINT('',(0.2,1.25,0.15));
#365 = LINE('',#366,#367);
#366 = CARTESIAN_POINT('',(-0.2,1.25,0.15));
#367 = VECTOR('',#368,1.);
#368 = DIRECTION('',(1.,-2.2E-16,2.2E-16));
#369 = ORIENTED_EDGE('',*,*,#370,.F.);
#370 = EDGE_CURVE('',#267,#363,#371,.T.);
#371 = CIRCLE('',#372,2.5E-02);
#372 = AXIS2_PLACEMENT_3D('',#373,#374,#375);
#373 = CARTESIAN_POINT('',(0.2,1.25,0.175));
#374 = DIRECTION('',(1.,-2.2E-16,2.2E-16));
#375 = DIRECTION('',(2.2E-16,1.,-8.9E-16));
#376 = ORIENTED_EDGE('',*,*,#274,.F.);
#377 = CYLINDRICAL_SURFACE('',#378,2.5E-02);
#378 = AXIS2_PLACEMENT_3D('',#379,#380,#381);
#379 = CARTESIAN_POINT('',(-0.2,1.25,0.175));
#380 = DIRECTION('',(1.,-2.2E-16,2.2E-16));
#381 = DIRECTION('',(2.2E-16,1.,-8.9E-16));
#382 = ADVANCED_FACE('',(#383),#402,.F.);
#383 = FACE_BOUND('',#384,.F.);
#384 = EDGE_LOOP('',(#385,#386,#394,#401));
#385 = ORIENTED_EDGE('',*,*,#370,.T.);
#386 = ORIENTED_EDGE('',*,*,#387,.T.);
#387 = EDGE_CURVE('',#363,#388,#390,.T.);
#388 = VERTEX_POINT('',#389);
#389 = CARTESIAN_POINT('',(0.2,1.25,0.));
#390 = LINE('',#391,#392);
#391 = CARTESIAN_POINT('',(0.2,1.25,0.15));
#392 = VECTOR('',#393,1.);
#393 = DIRECTION('',(2.2E-16,-9.2E-16,-1.));
#394 = ORIENTED_EDGE('',*,*,#395,.F.);
#395 = EDGE_CURVE('',#291,#388,#396,.T.);
#396 = CIRCLE('',#397,0.175);
#397 = AXIS2_PLACEMENT_3D('',#398,#399,#400);
#398 = CARTESIAN_POINT('',(0.2,1.25,0.175));
#399 = DIRECTION('',(1.,-2.2E-16,2.2E-16));
#400 = DIRECTION('',(2.2E-16,1.,-2.5E-16));
#401 = ORIENTED_EDGE('',*,*,#298,.F.);
#402 = PLANE('',#403);
#403 = AXIS2_PLACEMENT_3D('',#404,#405,#406);
#404 = CARTESIAN_POINT('',(0.2,1.186327673299,9.789076052428E-02));
#405 = DIRECTION('',(-1.,2.2E-16,-2.2E-16));
#406 = DIRECTION('',(3.09719445588E-16,0.771092394757,-0.636723267007));
#407 = ADVANCED_FACE('',(#408),#427,.T.);
#408 = FACE_BOUND('',#409,.T.);
#409 = EDGE_LOOP('',(#410,#411,#412,#421));
#410 = ORIENTED_EDGE('',*,*,#395,.F.);
#411 = ORIENTED_EDGE('',*,*,#322,.T.);
#412 = ORIENTED_EDGE('',*,*,#413,.T.);
#413 = EDGE_CURVE('',#315,#414,#416,.T.);
#414 = VERTEX_POINT('',#415);
#415 = CARTESIAN_POINT('',(-0.2,1.25,0.));
#416 = CIRCLE('',#417,0.175);
#417 = AXIS2_PLACEMENT_3D('',#418,#419,#420);
#418 = CARTESIAN_POINT('',(-0.2,1.25,0.175));
#419 = DIRECTION('',(1.,-2.2E-16,2.2E-16));
#420 = DIRECTION('',(2.2E-16,1.,-2.5E-16));
#421 = ORIENTED_EDGE('',*,*,#422,.T.);
#422 = EDGE_CURVE('',#414,#388,#423,.T.);
#423 = LINE('',#424,#425);
#424 = CARTESIAN_POINT('',(0.2,1.25,1.3E-16));
#425 = VECTOR('',#426,1.);
#426 = DIRECTION('',(1.,-2.2E-16,2.2E-16));
#427 = CYLINDRICAL_SURFACE('',#428,0.175);
#428 = AXIS2_PLACEMENT_3D('',#429,#430,#431);
#429 = CARTESIAN_POINT('',(0.2,1.25,0.175));
#430 = DIRECTION('',(1.,-2.2E-16,2.2E-16));
#431 = DIRECTION('',(2.2E-16,1.,-2.5E-16));
#432 = ADVANCED_FACE('',(#433),#444,.F.);
#433 = FACE_BOUND('',#434,.F.);
#434 = EDGE_LOOP('',(#435,#436,#442,#443));
#435 = ORIENTED_EDGE('',*,*,#413,.T.);
#436 = ORIENTED_EDGE('',*,*,#437,.T.);
#437 = EDGE_CURVE('',#414,#354,#438,.T.);
#438 = LINE('',#439,#440);
#439 = CARTESIAN_POINT('',(-0.2,1.25,1.E-16));
#440 = VECTOR('',#441,1.);
#441 = DIRECTION('',(-2.2E-16,9.2E-16,1.));
#442 = ORIENTED_EDGE('',*,*,#353,.F.);
#443 = ORIENTED_EDGE('',*,*,#339,.F.);
#444 = PLANE('',#445);
#445 = AXIS2_PLACEMENT_3D('',#446,#447,#448);
#446 = CARTESIAN_POINT('',(-0.2,1.186327673299,9.789076052428E-02));
#447 = DIRECTION('',(1.,-2.2E-16,2.2E-16));
#448 = DIRECTION('',(3.09719445588E-16,0.771092394757,-0.636723267007));
#449 = ADVANCED_FACE('',(#450),#475,.T.);
#450 = FACE_BOUND('',#451,.T.);
#451 = EDGE_LOOP('',(#452,#460,#461,#469));
#452 = ORIENTED_EDGE('',*,*,#453,.F.);
#453 = EDGE_CURVE('',#354,#454,#456,.T.);
#454 = VERTEX_POINT('',#455);
#455 = CARTESIAN_POINT('',(-0.2,1.5,0.15));
#456 = LINE('',#457,#458);
#457 = CARTESIAN_POINT('',(-0.2,1.5,0.15));
#458 = VECTOR('',#459,1.);
#459 = DIRECTION('',(0.,1.,-2.2E-16));
#460 = ORIENTED_EDGE('',*,*,#362,.T.);
#461 = ORIENTED_EDGE('',*,*,#462,.T.);
#462 = EDGE_CURVE('',#363,#463,#465,.T.);
#463 = VERTEX_POINT('',#464);
#464 = CARTESIAN_POINT('',(0.2,1.5,0.15));
#465 = LINE('',#466,#467);
#466 = CARTESIAN_POINT('',(0.2,1.5,0.15));
#467 = VECTOR('',#468,1.);
#468 = DIRECTION('',(0.,1.,-2.2E-16));
#469 = ORIENTED_EDGE('',*,*,#470,.F.);
#470 = EDGE_CURVE('',#454,#463,#471,.T.);
#471 = LINE('',#472,#473);
#472 = CARTESIAN_POINT('',(-0.2,1.5,0.15));
#473 = VECTOR('',#474,1.);
#474 = DIRECTION('',(1.,0.,0.));
#475 = PLANE('',#476);
#476 = AXIS2_PLACEMENT_3D('',#477,#478,#479);
#477 = CARTESIAN_POINT('',(-0.2,1.5,0.15));
#478 = DIRECTION('',(0.,2.2E-16,1.));
#479 = DIRECTION('',(1.,0.,0.));
#480 = ADVANCED_FACE('',(#481),#506,.T.);
#481 = FACE_BOUND('',#482,.T.);
#482 = EDGE_LOOP('',(#483,#484,#492,#500));
#483 = ORIENTED_EDGE('',*,*,#470,.T.);
#484 = ORIENTED_EDGE('',*,*,#485,.T.);
#485 = EDGE_CURVE('',#463,#486,#488,.T.);
#486 = VERTEX_POINT('',#487);
#487 = CARTESIAN_POINT('',(0.2,1.5,0.));
#488 = LINE('',#489,#490);
#489 = CARTESIAN_POINT('',(0.2,1.5,0.15));
#490 = VECTOR('',#491,1.);
#491 = DIRECTION('',(0.,2.2E-16,-1.));
#492 = ORIENTED_EDGE('',*,*,#493,.T.);
#493 = EDGE_CURVE('',#486,#494,#496,.T.);
#494 = VERTEX_POINT('',#495);
#495 = CARTESIAN_POINT('',(-0.2,1.5,0.));
#496 = LINE('',#497,#498);
#497 = CARTESIAN_POINT('',(0.2,1.5,0.));
#498 = VECTOR('',#499,1.);
#499 = DIRECTION('',(-1.,0.,0.));
#500 = ORIENTED_EDGE('',*,*,#501,.T.);
#501 = EDGE_CURVE('',#494,#454,#502,.T.);
#502 = LINE('',#503,#504);
#503 = CARTESIAN_POINT('',(-0.2,1.5,0.));
#504 = VECTOR('',#505,1.);
#505 = DIRECTION('',(0.,-2.2E-16,1.));
#506 = PLANE('',#507);
#507 = AXIS2_PLACEMENT_3D('',#508,#509,#510);
#508 = CARTESIAN_POINT('',(2.9E-16,1.5,7.5E-02));
#509 = DIRECTION('',(0.,1.,2.2E-16));
#510 = DIRECTION('',(-1.,0.,0.));
#511 = ADVANCED_FACE('',(#512),#523,.T.);
#512 = FACE_BOUND('',#513,.T.);
#513 = EDGE_LOOP('',(#514,#515,#516,#522));
#514 = ORIENTED_EDGE('',*,*,#462,.F.);
#515 = ORIENTED_EDGE('',*,*,#387,.T.);
#516 = ORIENTED_EDGE('',*,*,#517,.T.);
#517 = EDGE_CURVE('',#388,#486,#518,.T.);
#518 = LINE('',#519,#520);
#519 = CARTESIAN_POINT('',(0.2,1.5,2.E-17));
#520 = VECTOR('',#521,1.);
#521 = DIRECTION('',(2.2E-16,1.,2.2E-16));
#522 = ORIENTED_EDGE('',*,*,#485,.F.);
#523 = PLANE('',#524);
#524 = AXIS2_PLACEMENT_3D('',#525,#526,#527);
#525 = CARTESIAN_POINT('',(0.2,1.5,0.15));
#526 = DIRECTION('',(1.,-2.2E-16,0.));
#527 = DIRECTION('',(4.84E-32,2.2E-16,-1.));
#528 = ADVANCED_FACE('',(#529),#540,.T.);
#529 = FACE_BOUND('',#530,.T.);
#530 = EDGE_LOOP('',(#531,#532,#533,#539));
#531 = ORIENTED_EDGE('',*,*,#517,.F.);
#532 = ORIENTED_EDGE('',*,*,#422,.F.);
#533 = ORIENTED_EDGE('',*,*,#534,.T.);
#534 = EDGE_CURVE('',#414,#494,#535,.T.);
#535 = LINE('',#536,#537);
#536 = CARTESIAN_POINT('',(-0.2,1.5,0.));
#537 = VECTOR('',#538,1.);
#538 = DIRECTION('',(0.,1.,-2.2E-16));
#539 = ORIENTED_EDGE('',*,*,#493,.F.);
#540 = PLANE('',#541);
#541 = AXIS2_PLACEMENT_3D('',#542,#543,#544);
#542 = CARTESIAN_POINT('',(0.2,1.5,0.));
#543 = DIRECTION('',(0.,-2.2E-16,-1.));
#544 = DIRECTION('',(-1.,0.,0.));
#545 = ADVANCED_FACE('',(#546),#552,.T.);
#546 = FACE_BOUND('',#547,.T.);
#547 = EDGE_LOOP('',(#548,#549,#550,#551));
#548 = ORIENTED_EDGE('',*,*,#534,.F.);
#549 = ORIENTED_EDGE('',*,*,#437,.T.);
#550 = ORIENTED_EDGE('',*,*,#453,.T.);
#551 = ORIENTED_EDGE('',*,*,#501,.F.);
#552 = PLANE('',#553);
#553 = AXIS2_PLACEMENT_3D('',#554,#555,#556);
#554 = CARTESIAN_POINT('',(-0.2,1.5,0.));
#555 = DIRECTION('',(-1.,2.2E-16,0.));
#556 = DIRECTION('',(-4.84E-32,-2.2E-16,1.));
#557 = MANIFOLD_SOLID_BREP('',#558);
#558 = CLOSED_SHELL('',(#559,#599,#630,#661,#692,#723,#745,#769,#793,
    #817,#834,#858,#875,#887));
#559 = ADVANCED_FACE('',(#560),#594,.F.);
#560 = FACE_BOUND('',#561,.F.);
#561 = EDGE_LOOP('',(#562,#572,#580,#588));
#562 = ORIENTED_EDGE('',*,*,#563,.F.);
#563 = EDGE_CURVE('',#564,#566,#568,.T.);
#564 = VERTEX_POINT('',#565);
#565 = CARTESIAN_POINT('',(-1.45,-0.8,0.65));
#566 = VERTEX_POINT('',#567);
#567 = CARTESIAN_POINT('',(-1.45,-0.8,0.85));
#568 = LINE('',#569,#570);
#569 = CARTESIAN_POINT('',(-1.45,-0.8,0.));
#570 = VECTOR('',#571,1.);
#571 = DIRECTION('',(0.,0.,1.));
#572 = ORIENTED_EDGE('',*,*,#573,.T.);
#573 = EDGE_CURVE('',#564,#574,#576,.T.);
#574 = VERTEX_POINT('',#575);
#575 = CARTESIAN_POINT('',(-1.45,0.8,0.65));
#576 = LINE('',#577,#578);
#577 = CARTESIAN_POINT('',(-1.45,-0.8,0.65));
#578 = VECTOR('',#579,1.);
#579 = DIRECTION('',(0.,1.,0.));
#580 = ORIENTED_EDGE('',*,*,#581,.T.);
#581 = EDGE_CURVE('',#574,#582,#584,.T.);
#582 = VERTEX_POINT('',#583);
#583 = CARTESIAN_POINT('',(-1.45,0.8,0.85));
#584 = LINE('',#585,#586);
#585 = CARTESIAN_POINT('',(-1.45,0.8,0.));
#586 = VECTOR('',#587,1.);
#587 = DIRECTION('',(0.,0.,1.));
#588 = ORIENTED_EDGE('',*,*,#589,.F.);
#589 = EDGE_CURVE('',#566,#582,#590,.T.);
#590 = LINE('',#591,#592);
#591 = CARTESIAN_POINT('',(-1.45,-0.8,0.85));
#592 = VECTOR('',#593,1.);
#593 = DIRECTION('',(0.,1.,0.));
#594 = PLANE('',#595);
#595 = AXIS2_PLACEMENT_3D('',#596,#597,#598);
#596 = CARTESIAN_POINT('',(-1.45,-0.8,0.));
#597 = DIRECTION('',(1.,0.,0.));
#598 = DIRECTION('',(0.,0.,1.));
#599 = ADVANCED_FACE('',(#600),#625,.F.);
#600 = FACE_BOUND('',#601,.F.);
#601 = EDGE_LOOP('',(#602,#612,#618,#619));
#602 = ORIENTED_EDGE('',*,*,#603,.F.);
#603 = EDGE_CURVE('',#604,#606,#608,.T.);
#604 = VERTEX_POINT('',#605);
#605 = CARTESIAN_POINT('',(1.45,-0.8,0.65));
#606 = VERTEX_POINT('',#607);
#607 = CARTESIAN_POINT('',(1.45,-0.8,0.85));
#608 = LINE('',#609,#610);
#609 = CARTESIAN_POINT('',(1.45,-0.8,0.));
#610 = VECTOR('',#611,1.);
#611 = DIRECTION('',(0.,0.,1.));
#612 = ORIENTED_EDGE('',*,*,#613,.F.);
#613 = EDGE_CURVE('',#564,#604,#614,.T.);
#614 = LINE('',#615,#616);
#615 = CARTESIAN_POINT('',(-1.45,-0.8,0.65));
#616 = VECTOR('',#617,1.);
#617 = DIRECTION('',(1.,0.,0.));
#618 = ORIENTED_EDGE('',*,*,#563,.T.);
#619 = ORIENTED_EDGE('',*,*,#620,.T.);
#620 = EDGE_CURVE('',#566,#606,#621,.T.);
#621 = LINE('',#622,#623);
#622 = CARTESIAN_POINT('',(-1.45,-0.8,0.85));
#623 = VECTOR('',#624,1.);
#624 = DIRECTION('',(1.,0.,0.));
#625 = PLANE('',#626);
#626 = AXIS2_PLACEMENT_3D('',#627,#628,#629);
#627 = CARTESIAN_POINT('',(-1.45,-0.8,0.));
#628 = DIRECTION('',(0.,1.,0.));
#629 = DIRECTION('',(0.,0.,1.));
#630 = ADVANCED_FACE('',(#631),#656,.T.);
#631 = FACE_BOUND('',#632,.T.);
#632 = EDGE_LOOP('',(#633,#641,#642,#650));
#633 = ORIENTED_EDGE('',*,*,#634,.F.);
#634 = EDGE_CURVE('',#564,#635,#637,.T.);
#635 = VERTEX_POINT('',#636);
#636 = CARTESIAN_POINT('',(-1.35,-0.7,0.));
#637 = LINE('',#638,#639);
#638 = CARTESIAN_POINT('',(-1.401129943503,-0.751129943503,
    0.332344632768));
#639 = VECTOR('',#640,1.);
#640 = DIRECTION('',(0.150329205601,0.150329205601,-0.977139836404));
#641 = ORIENTED_EDGE('',*,*,#573,.T.);
#642 = ORIENTED_EDGE('',*,*,#643,.T.);
#643 = EDGE_CURVE('',#574,#644,#646,.T.);
#644 = VERTEX_POINT('',#645);
#645 = CARTESIAN_POINT('',(-1.35,0.7,0.));
#646 = LINE('',#647,#648);
#647 = CARTESIAN_POINT('',(-1.383050847458,0.733050847458,0.214830508475
    ));
#648 = VECTOR('',#649,1.);
#649 = DIRECTION('',(0.150329205601,-0.150329205601,-0.977139836404));
#650 = ORIENTED_EDGE('',*,*,#651,.F.);
#651 = EDGE_CURVE('',#635,#644,#652,.T.);
#652 = LINE('',#653,#654);
#653 = CARTESIAN_POINT('',(-1.35,-0.8,0.));
#654 = VECTOR('',#655,1.);
#655 = DIRECTION('',(0.,1.,0.));
#656 = PLANE('',#657);
#657 = AXIS2_PLACEMENT_3D('',#658,#659,#660);
#658 = CARTESIAN_POINT('',(-1.4,-0.8,0.325));
#659 = DIRECTION('',(-0.988371697651,0.,-0.152057184254));
#660 = DIRECTION('',(0.,1.,0.));
#661 = ADVANCED_FACE('',(#662),#687,.F.);
#662 = FACE_BOUND('',#663,.F.);
#663 = EDGE_LOOP('',(#664,#672,#673,#681));
#664 = ORIENTED_EDGE('',*,*,#665,.F.);
#665 = EDGE_CURVE('',#566,#666,#668,.T.);
#666 = VERTEX_POINT('',#667);
#667 = CARTESIAN_POINT('',(-1.35,-0.7,1.3));
#668 = LINE('',#669,#670);
#669 = CARTESIAN_POINT('',(-1.402247191011,-0.752247191011,
    1.064887640449));
#670 = VECTOR('',#671,1.);
#671 = DIRECTION('',(0.211999576001,0.211999576001,0.953998092006));
#672 = ORIENTED_EDGE('',*,*,#589,.T.);
#673 = ORIENTED_EDGE('',*,*,#674,.T.);
#674 = EDGE_CURVE('',#582,#675,#677,.T.);
#675 = VERTEX_POINT('',#676);
#676 = CARTESIAN_POINT('',(-1.35,0.7,1.3));
#677 = LINE('',#678,#679);
#678 = CARTESIAN_POINT('',(-1.366292134831,0.716292134831,1.226685393258
    ));
#679 = VECTOR('',#680,1.);
#680 = DIRECTION('',(0.211999576001,-0.211999576001,0.953998092006));
#681 = ORIENTED_EDGE('',*,*,#682,.F.);
#682 = EDGE_CURVE('',#666,#675,#683,.T.);
#683 = LINE('',#684,#685);
#684 = CARTESIAN_POINT('',(-1.35,-0.8,1.3));
#685 = VECTOR('',#686,1.);
#686 = DIRECTION('',(0.,1.,0.));
#687 = PLANE('',#688);
#688 = AXIS2_PLACEMENT_3D('',#689,#690,#691);
#689 = CARTESIAN_POINT('',(-1.4,-0.8,1.075));
#690 = DIRECTION('',(0.976187060184,0.,-0.216930457819));
#691 = DIRECTION('',(0.,1.,0.));
#692 = ADVANCED_FACE('',(#693),#718,.T.);
#693 = FACE_BOUND('',#694,.T.);
#694 = EDGE_LOOP('',(#695,#705,#711,#712));
#695 = ORIENTED_EDGE('',*,*,#696,.F.);
#696 = EDGE_CURVE('',#697,#699,#701,.T.);
#697 = VERTEX_POINT('',#698);
#698 = CARTESIAN_POINT('',(1.45,0.8,0.65));
#699 = VERTEX_POINT('',#700);
#700 = CARTESIAN_POINT('',(1.45,0.8,0.85));
#701 = LINE('',#702,#703);
#702 = CARTESIAN_POINT('',(1.45,0.8,0.));
#703 = VECTOR('',#704,1.);
#704 = DIRECTION('',(0.,0.,1.));
#705 = ORIENTED_EDGE('',*,*,#706,.F.);
#706 = EDGE_CURVE('',#574,#697,#707,.T.);
#707 = LINE('',#708,#709);
#708 = CARTESIAN_POINT('',(-1.45,0.8,0.65));
#709 = VECTOR('',#710,1.);
#710 = DIRECTION('',(1.,0.,0.));
#711 = ORIENTED_EDGE('',*,*,#581,.T.);
#712 = ORIENTED_EDGE('',*,*,#713,.T.);
#713 = EDGE_CURVE('',#582,#699,#714,.T.);
#714 = LINE('',#715,#716);
#715 = CARTESIAN_POINT('',(-1.45,0.8,0.85));
#716 = VECTOR('',#717,1.);
#717 = DIRECTION('',(1.,0.,0.));
#718 = PLANE('',#719);
#719 = AXIS2_PLACEMENT_3D('',#720,#721,#722);
#720 = CARTESIAN_POINT('',(-1.45,0.8,0.));
#721 = DIRECTION('',(0.,1.,0.));
#722 = DIRECTION('',(0.,0.,1.));
#723 = ADVANCED_FACE('',(#724),#740,.T.);
#724 = FACE_BOUND('',#725,.T.);
#725 = EDGE_LOOP('',(#726,#727,#733,#734));
#726 = ORIENTED_EDGE('',*,*,#603,.F.);
#727 = ORIENTED_EDGE('',*,*,#728,.T.);
#728 = EDGE_CURVE('',#604,#697,#729,.T.);
#729 = LINE('',#730,#731);
#730 = CARTESIAN_POINT('',(1.45,-0.8,0.65));
#731 = VECTOR('',#732,1.);
#732 = DIRECTION('',(0.,1.,0.));
#733 = ORIENTED_EDGE('',*,*,#696,.T.);
#734 = ORIENTED_EDGE('',*,*,#735,.F.);
#735 = EDGE_CURVE('',#606,#699,#736,.T.);
#736 = LINE('',#737,#738);
#737 = CARTESIAN_POINT('',(1.45,-0.8,0.85));
#738 = VECTOR('',#739,1.);
#739 = DIRECTION('',(0.,1.,0.));
#740 = PLANE('',#741);
#741 = AXIS2_PLACEMENT_3D('',#742,#743,#744);
#742 = CARTESIAN_POINT('',(1.45,-0.8,0.));
#743 = DIRECTION('',(1.,0.,0.));
#744 = DIRECTION('',(0.,0.,1.));
#745 = ADVANCED_FACE('',(#746),#764,.T.);
#746 = FACE_BOUND('',#747,.F.);
#747 = EDGE_LOOP('',(#748,#749,#750,#758));
#748 = ORIENTED_EDGE('',*,*,#634,.F.);
#749 = ORIENTED_EDGE('',*,*,#613,.T.);
#750 = ORIENTED_EDGE('',*,*,#751,.T.);
#751 = EDGE_CURVE('',#604,#752,#754,.T.);
#752 = VERTEX_POINT('',#753);
#753 = CARTESIAN_POINT('',(1.35,-0.7,0.));
#754 = LINE('',#755,#756);
#755 = CARTESIAN_POINT('',(1.368361581921,-0.718361581921,0.119350282486
    ));
#756 = VECTOR('',#757,1.);
#757 = DIRECTION('',(-0.150329205601,0.150329205601,-0.977139836404));
#758 = ORIENTED_EDGE('',*,*,#759,.F.);
#759 = EDGE_CURVE('',#635,#752,#760,.T.);
#760 = LINE('',#761,#762);
#761 = CARTESIAN_POINT('',(-1.45,-0.7,0.));
#762 = VECTOR('',#763,1.);
#763 = DIRECTION('',(1.,0.,0.));
#764 = PLANE('',#765);
#765 = AXIS2_PLACEMENT_3D('',#766,#767,#768);
#766 = CARTESIAN_POINT('',(-1.45,-0.75,0.325));
#767 = DIRECTION('',(0.,-0.988371697651,-0.152057184254));
#768 = DIRECTION('',(-1.,-0.,-0.));
#769 = ADVANCED_FACE('',(#770),#788,.F.);
#770 = FACE_BOUND('',#771,.T.);
#771 = EDGE_LOOP('',(#772,#773,#774,#782));
#772 = ORIENTED_EDGE('',*,*,#665,.F.);
#773 = ORIENTED_EDGE('',*,*,#620,.T.);
#774 = ORIENTED_EDGE('',*,*,#775,.T.);
#775 = EDGE_CURVE('',#606,#776,#778,.T.);
#776 = VERTEX_POINT('',#777);
#777 = CARTESIAN_POINT('',(1.35,-0.7,1.3));
#778 = LINE('',#779,#780);
#779 = CARTESIAN_POINT('',(1.337078651685,-0.687078651685,1.358146067416
    ));
#780 = VECTOR('',#781,1.);
#781 = DIRECTION('',(-0.211999576001,0.211999576001,0.953998092006));
#782 = ORIENTED_EDGE('',*,*,#783,.F.);
#783 = EDGE_CURVE('',#666,#776,#784,.T.);
#784 = LINE('',#785,#786);
#785 = CARTESIAN_POINT('',(-1.45,-0.7,1.3));
#786 = VECTOR('',#787,1.);
#787 = DIRECTION('',(1.,0.,0.));
#788 = PLANE('',#789);
#789 = AXIS2_PLACEMENT_3D('',#790,#791,#792);
#790 = CARTESIAN_POINT('',(-1.45,-0.75,1.075));
#791 = DIRECTION('',(0.,0.976187060184,-0.216930457819));
#792 = DIRECTION('',(-1.,0.,0.));
#793 = ADVANCED_FACE('',(#794),#812,.F.);
#794 = FACE_BOUND('',#795,.F.);
#795 = EDGE_LOOP('',(#796,#797,#798,#806));
#796 = ORIENTED_EDGE('',*,*,#651,.F.);
#797 = ORIENTED_EDGE('',*,*,#759,.T.);
#798 = ORIENTED_EDGE('',*,*,#799,.T.);
#799 = EDGE_CURVE('',#752,#800,#802,.T.);
#800 = VERTEX_POINT('',#801);
#801 = CARTESIAN_POINT('',(1.35,0.7,0.));
#802 = LINE('',#803,#804);
#803 = CARTESIAN_POINT('',(1.35,-0.8,0.));
#804 = VECTOR('',#805,1.);
#805 = DIRECTION('',(0.,1.,0.));
#806 = ORIENTED_EDGE('',*,*,#807,.F.);
#807 = EDGE_CURVE('',#644,#800,#808,.T.);
#808 = LINE('',#809,#810);
#809 = CARTESIAN_POINT('',(-1.45,0.7,0.));
#810 = VECTOR('',#811,1.);
#811 = DIRECTION('',(1.,0.,0.));
#812 = PLANE('',#813);
#813 = AXIS2_PLACEMENT_3D('',#814,#815,#816);
#814 = CARTESIAN_POINT('',(-1.45,-0.8,0.));
#815 = DIRECTION('',(0.,0.,1.));
#816 = DIRECTION('',(1.,0.,0.));
#817 = ADVANCED_FACE('',(#818),#829,.F.);
#818 = FACE_BOUND('',#819,.T.);
#819 = EDGE_LOOP('',(#820,#821,#822,#828));
#820 = ORIENTED_EDGE('',*,*,#643,.F.);
#821 = ORIENTED_EDGE('',*,*,#706,.T.);
#822 = ORIENTED_EDGE('',*,*,#823,.T.);
#823 = EDGE_CURVE('',#697,#800,#824,.T.);
#824 = LINE('',#825,#826);
#825 = CARTESIAN_POINT('',(1.350282485876,0.700282485876,
    1.83615819209E-03));
#826 = VECTOR('',#827,1.);
#827 = DIRECTION('',(-0.150329205601,-0.150329205601,-0.977139836404));
#828 = ORIENTED_EDGE('',*,*,#807,.F.);
#829 = PLANE('',#830);
#830 = AXIS2_PLACEMENT_3D('',#831,#832,#833);
#831 = CARTESIAN_POINT('',(-1.45,0.75,0.325));
#832 = DIRECTION('',(0.,-0.988371697651,0.152057184254));
#833 = DIRECTION('',(-1.,-0.,-0.));
#834 = ADVANCED_FACE('',(#835),#853,.T.);
#835 = FACE_BOUND('',#836,.T.);
#836 = EDGE_LOOP('',(#837,#838,#839,#847));
#837 = ORIENTED_EDGE('',*,*,#682,.F.);
#838 = ORIENTED_EDGE('',*,*,#783,.T.);
#839 = ORIENTED_EDGE('',*,*,#840,.T.);
#840 = EDGE_CURVE('',#776,#841,#843,.T.);
#841 = VERTEX_POINT('',#842);
#842 = CARTESIAN_POINT('',(1.35,0.7,1.3));
#843 = LINE('',#844,#845);
#844 = CARTESIAN_POINT('',(1.35,-0.8,1.3));
#845 = VECTOR('',#846,1.);
#846 = DIRECTION('',(0.,1.,0.));
#847 = ORIENTED_EDGE('',*,*,#848,.F.);
#848 = EDGE_CURVE('',#675,#841,#849,.T.);
#849 = LINE('',#850,#851);
#850 = CARTESIAN_POINT('',(-1.45,0.7,1.3));
#851 = VECTOR('',#852,1.);
#852 = DIRECTION('',(1.,0.,0.));
#853 = PLANE('',#854);
#854 = AXIS2_PLACEMENT_3D('',#855,#856,#857);
#855 = CARTESIAN_POINT('',(-1.45,-0.8,1.3));
#856 = DIRECTION('',(0.,0.,1.));
#857 = DIRECTION('',(1.,0.,0.));
#858 = ADVANCED_FACE('',(#859),#870,.T.);
#859 = FACE_BOUND('',#860,.F.);
#860 = EDGE_LOOP('',(#861,#862,#863,#869));
#861 = ORIENTED_EDGE('',*,*,#674,.F.);
#862 = ORIENTED_EDGE('',*,*,#713,.T.);
#863 = ORIENTED_EDGE('',*,*,#864,.T.);
#864 = EDGE_CURVE('',#699,#841,#865,.T.);
#865 = LINE('',#866,#867);
#866 = CARTESIAN_POINT('',(1.301123595506,0.651123595506,1.519943820225)
  );
#867 = VECTOR('',#868,1.);
#868 = DIRECTION('',(-0.211999576001,-0.211999576001,0.953998092006));
#869 = ORIENTED_EDGE('',*,*,#848,.F.);
#870 = PLANE('',#871);
#871 = AXIS2_PLACEMENT_3D('',#872,#873,#874);
#872 = CARTESIAN_POINT('',(-1.45,0.75,1.075));
#873 = DIRECTION('',(0.,0.976187060184,0.216930457819));
#874 = DIRECTION('',(-1.,0.,0.));
#875 = ADVANCED_FACE('',(#876),#882,.F.);
#876 = FACE_BOUND('',#877,.F.);
#877 = EDGE_LOOP('',(#878,#879,#880,#881));
#878 = ORIENTED_EDGE('',*,*,#751,.F.);
#879 = ORIENTED_EDGE('',*,*,#728,.T.);
#880 = ORIENTED_EDGE('',*,*,#823,.T.);
#881 = ORIENTED_EDGE('',*,*,#799,.F.);
#882 = PLANE('',#883);
#883 = AXIS2_PLACEMENT_3D('',#884,#885,#886);
#884 = CARTESIAN_POINT('',(1.4,-0.8,0.325));
#885 = DIRECTION('',(-0.988371697651,0.,0.152057184254));
#886 = DIRECTION('',(0.,1.,0.));
#887 = ADVANCED_FACE('',(#888),#894,.T.);
#888 = FACE_BOUND('',#889,.T.);
#889 = EDGE_LOOP('',(#890,#891,#892,#893));
#890 = ORIENTED_EDGE('',*,*,#775,.F.);
#891 = ORIENTED_EDGE('',*,*,#735,.T.);
#892 = ORIENTED_EDGE('',*,*,#864,.T.);
#893 = ORIENTED_EDGE('',*,*,#840,.F.);
#894 = PLANE('',#895);
#895 = AXIS2_PLACEMENT_3D('',#896,#897,#898);
#896 = CARTESIAN_POINT('',(1.4,-0.8,1.075));
#897 = DIRECTION('',(0.976187060184,0.,0.216930457819));
#898 = DIRECTION('',(0.,1.,0.));
#899 = MANIFOLD_SOLID_BREP('',#900);
#900 = CLOSED_SHELL('',(#901,#941,#972,#996,#1020,#1037,#1070,#1095,
    #1120,#1137,#1168,#1192,#1216,#1233,#1266,#1291,#1316,#1333,#1364,
    #1395,#1412,#1429));
#901 = ADVANCED_FACE('',(#902),#936,.F.);
#902 = FACE_BOUND('',#903,.F.);
#903 = EDGE_LOOP('',(#904,#914,#922,#930));
#904 = ORIENTED_EDGE('',*,*,#905,.T.);
#905 = EDGE_CURVE('',#906,#908,#910,.T.);
#906 = VERTEX_POINT('',#907);
#907 = CARTESIAN_POINT('',(1.150000177227,-0.800000012713,0.85));
#908 = VERTEX_POINT('',#909);
#909 = CARTESIAN_POINT('',(0.750000177227,-0.800000047682,0.85));
#910 = LINE('',#911,#912);
#911 = CARTESIAN_POINT('',(1.150000177227,-0.800000012713,0.85));
#912 = VECTOR('',#913,1.);
#913 = DIRECTION('',(-1.,-8.742279776729E-08,0.));
#914 = ORIENTED_EDGE('',*,*,#915,.T.);
#915 = EDGE_CURVE('',#908,#916,#918,.T.);
#916 = VERTEX_POINT('',#917);
#917 = CARTESIAN_POINT('',(0.750000177227,-0.800000047682,0.7));
#918 = LINE('',#919,#920);
#919 = CARTESIAN_POINT('',(0.750000177227,-0.800000047682,0.85));
#920 = VECTOR('',#921,1.);
#921 = DIRECTION('',(1.92330155088E-23,-2.2E-16,-1.));
#922 = ORIENTED_EDGE('',*,*,#923,.T.);
#923 = EDGE_CURVE('',#916,#924,#926,.T.);
#924 = VERTEX_POINT('',#925);
#925 = CARTESIAN_POINT('',(1.150000177227,-0.800000012713,0.7));
#926 = LINE('',#927,#928);
#927 = CARTESIAN_POINT('',(0.750000177227,-0.800000047682,0.7));
#928 = VECTOR('',#929,1.);
#929 = DIRECTION('',(1.,8.742279776729E-08,0.));
#930 = ORIENTED_EDGE('',*,*,#931,.T.);
#931 = EDGE_CURVE('',#924,#906,#932,.T.);
#932 = LINE('',#933,#934);
#933 = CARTESIAN_POINT('',(1.150000177227,-0.800000012713,0.7));
#934 = VECTOR('',#935,1.);
#935 = DIRECTION('',(-1.92330155088E-23,2.2E-16,1.));
#936 = PLANE('',#937);
#937 = AXIS2_PLACEMENT_3D('',#938,#939,#940);
#938 = CARTESIAN_POINT('',(0.950000177227,-0.800000030197,0.775));
#939 = DIRECTION('',(8.742279776729E-08,-1.,2.2E-16));
#940 = DIRECTION('',(1.92330155088E-23,-2.2E-16,-1.));
#941 = ADVANCED_FACE('',(#942),#967,.T.);
#942 = FACE_BOUND('',#943,.T.);
#943 = EDGE_LOOP('',(#944,#952,#953,#961));
#944 = ORIENTED_EDGE('',*,*,#945,.F.);
#945 = EDGE_CURVE('',#906,#946,#948,.T.);
#946 = VERTEX_POINT('',#947);
#947 = CARTESIAN_POINT('',(1.15000019034,-0.950000012713,0.85));
#948 = LINE('',#949,#950);
#949 = CARTESIAN_POINT('',(1.150000177227,-0.800000012713,0.85));
#950 = VECTOR('',#951,1.);
#951 = DIRECTION('',(8.742279776729E-08,-1.,-2.2E-16));
#952 = ORIENTED_EDGE('',*,*,#905,.T.);
#953 = ORIENTED_EDGE('',*,*,#954,.T.);
#954 = EDGE_CURVE('',#908,#955,#957,.T.);
#955 = VERTEX_POINT('',#956);
#956 = CARTESIAN_POINT('',(0.75000019034,-0.950000047682,0.85));
#957 = LINE('',#958,#959);
#958 = CARTESIAN_POINT('',(0.750000177227,-0.800000047682,0.85));
#959 = VECTOR('',#960,1.);
#960 = DIRECTION('',(8.742279776729E-08,-1.,-2.2E-16));
#961 = ORIENTED_EDGE('',*,*,#962,.F.);
#962 = EDGE_CURVE('',#946,#955,#963,.T.);
#963 = LINE('',#964,#965);
#964 = CARTESIAN_POINT('',(1.15000019034,-0.950000012713,0.85));
#965 = VECTOR('',#966,1.);
#966 = DIRECTION('',(-1.,-8.742279776729E-08,0.));
#967 = PLANE('',#968);
#968 = AXIS2_PLACEMENT_3D('',#969,#970,#971);
#969 = CARTESIAN_POINT('',(1.150000177227,-0.800000012713,0.85));
#970 = DIRECTION('',(1.92330155088E-23,-2.2E-16,1.));
#971 = DIRECTION('',(-1.,-8.742279776729E-08,0.));
#972 = ADVANCED_FACE('',(#973),#991,.T.);
#973 = FACE_BOUND('',#974,.T.);
#974 = EDGE_LOOP('',(#975,#976,#977,#985));
#975 = ORIENTED_EDGE('',*,*,#954,.F.);
#976 = ORIENTED_EDGE('',*,*,#915,.T.);
#977 = ORIENTED_EDGE('',*,*,#978,.T.);
#978 = EDGE_CURVE('',#916,#979,#981,.T.);
#979 = VERTEX_POINT('',#980);
#980 = CARTESIAN_POINT('',(0.75000019034,-0.950000047682,0.7));
#981 = LINE('',#982,#983);
#982 = CARTESIAN_POINT('',(0.750000177227,-0.800000047682,0.7));
#983 = VECTOR('',#984,1.);
#984 = DIRECTION('',(8.742279754729E-08,-1.,2.2E-16));
#985 = ORIENTED_EDGE('',*,*,#986,.F.);
#986 = EDGE_CURVE('',#955,#979,#987,.T.);
#987 = LINE('',#988,#989);
#988 = CARTESIAN_POINT('',(0.75000019034,-0.950000047682,0.85));
#989 = VECTOR('',#990,1.);
#990 = DIRECTION('',(1.92330155088E-23,-2.2E-16,-1.));
#991 = PLANE('',#992);
#992 = AXIS2_PLACEMENT_3D('',#993,#994,#995);
#993 = CARTESIAN_POINT('',(0.750000177227,-0.800000047682,0.85));
#994 = DIRECTION('',(-1.,-8.742279754729E-08,0.));
#995 = DIRECTION('',(1.92330154604E-23,-2.2E-16,-1.));
#996 = ADVANCED_FACE('',(#997),#1015,.T.);
#997 = FACE_BOUND('',#998,.T.);
#998 = EDGE_LOOP('',(#999,#1000,#1001,#1009));
#999 = ORIENTED_EDGE('',*,*,#978,.F.);
#1000 = ORIENTED_EDGE('',*,*,#923,.T.);
#1001 = ORIENTED_EDGE('',*,*,#1002,.T.);
#1002 = EDGE_CURVE('',#924,#1003,#1005,.T.);
#1003 = VERTEX_POINT('',#1004);
#1004 = CARTESIAN_POINT('',(1.15000019034,-0.950000012713,0.7));
#1005 = LINE('',#1006,#1007);
#1006 = CARTESIAN_POINT('',(1.150000177227,-0.800000012713,0.7));
#1007 = VECTOR('',#1008,1.);
#1008 = DIRECTION('',(8.742279776729E-08,-1.,-2.2E-16));
#1009 = ORIENTED_EDGE('',*,*,#1010,.F.);
#1010 = EDGE_CURVE('',#979,#1003,#1011,.T.);
#1011 = LINE('',#1012,#1013);
#1012 = CARTESIAN_POINT('',(0.75000019034,-0.950000047682,0.7));
#1013 = VECTOR('',#1014,1.);
#1014 = DIRECTION('',(1.,8.742279776729E-08,0.));
#1015 = PLANE('',#1016);
#1016 = AXIS2_PLACEMENT_3D('',#1017,#1018,#1019);
#1017 = CARTESIAN_POINT('',(0.750000177227,-0.800000047682,0.7));
#1018 = DIRECTION('',(-1.92330155088E-23,2.2E-16,-1.));
#1019 = DIRECTION('',(1.,8.742279776729E-08,0.));
#1020 = ADVANCED_FACE('',(#1021),#1032,.T.);
#1021 = FACE_BOUND('',#1022,.T.);
#1022 = EDGE_LOOP('',(#1023,#1024,#1025,#1026));
#1023 = ORIENTED_EDGE('',*,*,#1002,.F.);
#1024 = ORIENTED_EDGE('',*,*,#931,.T.);
#1025 = ORIENTED_EDGE('',*,*,#945,.T.);
#1026 = ORIENTED_EDGE('',*,*,#1027,.F.);
#1027 = EDGE_CURVE('',#1003,#946,#1028,.T.);
#1028 = LINE('',#1029,#1030);
#1029 = CARTESIAN_POINT('',(1.15000019034,-0.950000012713,0.7));
#1030 = VECTOR('',#1031,1.);
#1031 = DIRECTION('',(-1.92330155088E-23,2.2E-16,1.));
#1032 = PLANE('',#1033);
#1033 = AXIS2_PLACEMENT_3D('',#1034,#1035,#1036);
#1034 = CARTESIAN_POINT('',(1.150000177227,-0.800000012713,0.7));
#1035 = DIRECTION('',(1.,8.742279754729E-08,0.));
#1036 = DIRECTION('',(-1.92330154604E-23,2.2E-16,1.));
#1037 = ADVANCED_FACE('',(#1038),#1065,.T.);
#1038 = FACE_BOUND('',#1039,.T.);
#1039 = EDGE_LOOP('',(#1040,#1049,#1050,#1059));
#1040 = ORIENTED_EDGE('',*,*,#1041,.F.);
#1041 = EDGE_CURVE('',#946,#1042,#1044,.T.);
#1042 = VERTEX_POINT('',#1043);
#1043 = CARTESIAN_POINT('',(1.150000205363,-1.121840376776,
    0.708104218438));
#1044 = CIRCLE('',#1045,0.175);
#1045 = AXIS2_PLACEMENT_3D('',#1046,#1047,#1048);
#1046 = CARTESIAN_POINT('',(1.15000019034,-0.950000012713,0.675));
#1047 = DIRECTION('',(1.,8.742279754729E-08,-2.2E-16));
#1048 = DIRECTION('',(8.742279754729E-08,-1.,2.2E-16));
#1049 = ORIENTED_EDGE('',*,*,#962,.T.);
#1050 = ORIENTED_EDGE('',*,*,#1051,.T.);
#1051 = EDGE_CURVE('',#955,#1052,#1054,.T.);
#1052 = VERTEX_POINT('',#1053);
#1053 = CARTESIAN_POINT('',(0.750000205363,-1.121840411746,
    0.708104218438));
#1054 = CIRCLE('',#1055,0.175);
#1055 = AXIS2_PLACEMENT_3D('',#1056,#1057,#1058);
#1056 = CARTESIAN_POINT('',(0.75000019034,-0.950000047682,0.675));
#1057 = DIRECTION('',(1.,8.742279754729E-08,-2.2E-16));
#1058 = DIRECTION('',(8.742279754729E-08,-1.,2.2E-16));
#1059 = ORIENTED_EDGE('',*,*,#1060,.T.);
#1060 = EDGE_CURVE('',#1052,#1042,#1061,.T.);
#1061 = LINE('',#1062,#1063);
#1062 = CARTESIAN_POINT('',(1.150000205363,-1.121840376776,
    0.708104218438));
#1063 = VECTOR('',#1064,1.);
#1064 = DIRECTION('',(1.,8.742279754729E-08,-2.2E-16));
#1065 = CYLINDRICAL_SURFACE('',#1066,0.175);
#1066 = AXIS2_PLACEMENT_3D('',#1067,#1068,#1069);
#1067 = CARTESIAN_POINT('',(1.15000019034,-0.950000012713,0.675));
#1068 = DIRECTION('',(1.,8.742279754729E-08,-2.2E-16));
#1069 = DIRECTION('',(8.742279754729E-08,-1.,2.2E-16));
#1070 = ADVANCED_FACE('',(#1071),#1090,.F.);
#1071 = FACE_BOUND('',#1072,.F.);
#1072 = EDGE_LOOP('',(#1073,#1074,#1082,#1089));
#1073 = ORIENTED_EDGE('',*,*,#1051,.T.);
#1074 = ORIENTED_EDGE('',*,*,#1075,.T.);
#1075 = EDGE_CURVE('',#1052,#1076,#1078,.T.);
#1076 = VERTEX_POINT('',#1077);
#1077 = CARTESIAN_POINT('',(0.750000192486,-0.974548671119,
    0.679729174063));
#1078 = LINE('',#1079,#1080);
#1079 = CARTESIAN_POINT('',(0.750000205363,-1.121840411746,
    0.708104218438));
#1080 = VECTOR('',#1081,1.);
#1081 = DIRECTION('',(-8.584437351034E-08,0.981944937508,-0.189166962505
    ));
#1082 = ORIENTED_EDGE('',*,*,#1083,.F.);
#1083 = EDGE_CURVE('',#979,#1076,#1084,.T.);
#1084 = CIRCLE('',#1085,2.5E-02);
#1085 = AXIS2_PLACEMENT_3D('',#1086,#1087,#1088);
#1086 = CARTESIAN_POINT('',(0.75000019034,-0.950000047682,0.675));
#1087 = DIRECTION('',(1.,8.742279754729E-08,-2.2E-16));
#1088 = DIRECTION('',(8.742279754729E-08,-1.,2.2E-16));
#1089 = ORIENTED_EDGE('',*,*,#986,.F.);
#1090 = PLANE('',#1091);
#1091 = AXIS2_PLACEMENT_3D('',#1092,#1093,#1094);
#1092 = CARTESIAN_POINT('',(0.750000195906,-1.013672374382,
    0.752109239476));
#1093 = DIRECTION('',(1.,8.742279754729E-08,-2.2E-16));
#1094 = DIRECTION('',(6.741105417704E-08,-0.771092394757,-0.636723267007
    ));
#1095 = ADVANCED_FACE('',(#1096),#1115,.F.);
#1096 = FACE_BOUND('',#1097,.F.);
#1097 = EDGE_LOOP('',(#1098,#1099,#1107,#1114));
#1098 = ORIENTED_EDGE('',*,*,#1083,.T.);
#1099 = ORIENTED_EDGE('',*,*,#1100,.T.);
#1100 = EDGE_CURVE('',#1076,#1101,#1103,.T.);
#1101 = VERTEX_POINT('',#1102);
#1102 = CARTESIAN_POINT('',(1.150000192486,-0.97454863615,0.679729174063
    ));
#1103 = LINE('',#1104,#1105);
#1104 = CARTESIAN_POINT('',(0.750000192486,-0.974548671119,
    0.679729174063));
#1105 = VECTOR('',#1106,1.);
#1106 = DIRECTION('',(1.,8.742279754729E-08,-2.2E-16));
#1107 = ORIENTED_EDGE('',*,*,#1108,.F.);
#1108 = EDGE_CURVE('',#1003,#1101,#1109,.T.);
#1109 = CIRCLE('',#1110,2.5E-02);
#1110 = AXIS2_PLACEMENT_3D('',#1111,#1112,#1113);
#1111 = CARTESIAN_POINT('',(1.15000019034,-0.950000012713,0.675));
#1112 = DIRECTION('',(1.,8.742279754729E-08,-2.2E-16));
#1113 = DIRECTION('',(8.742279754729E-08,-1.,2.2E-16));
#1114 = ORIENTED_EDGE('',*,*,#1010,.F.);
#1115 = CYLINDRICAL_SURFACE('',#1116,2.5E-02);
#1116 = AXIS2_PLACEMENT_3D('',#1117,#1118,#1119);
#1117 = CARTESIAN_POINT('',(0.75000019034,-0.950000047682,0.675));
#1118 = DIRECTION('',(1.,8.742279754729E-08,-2.2E-16));
#1119 = DIRECTION('',(8.742279754729E-08,-1.,2.2E-16));
#1120 = ADVANCED_FACE('',(#1121),#1132,.F.);
#1121 = FACE_BOUND('',#1122,.F.);
#1122 = EDGE_LOOP('',(#1123,#1124,#1130,#1131));
#1123 = ORIENTED_EDGE('',*,*,#1108,.T.);
#1124 = ORIENTED_EDGE('',*,*,#1125,.T.);
#1125 = EDGE_CURVE('',#1101,#1042,#1126,.T.);
#1126 = LINE('',#1127,#1128);
#1127 = CARTESIAN_POINT('',(1.150000192486,-0.97454863615,0.679729174063
    ));
#1128 = VECTOR('',#1129,1.);
#1129 = DIRECTION('',(8.584437351034E-08,-0.981944937508,0.189166962505)
  );
#1130 = ORIENTED_EDGE('',*,*,#1041,.F.);
#1131 = ORIENTED_EDGE('',*,*,#1027,.F.);
#1132 = PLANE('',#1133);
#1133 = AXIS2_PLACEMENT_3D('',#1134,#1135,#1136);
#1134 = CARTESIAN_POINT('',(1.150000195906,-1.013672339413,
    0.752109239476));
#1135 = DIRECTION('',(-1.,-8.742279754729E-08,2.2E-16));
#1136 = DIRECTION('',(6.741105417704E-08,-0.771092394757,-0.636723267007
    ));
#1137 = ADVANCED_FACE('',(#1138),#1163,.T.);
#1138 = FACE_BOUND('',#1139,.T.);
#1139 = EDGE_LOOP('',(#1140,#1148,#1149,#1157));
#1140 = ORIENTED_EDGE('',*,*,#1141,.F.);
#1141 = EDGE_CURVE('',#1042,#1142,#1144,.T.);
#1142 = VERTEX_POINT('',#1143);
#1143 = CARTESIAN_POINT('',(1.150000214421,-1.225451389275,
    0.170270825937));
#1144 = LINE('',#1145,#1146);
#1145 = CARTESIAN_POINT('',(1.150000205363,-1.121840376776,
    0.708104218438));
#1146 = VECTOR('',#1147,1.);
#1147 = DIRECTION('',(1.653750506729E-08,-0.189166962505,-0.981944937508
    ));
#1148 = ORIENTED_EDGE('',*,*,#1060,.F.);
#1149 = ORIENTED_EDGE('',*,*,#1150,.T.);
#1150 = EDGE_CURVE('',#1052,#1151,#1153,.T.);
#1151 = VERTEX_POINT('',#1152);
#1152 = CARTESIAN_POINT('',(0.750000214421,-1.225451424244,
    0.170270825937));
#1153 = LINE('',#1154,#1155);
#1154 = CARTESIAN_POINT('',(0.750000205363,-1.121840411746,
    0.708104218438));
#1155 = VECTOR('',#1156,1.);
#1156 = DIRECTION('',(1.653750506729E-08,-0.189166962505,-0.981944937508
    ));
#1157 = ORIENTED_EDGE('',*,*,#1158,.F.);
#1158 = EDGE_CURVE('',#1142,#1151,#1159,.T.);
#1159 = LINE('',#1160,#1161);
#1160 = CARTESIAN_POINT('',(1.150000214421,-1.225451389275,
    0.170270825937));
#1161 = VECTOR('',#1162,1.);
#1162 = DIRECTION('',(-1.,-8.742279758729E-08,0.));
#1163 = PLANE('',#1164);
#1164 = AXIS2_PLACEMENT_3D('',#1165,#1166,#1167);
#1165 = CARTESIAN_POINT('',(1.150000205363,-1.121840376776,
    0.708104218438));
#1166 = DIRECTION('',(8.584437351034E-08,-0.981944937508,0.189166962505)
  );
#1167 = DIRECTION('',(-1.,-8.74227975841E-08,-6.147758393132E-19));
#1168 = ADVANCED_FACE('',(#1169),#1187,.T.);
#1169 = FACE_BOUND('',#1170,.T.);
#1170 = EDGE_LOOP('',(#1171,#1172,#1173,#1181));
#1171 = ORIENTED_EDGE('',*,*,#1150,.F.);
#1172 = ORIENTED_EDGE('',*,*,#1075,.T.);
#1173 = ORIENTED_EDGE('',*,*,#1174,.T.);
#1174 = EDGE_CURVE('',#1076,#1175,#1177,.T.);
#1175 = VERTEX_POINT('',#1176);
#1176 = CARTESIAN_POINT('',(0.750000201544,-1.078159683618,
    0.141895781562));
#1177 = LINE('',#1178,#1179);
#1178 = CARTESIAN_POINT('',(0.750000192486,-0.974548671119,
    0.679729174063));
#1179 = VECTOR('',#1180,1.);
#1180 = DIRECTION('',(1.653750484731E-08,-0.189166962505,-0.981944937508
    ));
#1181 = ORIENTED_EDGE('',*,*,#1182,.F.);
#1182 = EDGE_CURVE('',#1151,#1175,#1183,.T.);
#1183 = LINE('',#1184,#1185);
#1184 = CARTESIAN_POINT('',(0.750000214421,-1.225451424244,
    0.170270825937));
#1185 = VECTOR('',#1186,1.);
#1186 = DIRECTION('',(-8.584437351034E-08,0.981944937508,-0.189166962505
    ));
#1187 = PLANE('',#1188);
#1188 = AXIS2_PLACEMENT_3D('',#1189,#1190,#1191);
#1189 = CARTESIAN_POINT('',(0.750000205363,-1.121840411746,
    0.708104218438));
#1190 = DIRECTION('',(-1.,-8.742279754729E-08,2.2E-16));
#1191 = DIRECTION('',(-8.584437351593E-08,0.981944937508,-0.189166962505
    ));
#1192 = ADVANCED_FACE('',(#1193),#1211,.T.);
#1193 = FACE_BOUND('',#1194,.T.);
#1194 = EDGE_LOOP('',(#1195,#1196,#1197,#1205));
#1195 = ORIENTED_EDGE('',*,*,#1174,.F.);
#1196 = ORIENTED_EDGE('',*,*,#1100,.T.);
#1197 = ORIENTED_EDGE('',*,*,#1198,.T.);
#1198 = EDGE_CURVE('',#1101,#1199,#1201,.T.);
#1199 = VERTEX_POINT('',#1200);
#1200 = CARTESIAN_POINT('',(1.150000201544,-1.078159648649,
    0.141895781562));
#1201 = LINE('',#1202,#1203);
#1202 = CARTESIAN_POINT('',(1.150000192486,-0.97454863615,0.679729174063
    ));
#1203 = VECTOR('',#1204,1.);
#1204 = DIRECTION('',(1.653750506729E-08,-0.189166962505,-0.981944937508
    ));
#1205 = ORIENTED_EDGE('',*,*,#1206,.F.);
#1206 = EDGE_CURVE('',#1175,#1199,#1207,.T.);
#1207 = LINE('',#1208,#1209);
#1208 = CARTESIAN_POINT('',(0.750000201544,-1.078159683618,
    0.141895781562));
#1209 = VECTOR('',#1210,1.);
#1210 = DIRECTION('',(1.,8.742279758729E-08,0.));
#1211 = PLANE('',#1212);
#1212 = AXIS2_PLACEMENT_3D('',#1213,#1214,#1215);
#1213 = CARTESIAN_POINT('',(0.750000192486,-0.974548671119,
    0.679729174063));
#1214 = DIRECTION('',(-8.584437351034E-08,0.981944937508,-0.189166962505
    ));
#1215 = DIRECTION('',(1.,8.74227975841E-08,6.147758393132E-19));
#1216 = ADVANCED_FACE('',(#1217),#1228,.T.);
#1217 = FACE_BOUND('',#1218,.T.);
#1218 = EDGE_LOOP('',(#1219,#1220,#1221,#1222));
#1219 = ORIENTED_EDGE('',*,*,#1198,.F.);
#1220 = ORIENTED_EDGE('',*,*,#1125,.T.);
#1221 = ORIENTED_EDGE('',*,*,#1141,.T.);
#1222 = ORIENTED_EDGE('',*,*,#1223,.F.);
#1223 = EDGE_CURVE('',#1199,#1142,#1224,.T.);
#1224 = LINE('',#1225,#1226);
#1225 = CARTESIAN_POINT('',(1.150000201544,-1.078159648649,
    0.141895781562));
#1226 = VECTOR('',#1227,1.);
#1227 = DIRECTION('',(8.584437351034E-08,-0.981944937508,0.189166962505)
  );
#1228 = PLANE('',#1229);
#1229 = AXIS2_PLACEMENT_3D('',#1230,#1231,#1232);
#1230 = CARTESIAN_POINT('',(1.150000192486,-0.97454863615,0.679729174063
    ));
#1231 = DIRECTION('',(1.,8.742279754729E-08,-2.2E-16));
#1232 = DIRECTION('',(8.584437351593E-08,-0.981944937508,0.189166962505)
  );
#1233 = ADVANCED_FACE('',(#1234),#1261,.F.);
#1234 = FACE_BOUND('',#1235,.F.);
#1235 = EDGE_LOOP('',(#1236,#1245,#1253,#1260));
#1236 = ORIENTED_EDGE('',*,*,#1237,.T.);
#1237 = EDGE_CURVE('',#1142,#1238,#1240,.T.);
#1238 = VERTEX_POINT('',#1239);
#1239 = CARTESIAN_POINT('',(1.150000216567,-1.250000012713,0.15));
#1240 = CIRCLE('',#1241,2.5E-02);
#1241 = AXIS2_PLACEMENT_3D('',#1242,#1243,#1244);
#1242 = CARTESIAN_POINT('',(1.150000216567,-1.250000012713,0.175));
#1243 = DIRECTION('',(-1.,-8.742279754729E-08,2.2E-16));
#1244 = DIRECTION('',(8.742279754729E-08,-1.,-8.9E-16));
#1245 = ORIENTED_EDGE('',*,*,#1246,.T.);
#1246 = EDGE_CURVE('',#1238,#1247,#1249,.T.);
#1247 = VERTEX_POINT('',#1248);
#1248 = CARTESIAN_POINT('',(0.750000216567,-1.250000047682,0.15));
#1249 = LINE('',#1250,#1251);
#1250 = CARTESIAN_POINT('',(1.150000216567,-1.250000012713,0.15));
#1251 = VECTOR('',#1252,1.);
#1252 = DIRECTION('',(-1.,-8.742279754729E-08,2.2E-16));
#1253 = ORIENTED_EDGE('',*,*,#1254,.F.);
#1254 = EDGE_CURVE('',#1151,#1247,#1255,.T.);
#1255 = CIRCLE('',#1256,2.5E-02);
#1256 = AXIS2_PLACEMENT_3D('',#1257,#1258,#1259);
#1257 = CARTESIAN_POINT('',(0.750000216567,-1.250000047682,0.175));
#1258 = DIRECTION('',(-1.,-8.742279754729E-08,2.2E-16));
#1259 = DIRECTION('',(8.742279754729E-08,-1.,-8.9E-16));
#1260 = ORIENTED_EDGE('',*,*,#1158,.F.);
#1261 = CYLINDRICAL_SURFACE('',#1262,2.5E-02);
#1262 = AXIS2_PLACEMENT_3D('',#1263,#1264,#1265);
#1263 = CARTESIAN_POINT('',(1.150000216567,-1.250000012713,0.175));
#1264 = DIRECTION('',(-1.,-8.742279754729E-08,2.2E-16));
#1265 = DIRECTION('',(8.742279754729E-08,-1.,-8.9E-16));
#1266 = ADVANCED_FACE('',(#1267),#1286,.F.);
#1267 = FACE_BOUND('',#1268,.F.);
#1268 = EDGE_LOOP('',(#1269,#1270,#1278,#1285));
#1269 = ORIENTED_EDGE('',*,*,#1254,.T.);
#1270 = ORIENTED_EDGE('',*,*,#1271,.T.);
#1271 = EDGE_CURVE('',#1247,#1272,#1274,.T.);
#1272 = VERTEX_POINT('',#1273);
#1273 = CARTESIAN_POINT('',(0.750000216567,-1.250000047682,0.));
#1274 = LINE('',#1275,#1276);
#1275 = CARTESIAN_POINT('',(0.750000216567,-1.250000047682,0.15));
#1276 = VECTOR('',#1277,1.);
#1277 = DIRECTION('',(-2.20000080429E-16,9.19999980767E-16,-1.));
#1278 = ORIENTED_EDGE('',*,*,#1279,.F.);
#1279 = EDGE_CURVE('',#1175,#1272,#1280,.T.);
#1280 = CIRCLE('',#1281,0.175);
#1281 = AXIS2_PLACEMENT_3D('',#1282,#1283,#1284);
#1282 = CARTESIAN_POINT('',(0.750000216567,-1.250000047682,0.175));
#1283 = DIRECTION('',(-1.,-8.742279754729E-08,2.2E-16));
#1284 = DIRECTION('',(8.742279754729E-08,-1.,-2.5E-16));
#1285 = ORIENTED_EDGE('',*,*,#1182,.F.);
#1286 = PLANE('',#1287);
#1287 = AXIS2_PLACEMENT_3D('',#1288,#1289,#1290);
#1288 = CARTESIAN_POINT('',(0.750000211,-1.186327720981,
    9.789076052428E-02));
#1289 = DIRECTION('',(1.,8.742279754729E-08,-2.2E-16));
#1290 = DIRECTION('',(6.741105417704E-08,-0.771092394757,-0.636723267007
    ));
#1291 = ADVANCED_FACE('',(#1292),#1311,.T.);
#1292 = FACE_BOUND('',#1293,.T.);
#1293 = EDGE_LOOP('',(#1294,#1295,#1296,#1305));
#1294 = ORIENTED_EDGE('',*,*,#1279,.F.);
#1295 = ORIENTED_EDGE('',*,*,#1206,.T.);
#1296 = ORIENTED_EDGE('',*,*,#1297,.T.);
#1297 = EDGE_CURVE('',#1199,#1298,#1300,.T.);
#1298 = VERTEX_POINT('',#1299);
#1299 = CARTESIAN_POINT('',(1.150000216567,-1.250000012713,0.));
#1300 = CIRCLE('',#1301,0.175);
#1301 = AXIS2_PLACEMENT_3D('',#1302,#1303,#1304);
#1302 = CARTESIAN_POINT('',(1.150000216567,-1.250000012713,0.175));
#1303 = DIRECTION('',(-1.,-8.742279754729E-08,2.2E-16));
#1304 = DIRECTION('',(8.742279754729E-08,-1.,-2.5E-16));
#1305 = ORIENTED_EDGE('',*,*,#1306,.T.);
#1306 = EDGE_CURVE('',#1298,#1272,#1307,.T.);
#1307 = LINE('',#1308,#1309);
#1308 = CARTESIAN_POINT('',(0.750000216567,-1.250000047682,1.3E-16));
#1309 = VECTOR('',#1310,1.);
#1310 = DIRECTION('',(-1.,-8.742279754729E-08,2.2E-16));
#1311 = CYLINDRICAL_SURFACE('',#1312,0.175);
#1312 = AXIS2_PLACEMENT_3D('',#1313,#1314,#1315);
#1313 = CARTESIAN_POINT('',(0.750000216567,-1.250000047682,0.175));
#1314 = DIRECTION('',(-1.,-8.742279754729E-08,2.2E-16));
#1315 = DIRECTION('',(8.742279754729E-08,-1.,-2.5E-16));
#1316 = ADVANCED_FACE('',(#1317),#1328,.F.);
#1317 = FACE_BOUND('',#1318,.F.);
#1318 = EDGE_LOOP('',(#1319,#1320,#1326,#1327));
#1319 = ORIENTED_EDGE('',*,*,#1297,.T.);
#1320 = ORIENTED_EDGE('',*,*,#1321,.T.);
#1321 = EDGE_CURVE('',#1298,#1238,#1322,.T.);
#1322 = LINE('',#1323,#1324);
#1323 = CARTESIAN_POINT('',(1.150000216567,-1.250000012713,1.E-16));
#1324 = VECTOR('',#1325,1.);
#1325 = DIRECTION('',(2.20000080429E-16,-9.19999980767E-16,1.));
#1326 = ORIENTED_EDGE('',*,*,#1237,.F.);
#1327 = ORIENTED_EDGE('',*,*,#1223,.F.);
#1328 = PLANE('',#1329);
#1329 = AXIS2_PLACEMENT_3D('',#1330,#1331,#1332);
#1330 = CARTESIAN_POINT('',(1.150000211,-1.186327686012,
    9.789076052428E-02));
#1331 = DIRECTION('',(-1.,-8.742279754729E-08,2.2E-16));
#1332 = DIRECTION('',(6.741105417704E-08,-0.771092394757,-0.636723267007
    ));
#1333 = ADVANCED_FACE('',(#1334),#1359,.T.);
#1334 = FACE_BOUND('',#1335,.T.);
#1335 = EDGE_LOOP('',(#1336,#1344,#1345,#1353));
#1336 = ORIENTED_EDGE('',*,*,#1337,.F.);
#1337 = EDGE_CURVE('',#1238,#1338,#1340,.T.);
#1338 = VERTEX_POINT('',#1339);
#1339 = CARTESIAN_POINT('',(1.150000238423,-1.500000012713,0.15));
#1340 = LINE('',#1341,#1342);
#1341 = CARTESIAN_POINT('',(1.150000238423,-1.500000012713,0.15));
#1342 = VECTOR('',#1343,1.);
#1343 = DIRECTION('',(8.742279776729E-08,-1.,-2.2E-16));
#1344 = ORIENTED_EDGE('',*,*,#1246,.T.);
#1345 = ORIENTED_EDGE('',*,*,#1346,.T.);
#1346 = EDGE_CURVE('',#1247,#1347,#1349,.T.);
#1347 = VERTEX_POINT('',#1348);
#1348 = CARTESIAN_POINT('',(0.750000238423,-1.500000047682,0.15));
#1349 = LINE('',#1350,#1351);
#1350 = CARTESIAN_POINT('',(0.750000238423,-1.500000047682,0.15));
#1351 = VECTOR('',#1352,1.);
#1352 = DIRECTION('',(8.742279776729E-08,-1.,-2.2E-16));
#1353 = ORIENTED_EDGE('',*,*,#1354,.F.);
#1354 = EDGE_CURVE('',#1338,#1347,#1355,.T.);
#1355 = LINE('',#1356,#1357);
#1356 = CARTESIAN_POINT('',(1.150000238423,-1.500000012713,0.15));
#1357 = VECTOR('',#1358,1.);
#1358 = DIRECTION('',(-1.,-8.742279776729E-08,0.));
#1359 = PLANE('',#1360);
#1360 = AXIS2_PLACEMENT_3D('',#1361,#1362,#1363);
#1361 = CARTESIAN_POINT('',(1.150000238423,-1.500000012713,0.15));
#1362 = DIRECTION('',(1.92330155088E-23,-2.2E-16,1.));
#1363 = DIRECTION('',(-1.,-8.742279776729E-08,0.));
#1364 = ADVANCED_FACE('',(#1365),#1390,.T.);
#1365 = FACE_BOUND('',#1366,.T.);
#1366 = EDGE_LOOP('',(#1367,#1368,#1376,#1384));
#1367 = ORIENTED_EDGE('',*,*,#1354,.T.);
#1368 = ORIENTED_EDGE('',*,*,#1369,.T.);
#1369 = EDGE_CURVE('',#1347,#1370,#1372,.T.);
#1370 = VERTEX_POINT('',#1371);
#1371 = CARTESIAN_POINT('',(0.750000238423,-1.500000047682,0.));
#1372 = LINE('',#1373,#1374);
#1373 = CARTESIAN_POINT('',(0.750000238423,-1.500000047682,0.15));
#1374 = VECTOR('',#1375,1.);
#1375 = DIRECTION('',(1.92330155088E-23,-2.2E-16,-1.));
#1376 = ORIENTED_EDGE('',*,*,#1377,.T.);
#1377 = EDGE_CURVE('',#1370,#1378,#1380,.T.);
#1378 = VERTEX_POINT('',#1379);
#1379 = CARTESIAN_POINT('',(1.150000238423,-1.500000012713,0.));
#1380 = LINE('',#1381,#1382);
#1381 = CARTESIAN_POINT('',(0.750000238423,-1.500000047682,0.));
#1382 = VECTOR('',#1383,1.);
#1383 = DIRECTION('',(1.,8.742279776729E-08,0.));
#1384 = ORIENTED_EDGE('',*,*,#1385,.T.);
#1385 = EDGE_CURVE('',#1378,#1338,#1386,.T.);
#1386 = LINE('',#1387,#1388);
#1387 = CARTESIAN_POINT('',(1.150000238423,-1.500000012713,0.));
#1388 = VECTOR('',#1389,1.);
#1389 = DIRECTION('',(-1.92330155088E-23,2.2E-16,1.));
#1390 = PLANE('',#1391);
#1391 = AXIS2_PLACEMENT_3D('',#1392,#1393,#1394);
#1392 = CARTESIAN_POINT('',(0.950000238423,-1.500000030197,7.5E-02));
#1393 = DIRECTION('',(8.742279776729E-08,-1.,2.2E-16));
#1394 = DIRECTION('',(1.,8.742279776729E-08,0.));
#1395 = ADVANCED_FACE('',(#1396),#1407,.T.);
#1396 = FACE_BOUND('',#1397,.T.);
#1397 = EDGE_LOOP('',(#1398,#1399,#1400,#1406));
#1398 = ORIENTED_EDGE('',*,*,#1346,.F.);
#1399 = ORIENTED_EDGE('',*,*,#1271,.T.);
#1400 = ORIENTED_EDGE('',*,*,#1401,.T.);
#1401 = EDGE_CURVE('',#1272,#1370,#1402,.T.);
#1402 = LINE('',#1403,#1404);
#1403 = CARTESIAN_POINT('',(0.750000238423,-1.500000047682,2.E-17));
#1404 = VECTOR('',#1405,1.);
#1405 = DIRECTION('',(8.742279754729E-08,-1.,2.2E-16));
#1406 = ORIENTED_EDGE('',*,*,#1369,.F.);
#1407 = PLANE('',#1408);
#1408 = AXIS2_PLACEMENT_3D('',#1409,#1410,#1411);
#1409 = CARTESIAN_POINT('',(0.750000238423,-1.500000047682,0.15));
#1410 = DIRECTION('',(-1.,-8.742279754729E-08,0.));
#1411 = DIRECTION('',(1.92330154604E-23,-2.2E-16,-1.));
#1412 = ADVANCED_FACE('',(#1413),#1424,.T.);
#1413 = FACE_BOUND('',#1414,.T.);
#1414 = EDGE_LOOP('',(#1415,#1416,#1417,#1423));
#1415 = ORIENTED_EDGE('',*,*,#1401,.F.);
#1416 = ORIENTED_EDGE('',*,*,#1306,.F.);
#1417 = ORIENTED_EDGE('',*,*,#1418,.T.);
#1418 = EDGE_CURVE('',#1298,#1378,#1419,.T.);
#1419 = LINE('',#1420,#1421);
#1420 = CARTESIAN_POINT('',(1.150000238423,-1.500000012713,0.));
#1421 = VECTOR('',#1422,1.);
#1422 = DIRECTION('',(8.742279776729E-08,-1.,-2.2E-16));
#1423 = ORIENTED_EDGE('',*,*,#1377,.F.);
#1424 = PLANE('',#1425);
#1425 = AXIS2_PLACEMENT_3D('',#1426,#1427,#1428);
#1426 = CARTESIAN_POINT('',(0.750000238423,-1.500000047682,0.));
#1427 = DIRECTION('',(-1.92330155088E-23,2.2E-16,-1.));
#1428 = DIRECTION('',(1.,8.742279776729E-08,0.));
#1429 = ADVANCED_FACE('',(#1430),#1436,.T.);
#1430 = FACE_BOUND('',#1431,.T.);
#1431 = EDGE_LOOP('',(#1432,#1433,#1434,#1435));
#1432 = ORIENTED_EDGE('',*,*,#1418,.F.);
#1433 = ORIENTED_EDGE('',*,*,#1321,.T.);
#1434 = ORIENTED_EDGE('',*,*,#1337,.T.);
#1435 = ORIENTED_EDGE('',*,*,#1385,.F.);
#1436 = PLANE('',#1437);
#1437 = AXIS2_PLACEMENT_3D('',#1438,#1439,#1440);
#1438 = CARTESIAN_POINT('',(1.150000238423,-1.500000012713,0.));
#1439 = DIRECTION('',(1.,8.742279754729E-08,0.));
#1440 = DIRECTION('',(-1.92330154604E-23,2.2E-16,1.));
#1441 = MANIFOLD_SOLID_BREP('',#1442);
#1442 = CLOSED_SHELL('',(#1443,#1483,#1514,#1538,#1562,#1579,#1612,#1637
    ,#1662,#1679,#1710,#1734,#1758,#1775,#1808,#1833,#1858,#1875,#1906,
    #1937,#1954,#1971));
#1443 = ADVANCED_FACE('',(#1444),#1478,.F.);
#1444 = FACE_BOUND('',#1445,.F.);
#1445 = EDGE_LOOP('',(#1446,#1456,#1464,#1472));
#1446 = ORIENTED_EDGE('',*,*,#1447,.T.);
#1447 = EDGE_CURVE('',#1448,#1450,#1452,.T.);
#1448 = VERTEX_POINT('',#1449);
#1449 = CARTESIAN_POINT('',(-0.749999822773,-0.800000178816,0.85));
#1450 = VERTEX_POINT('',#1451);
#1451 = CARTESIAN_POINT('',(-1.149999822773,-0.800000213785,0.85));
#1452 = LINE('',#1453,#1454);
#1453 = CARTESIAN_POINT('',(-0.749999822773,-0.800000178816,0.85));
#1454 = VECTOR('',#1455,1.);
#1455 = DIRECTION('',(-1.,-8.742279776729E-08,0.));
#1456 = ORIENTED_EDGE('',*,*,#1457,.T.);
#1457 = EDGE_CURVE('',#1450,#1458,#1460,.T.);
#1458 = VERTEX_POINT('',#1459);
#1459 = CARTESIAN_POINT('',(-1.149999822773,-0.800000213785,0.7));
#1460 = LINE('',#1461,#1462);
#1461 = CARTESIAN_POINT('',(-1.149999822773,-0.800000213785,0.85));
#1462 = VECTOR('',#1463,1.);
#1463 = DIRECTION('',(1.92330155088E-23,-2.2E-16,-1.));
#1464 = ORIENTED_EDGE('',*,*,#1465,.T.);
#1465 = EDGE_CURVE('',#1458,#1466,#1468,.T.);
#1466 = VERTEX_POINT('',#1467);
#1467 = CARTESIAN_POINT('',(-0.749999822773,-0.800000178816,0.7));
#1468 = LINE('',#1469,#1470);
#1469 = CARTESIAN_POINT('',(-1.149999822773,-0.800000213785,0.7));
#1470 = VECTOR('',#1471,1.);
#1471 = DIRECTION('',(1.,8.742279776729E-08,0.));
#1472 = ORIENTED_EDGE('',*,*,#1473,.T.);
#1473 = EDGE_CURVE('',#1466,#1448,#1474,.T.);
#1474 = LINE('',#1475,#1476);
#1475 = CARTESIAN_POINT('',(-0.749999822773,-0.800000178816,0.7));
#1476 = VECTOR('',#1477,1.);
#1477 = DIRECTION('',(-1.92330155088E-23,2.2E-16,1.));
#1478 = PLANE('',#1479);
#1479 = AXIS2_PLACEMENT_3D('',#1480,#1481,#1482);
#1480 = CARTESIAN_POINT('',(-0.949999822773,-0.8000001963,0.775));
#1481 = DIRECTION('',(8.742279776729E-08,-1.,2.2E-16));
#1482 = DIRECTION('',(1.92330155088E-23,-2.2E-16,-1.));
#1483 = ADVANCED_FACE('',(#1484),#1509,.T.);
#1484 = FACE_BOUND('',#1485,.T.);
#1485 = EDGE_LOOP('',(#1486,#1494,#1495,#1503));
#1486 = ORIENTED_EDGE('',*,*,#1487,.F.);
#1487 = EDGE_CURVE('',#1448,#1488,#1490,.T.);
#1488 = VERTEX_POINT('',#1489);
#1489 = CARTESIAN_POINT('',(-0.74999980966,-0.950000178816,0.85));
#1490 = LINE('',#1491,#1492);
#1491 = CARTESIAN_POINT('',(-0.749999822773,-0.800000178816,0.85));
#1492 = VECTOR('',#1493,1.);
#1493 = DIRECTION('',(8.742279776729E-08,-1.,-2.2E-16));
#1494 = ORIENTED_EDGE('',*,*,#1447,.T.);
#1495 = ORIENTED_EDGE('',*,*,#1496,.T.);
#1496 = EDGE_CURVE('',#1450,#1497,#1499,.T.);
#1497 = VERTEX_POINT('',#1498);
#1498 = CARTESIAN_POINT('',(-1.14999980966,-0.950000213785,0.85));
#1499 = LINE('',#1500,#1501);
#1500 = CARTESIAN_POINT('',(-1.149999822773,-0.800000213785,0.85));
#1501 = VECTOR('',#1502,1.);
#1502 = DIRECTION('',(8.742279776729E-08,-1.,-2.2E-16));
#1503 = ORIENTED_EDGE('',*,*,#1504,.F.);
#1504 = EDGE_CURVE('',#1488,#1497,#1505,.T.);
#1505 = LINE('',#1506,#1507);
#1506 = CARTESIAN_POINT('',(-0.74999980966,-0.950000178816,0.85));
#1507 = VECTOR('',#1508,1.);
#1508 = DIRECTION('',(-1.,-8.742279776729E-08,0.));
#1509 = PLANE('',#1510);
#1510 = AXIS2_PLACEMENT_3D('',#1511,#1512,#1513);
#1511 = CARTESIAN_POINT('',(-0.749999822773,-0.800000178816,0.85));
#1512 = DIRECTION('',(1.92330155088E-23,-2.2E-16,1.));
#1513 = DIRECTION('',(-1.,-8.742279776729E-08,0.));
#1514 = ADVANCED_FACE('',(#1515),#1533,.T.);
#1515 = FACE_BOUND('',#1516,.T.);
#1516 = EDGE_LOOP('',(#1517,#1518,#1519,#1527));
#1517 = ORIENTED_EDGE('',*,*,#1496,.F.);
#1518 = ORIENTED_EDGE('',*,*,#1457,.T.);
#1519 = ORIENTED_EDGE('',*,*,#1520,.T.);
#1520 = EDGE_CURVE('',#1458,#1521,#1523,.T.);
#1521 = VERTEX_POINT('',#1522);
#1522 = CARTESIAN_POINT('',(-1.14999980966,-0.950000213785,0.7));
#1523 = LINE('',#1524,#1525);
#1524 = CARTESIAN_POINT('',(-1.149999822773,-0.800000213785,0.7));
#1525 = VECTOR('',#1526,1.);
#1526 = DIRECTION('',(8.742279754729E-08,-1.,2.2E-16));
#1527 = ORIENTED_EDGE('',*,*,#1528,.F.);
#1528 = EDGE_CURVE('',#1497,#1521,#1529,.T.);
#1529 = LINE('',#1530,#1531);
#1530 = CARTESIAN_POINT('',(-1.14999980966,-0.950000213785,0.85));
#1531 = VECTOR('',#1532,1.);
#1532 = DIRECTION('',(1.92330155088E-23,-2.2E-16,-1.));
#1533 = PLANE('',#1534);
#1534 = AXIS2_PLACEMENT_3D('',#1535,#1536,#1537);
#1535 = CARTESIAN_POINT('',(-1.149999822773,-0.800000213785,0.85));
#1536 = DIRECTION('',(-1.,-8.742279754729E-08,0.));
#1537 = DIRECTION('',(1.92330154604E-23,-2.2E-16,-1.));
#1538 = ADVANCED_FACE('',(#1539),#1557,.T.);
#1539 = FACE_BOUND('',#1540,.T.);
#1540 = EDGE_LOOP('',(#1541,#1542,#1543,#1551));
#1541 = ORIENTED_EDGE('',*,*,#1520,.F.);
#1542 = ORIENTED_EDGE('',*,*,#1465,.T.);
#1543 = ORIENTED_EDGE('',*,*,#1544,.T.);
#1544 = EDGE_CURVE('',#1466,#1545,#1547,.T.);
#1545 = VERTEX_POINT('',#1546);
#1546 = CARTESIAN_POINT('',(-0.74999980966,-0.950000178816,0.7));
#1547 = LINE('',#1548,#1549);
#1548 = CARTESIAN_POINT('',(-0.749999822773,-0.800000178816,0.7));
#1549 = VECTOR('',#1550,1.);
#1550 = DIRECTION('',(8.742279776729E-08,-1.,-2.2E-16));
#1551 = ORIENTED_EDGE('',*,*,#1552,.F.);
#1552 = EDGE_CURVE('',#1521,#1545,#1553,.T.);
#1553 = LINE('',#1554,#1555);
#1554 = CARTESIAN_POINT('',(-1.14999980966,-0.950000213785,0.7));
#1555 = VECTOR('',#1556,1.);
#1556 = DIRECTION('',(1.,8.742279776729E-08,0.));
#1557 = PLANE('',#1558);
#1558 = AXIS2_PLACEMENT_3D('',#1559,#1560,#1561);
#1559 = CARTESIAN_POINT('',(-1.149999822773,-0.800000213785,0.7));
#1560 = DIRECTION('',(-1.92330155088E-23,2.2E-16,-1.));
#1561 = DIRECTION('',(1.,8.742279776729E-08,0.));
#1562 = ADVANCED_FACE('',(#1563),#1574,.T.);
#1563 = FACE_BOUND('',#1564,.T.);
#1564 = EDGE_LOOP('',(#1565,#1566,#1567,#1568));
#1565 = ORIENTED_EDGE('',*,*,#1544,.F.);
#1566 = ORIENTED_EDGE('',*,*,#1473,.T.);
#1567 = ORIENTED_EDGE('',*,*,#1487,.T.);
#1568 = ORIENTED_EDGE('',*,*,#1569,.F.);
#1569 = EDGE_CURVE('',#1545,#1488,#1570,.T.);
#1570 = LINE('',#1571,#1572);
#1571 = CARTESIAN_POINT('',(-0.74999980966,-0.950000178816,0.7));
#1572 = VECTOR('',#1573,1.);
#1573 = DIRECTION('',(-1.92330155088E-23,2.2E-16,1.));
#1574 = PLANE('',#1575);
#1575 = AXIS2_PLACEMENT_3D('',#1576,#1577,#1578);
#1576 = CARTESIAN_POINT('',(-0.749999822773,-0.800000178816,0.7));
#1577 = DIRECTION('',(1.,8.742279754729E-08,0.));
#1578 = DIRECTION('',(-1.92330154604E-23,2.2E-16,1.));
#1579 = ADVANCED_FACE('',(#1580),#1607,.T.);
#1580 = FACE_BOUND('',#1581,.T.);
#1581 = EDGE_LOOP('',(#1582,#1591,#1592,#1601));
#1582 = ORIENTED_EDGE('',*,*,#1583,.F.);
#1583 = EDGE_CURVE('',#1488,#1584,#1586,.T.);
#1584 = VERTEX_POINT('',#1585);
#1585 = CARTESIAN_POINT('',(-0.749999794637,-1.12184054288,
    0.708104218438));
#1586 = CIRCLE('',#1587,0.175);
#1587 = AXIS2_PLACEMENT_3D('',#1588,#1589,#1590);
#1588 = CARTESIAN_POINT('',(-0.74999980966,-0.950000178816,0.675));
#1589 = DIRECTION('',(1.,8.742279754729E-08,-2.2E-16));
#1590 = DIRECTION('',(8.742279754729E-08,-1.,2.2E-16));
#1591 = ORIENTED_EDGE('',*,*,#1504,.T.);
#1592 = ORIENTED_EDGE('',*,*,#1593,.T.);
#1593 = EDGE_CURVE('',#1497,#1594,#1596,.T.);
#1594 = VERTEX_POINT('',#1595);
#1595 = CARTESIAN_POINT('',(-1.149999794637,-1.121840577849,
    0.708104218438));
#1596 = CIRCLE('',#1597,0.175);
#1597 = AXIS2_PLACEMENT_3D('',#1598,#1599,#1600);
#1598 = CARTESIAN_POINT('',(-1.14999980966,-0.950000213785,0.675));
#1599 = DIRECTION('',(1.,8.742279754729E-08,-2.2E-16));
#1600 = DIRECTION('',(8.742279754729E-08,-1.,2.2E-16));
#1601 = ORIENTED_EDGE('',*,*,#1602,.T.);
#1602 = EDGE_CURVE('',#1594,#1584,#1603,.T.);
#1603 = LINE('',#1604,#1605);
#1604 = CARTESIAN_POINT('',(-0.749999794637,-1.12184054288,
    0.708104218438));
#1605 = VECTOR('',#1606,1.);
#1606 = DIRECTION('',(1.,8.742279754729E-08,-2.2E-16));
#1607 = CYLINDRICAL_SURFACE('',#1608,0.175);
#1608 = AXIS2_PLACEMENT_3D('',#1609,#1610,#1611);
#1609 = CARTESIAN_POINT('',(-0.74999980966,-0.950000178816,0.675));
#1610 = DIRECTION('',(1.,8.742279754729E-08,-2.2E-16));
#1611 = DIRECTION('',(8.742279754729E-08,-1.,2.2E-16));
#1612 = ADVANCED_FACE('',(#1613),#1632,.F.);
#1613 = FACE_BOUND('',#1614,.F.);
#1614 = EDGE_LOOP('',(#1615,#1616,#1624,#1631));
#1615 = ORIENTED_EDGE('',*,*,#1593,.T.);
#1616 = ORIENTED_EDGE('',*,*,#1617,.T.);
#1617 = EDGE_CURVE('',#1594,#1618,#1620,.T.);
#1618 = VERTEX_POINT('',#1619);
#1619 = CARTESIAN_POINT('',(-1.149999807514,-0.974548837223,
    0.679729174063));
#1620 = LINE('',#1621,#1622);
#1621 = CARTESIAN_POINT('',(-1.149999794637,-1.121840577849,
    0.708104218438));
#1622 = VECTOR('',#1623,1.);
#1623 = DIRECTION('',(-8.584437351034E-08,0.981944937508,-0.189166962505
    ));
#1624 = ORIENTED_EDGE('',*,*,#1625,.F.);
#1625 = EDGE_CURVE('',#1521,#1618,#1626,.T.);
#1626 = CIRCLE('',#1627,2.5E-02);
#1627 = AXIS2_PLACEMENT_3D('',#1628,#1629,#1630);
#1628 = CARTESIAN_POINT('',(-1.14999980966,-0.950000213785,0.675));
#1629 = DIRECTION('',(1.,8.742279754729E-08,-2.2E-16));
#1630 = DIRECTION('',(8.742279754729E-08,-1.,2.2E-16));
#1631 = ORIENTED_EDGE('',*,*,#1528,.F.);
#1632 = PLANE('',#1633);
#1633 = AXIS2_PLACEMENT_3D('',#1634,#1635,#1636);
#1634 = CARTESIAN_POINT('',(-1.149999804094,-1.013672540486,
    0.752109239476));
#1635 = DIRECTION('',(1.,8.742279754729E-08,-2.2E-16));
#1636 = DIRECTION('',(6.741105417704E-08,-0.771092394757,-0.636723267007
    ));
#1637 = ADVANCED_FACE('',(#1638),#1657,.F.);
#1638 = FACE_BOUND('',#1639,.F.);
#1639 = EDGE_LOOP('',(#1640,#1641,#1649,#1656));
#1640 = ORIENTED_EDGE('',*,*,#1625,.T.);
#1641 = ORIENTED_EDGE('',*,*,#1642,.T.);
#1642 = EDGE_CURVE('',#1618,#1643,#1645,.T.);
#1643 = VERTEX_POINT('',#1644);
#1644 = CARTESIAN_POINT('',(-0.749999807514,-0.974548802254,
    0.679729174063));
#1645 = LINE('',#1646,#1647);
#1646 = CARTESIAN_POINT('',(-1.149999807514,-0.974548837223,
    0.679729174063));
#1647 = VECTOR('',#1648,1.);
#1648 = DIRECTION('',(1.,8.742279754729E-08,-2.2E-16));
#1649 = ORIENTED_EDGE('',*,*,#1650,.F.);
#1650 = EDGE_CURVE('',#1545,#1643,#1651,.T.);
#1651 = CIRCLE('',#1652,2.5E-02);
#1652 = AXIS2_PLACEMENT_3D('',#1653,#1654,#1655);
#1653 = CARTESIAN_POINT('',(-0.74999980966,-0.950000178816,0.675));
#1654 = DIRECTION('',(1.,8.742279754729E-08,-2.2E-16));
#1655 = DIRECTION('',(8.742279754729E-08,-1.,2.2E-16));
#1656 = ORIENTED_EDGE('',*,*,#1552,.F.);
#1657 = CYLINDRICAL_SURFACE('',#1658,2.5E-02);
#1658 = AXIS2_PLACEMENT_3D('',#1659,#1660,#1661);
#1659 = CARTESIAN_POINT('',(-1.14999980966,-0.950000213785,0.675));
#1660 = DIRECTION('',(1.,8.742279754729E-08,-2.2E-16));
#1661 = DIRECTION('',(8.742279754729E-08,-1.,2.2E-16));
#1662 = ADVANCED_FACE('',(#1663),#1674,.F.);
#1663 = FACE_BOUND('',#1664,.F.);
#1664 = EDGE_LOOP('',(#1665,#1666,#1672,#1673));
#1665 = ORIENTED_EDGE('',*,*,#1650,.T.);
#1666 = ORIENTED_EDGE('',*,*,#1667,.T.);
#1667 = EDGE_CURVE('',#1643,#1584,#1668,.T.);
#1668 = LINE('',#1669,#1670);
#1669 = CARTESIAN_POINT('',(-0.749999807514,-0.974548802254,
    0.679729174063));
#1670 = VECTOR('',#1671,1.);
#1671 = DIRECTION('',(8.584437351034E-08,-0.981944937508,0.189166962505)
  );
#1672 = ORIENTED_EDGE('',*,*,#1583,.F.);
#1673 = ORIENTED_EDGE('',*,*,#1569,.F.);
#1674 = PLANE('',#1675);
#1675 = AXIS2_PLACEMENT_3D('',#1676,#1677,#1678);
#1676 = CARTESIAN_POINT('',(-0.749999804094,-1.013672505517,
    0.752109239476));
#1677 = DIRECTION('',(-1.,-8.742279754729E-08,2.2E-16));
#1678 = DIRECTION('',(6.741105417704E-08,-0.771092394757,-0.636723267007
    ));
#1679 = ADVANCED_FACE('',(#1680),#1705,.T.);
#1680 = FACE_BOUND('',#1681,.T.);
#1681 = EDGE_LOOP('',(#1682,#1690,#1691,#1699));
#1682 = ORIENTED_EDGE('',*,*,#1683,.F.);
#1683 = EDGE_CURVE('',#1584,#1684,#1686,.T.);
#1684 = VERTEX_POINT('',#1685);
#1685 = CARTESIAN_POINT('',(-0.749999785579,-1.225451555378,
    0.170270825937));
#1686 = LINE('',#1687,#1688);
#1687 = CARTESIAN_POINT('',(-0.749999794637,-1.12184054288,
    0.708104218438));
#1688 = VECTOR('',#1689,1.);
#1689 = DIRECTION('',(1.653750506729E-08,-0.189166962505,-0.981944937508
    ));
#1690 = ORIENTED_EDGE('',*,*,#1602,.F.);
#1691 = ORIENTED_EDGE('',*,*,#1692,.T.);
#1692 = EDGE_CURVE('',#1594,#1693,#1695,.T.);
#1693 = VERTEX_POINT('',#1694);
#1694 = CARTESIAN_POINT('',(-1.149999785579,-1.225451590347,
    0.170270825937));
#1695 = LINE('',#1696,#1697);
#1696 = CARTESIAN_POINT('',(-1.149999794637,-1.121840577849,
    0.708104218438));
#1697 = VECTOR('',#1698,1.);
#1698 = DIRECTION('',(1.653750506729E-08,-0.189166962505,-0.981944937508
    ));
#1699 = ORIENTED_EDGE('',*,*,#1700,.F.);
#1700 = EDGE_CURVE('',#1684,#1693,#1701,.T.);
#1701 = LINE('',#1702,#1703);
#1702 = CARTESIAN_POINT('',(-0.749999785579,-1.225451555378,
    0.170270825937));
#1703 = VECTOR('',#1704,1.);
#1704 = DIRECTION('',(-1.,-8.742279758729E-08,0.));
#1705 = PLANE('',#1706);
#1706 = AXIS2_PLACEMENT_3D('',#1707,#1708,#1709);
#1707 = CARTESIAN_POINT('',(-0.749999794637,-1.12184054288,
    0.708104218438));
#1708 = DIRECTION('',(8.584437351034E-08,-0.981944937508,0.189166962505)
  );
#1709 = DIRECTION('',(-1.,-8.74227975841E-08,-6.147758393132E-19));
#1710 = ADVANCED_FACE('',(#1711),#1729,.T.);
#1711 = FACE_BOUND('',#1712,.T.);
#1712 = EDGE_LOOP('',(#1713,#1714,#1715,#1723));
#1713 = ORIENTED_EDGE('',*,*,#1692,.F.);
#1714 = ORIENTED_EDGE('',*,*,#1617,.T.);
#1715 = ORIENTED_EDGE('',*,*,#1716,.T.);
#1716 = EDGE_CURVE('',#1618,#1717,#1719,.T.);
#1717 = VERTEX_POINT('',#1718);
#1718 = CARTESIAN_POINT('',(-1.149999798456,-1.078159849721,
    0.141895781562));
#1719 = LINE('',#1720,#1721);
#1720 = CARTESIAN_POINT('',(-1.149999807514,-0.974548837223,
    0.679729174063));
#1721 = VECTOR('',#1722,1.);
#1722 = DIRECTION('',(1.653750484731E-08,-0.189166962505,-0.981944937508
    ));
#1723 = ORIENTED_EDGE('',*,*,#1724,.F.);
#1724 = EDGE_CURVE('',#1693,#1717,#1725,.T.);
#1725 = LINE('',#1726,#1727);
#1726 = CARTESIAN_POINT('',(-1.149999785579,-1.225451590347,
    0.170270825937));
#1727 = VECTOR('',#1728,1.);
#1728 = DIRECTION('',(-8.584437351034E-08,0.981944937508,-0.189166962505
    ));
#1729 = PLANE('',#1730);
#1730 = AXIS2_PLACEMENT_3D('',#1731,#1732,#1733);
#1731 = CARTESIAN_POINT('',(-1.149999794637,-1.121840577849,
    0.708104218438));
#1732 = DIRECTION('',(-1.,-8.742279754729E-08,2.2E-16));
#1733 = DIRECTION('',(-8.584437351593E-08,0.981944937508,-0.189166962505
    ));
#1734 = ADVANCED_FACE('',(#1735),#1753,.T.);
#1735 = FACE_BOUND('',#1736,.T.);
#1736 = EDGE_LOOP('',(#1737,#1738,#1739,#1747));
#1737 = ORIENTED_EDGE('',*,*,#1716,.F.);
#1738 = ORIENTED_EDGE('',*,*,#1642,.T.);
#1739 = ORIENTED_EDGE('',*,*,#1740,.T.);
#1740 = EDGE_CURVE('',#1643,#1741,#1743,.T.);
#1741 = VERTEX_POINT('',#1742);
#1742 = CARTESIAN_POINT('',(-0.749999798456,-1.078159814752,
    0.141895781562));
#1743 = LINE('',#1744,#1745);
#1744 = CARTESIAN_POINT('',(-0.749999807514,-0.974548802254,
    0.679729174063));
#1745 = VECTOR('',#1746,1.);
#1746 = DIRECTION('',(1.653750506729E-08,-0.189166962505,-0.981944937508
    ));
#1747 = ORIENTED_EDGE('',*,*,#1748,.F.);
#1748 = EDGE_CURVE('',#1717,#1741,#1749,.T.);
#1749 = LINE('',#1750,#1751);
#1750 = CARTESIAN_POINT('',(-1.149999798456,-1.078159849721,
    0.141895781562));
#1751 = VECTOR('',#1752,1.);
#1752 = DIRECTION('',(1.,8.742279758729E-08,0.));
#1753 = PLANE('',#1754);
#1754 = AXIS2_PLACEMENT_3D('',#1755,#1756,#1757);
#1755 = CARTESIAN_POINT('',(-1.149999807514,-0.974548837223,
    0.679729174063));
#1756 = DIRECTION('',(-8.584437351034E-08,0.981944937508,-0.189166962505
    ));
#1757 = DIRECTION('',(1.,8.74227975841E-08,6.147758393132E-19));
#1758 = ADVANCED_FACE('',(#1759),#1770,.T.);
#1759 = FACE_BOUND('',#1760,.T.);
#1760 = EDGE_LOOP('',(#1761,#1762,#1763,#1764));
#1761 = ORIENTED_EDGE('',*,*,#1740,.F.);
#1762 = ORIENTED_EDGE('',*,*,#1667,.T.);
#1763 = ORIENTED_EDGE('',*,*,#1683,.T.);
#1764 = ORIENTED_EDGE('',*,*,#1765,.F.);
#1765 = EDGE_CURVE('',#1741,#1684,#1766,.T.);
#1766 = LINE('',#1767,#1768);
#1767 = CARTESIAN_POINT('',(-0.749999798456,-1.078159814752,
    0.141895781562));
#1768 = VECTOR('',#1769,1.);
#1769 = DIRECTION('',(8.584437351034E-08,-0.981944937508,0.189166962505)
  );
#1770 = PLANE('',#1771);
#1771 = AXIS2_PLACEMENT_3D('',#1772,#1773,#1774);
#1772 = CARTESIAN_POINT('',(-0.749999807514,-0.974548802254,
    0.679729174063));
#1773 = DIRECTION('',(1.,8.742279754729E-08,-2.2E-16));
#1774 = DIRECTION('',(8.584437351593E-08,-0.981944937508,0.189166962505)
  );
#1775 = ADVANCED_FACE('',(#1776),#1803,.F.);
#1776 = FACE_BOUND('',#1777,.F.);
#1777 = EDGE_LOOP('',(#1778,#1787,#1795,#1802));
#1778 = ORIENTED_EDGE('',*,*,#1779,.T.);
#1779 = EDGE_CURVE('',#1684,#1780,#1782,.T.);
#1780 = VERTEX_POINT('',#1781);
#1781 = CARTESIAN_POINT('',(-0.749999783433,-1.250000178816,0.15));
#1782 = CIRCLE('',#1783,2.5E-02);
#1783 = AXIS2_PLACEMENT_3D('',#1784,#1785,#1786);
#1784 = CARTESIAN_POINT('',(-0.749999783433,-1.250000178816,0.175));
#1785 = DIRECTION('',(-1.,-8.742279754729E-08,2.2E-16));
#1786 = DIRECTION('',(8.742279754729E-08,-1.,-8.9E-16));
#1787 = ORIENTED_EDGE('',*,*,#1788,.T.);
#1788 = EDGE_CURVE('',#1780,#1789,#1791,.T.);
#1789 = VERTEX_POINT('',#1790);
#1790 = CARTESIAN_POINT('',(-1.149999783433,-1.250000213785,0.15));
#1791 = LINE('',#1792,#1793);
#1792 = CARTESIAN_POINT('',(-0.749999783433,-1.250000178816,0.15));
#1793 = VECTOR('',#1794,1.);
#1794 = DIRECTION('',(-1.,-8.742279754729E-08,2.2E-16));
#1795 = ORIENTED_EDGE('',*,*,#1796,.F.);
#1796 = EDGE_CURVE('',#1693,#1789,#1797,.T.);
#1797 = CIRCLE('',#1798,2.5E-02);
#1798 = AXIS2_PLACEMENT_3D('',#1799,#1800,#1801);
#1799 = CARTESIAN_POINT('',(-1.149999783433,-1.250000213785,0.175));
#1800 = DIRECTION('',(-1.,-8.742279754729E-08,2.2E-16));
#1801 = DIRECTION('',(8.742279754729E-08,-1.,-8.9E-16));
#1802 = ORIENTED_EDGE('',*,*,#1700,.F.);
#1803 = CYLINDRICAL_SURFACE('',#1804,2.5E-02);
#1804 = AXIS2_PLACEMENT_3D('',#1805,#1806,#1807);
#1805 = CARTESIAN_POINT('',(-0.749999783433,-1.250000178816,0.175));
#1806 = DIRECTION('',(-1.,-8.742279754729E-08,2.2E-16));
#1807 = DIRECTION('',(8.742279754729E-08,-1.,-8.9E-16));
#1808 = ADVANCED_FACE('',(#1809),#1828,.F.);
#1809 = FACE_BOUND('',#1810,.F.);
#1810 = EDGE_LOOP('',(#1811,#1812,#1820,#1827));
#1811 = ORIENTED_EDGE('',*,*,#1796,.T.);
#1812 = ORIENTED_EDGE('',*,*,#1813,.T.);
#1813 = EDGE_CURVE('',#1789,#1814,#1816,.T.);
#1814 = VERTEX_POINT('',#1815);
#1815 = CARTESIAN_POINT('',(-1.149999783433,-1.250000213785,0.));
#1816 = LINE('',#1817,#1818);
#1817 = CARTESIAN_POINT('',(-1.149999783433,-1.250000213785,0.15));
#1818 = VECTOR('',#1819,1.);
#1819 = DIRECTION('',(-2.20000080429E-16,9.19999980767E-16,-1.));
#1820 = ORIENTED_EDGE('',*,*,#1821,.F.);
#1821 = EDGE_CURVE('',#1717,#1814,#1822,.T.);
#1822 = CIRCLE('',#1823,0.175);
#1823 = AXIS2_PLACEMENT_3D('',#1824,#1825,#1826);
#1824 = CARTESIAN_POINT('',(-1.149999783433,-1.250000213785,0.175));
#1825 = DIRECTION('',(-1.,-8.742279754729E-08,2.2E-16));
#1826 = DIRECTION('',(8.742279754729E-08,-1.,-2.5E-16));
#1827 = ORIENTED_EDGE('',*,*,#1724,.F.);
#1828 = PLANE('',#1829);
#1829 = AXIS2_PLACEMENT_3D('',#1830,#1831,#1832);
#1830 = CARTESIAN_POINT('',(-1.149999789,-1.186327887084,
    9.789076052428E-02));
#1831 = DIRECTION('',(1.,8.742279754729E-08,-2.2E-16));
#1832 = DIRECTION('',(6.741105417704E-08,-0.771092394757,-0.636723267007
    ));
#1833 = ADVANCED_FACE('',(#1834),#1853,.T.);
#1834 = FACE_BOUND('',#1835,.T.);
#1835 = EDGE_LOOP('',(#1836,#1837,#1838,#1847));
#1836 = ORIENTED_EDGE('',*,*,#1821,.F.);
#1837 = ORIENTED_EDGE('',*,*,#1748,.T.);
#1838 = ORIENTED_EDGE('',*,*,#1839,.T.);
#1839 = EDGE_CURVE('',#1741,#1840,#1842,.T.);
#1840 = VERTEX_POINT('',#1841);
#1841 = CARTESIAN_POINT('',(-0.749999783433,-1.250000178816,0.));
#1842 = CIRCLE('',#1843,0.175);
#1843 = AXIS2_PLACEMENT_3D('',#1844,#1845,#1846);
#1844 = CARTESIAN_POINT('',(-0.749999783433,-1.250000178816,0.175));
#1845 = DIRECTION('',(-1.,-8.742279754729E-08,2.2E-16));
#1846 = DIRECTION('',(8.742279754729E-08,-1.,-2.5E-16));
#1847 = ORIENTED_EDGE('',*,*,#1848,.T.);
#1848 = EDGE_CURVE('',#1840,#1814,#1849,.T.);
#1849 = LINE('',#1850,#1851);
#1850 = CARTESIAN_POINT('',(-1.149999783433,-1.250000213785,1.3E-16));
#1851 = VECTOR('',#1852,1.);
#1852 = DIRECTION('',(-1.,-8.742279754729E-08,2.2E-16));
#1853 = CYLINDRICAL_SURFACE('',#1854,0.175);
#1854 = AXIS2_PLACEMENT_3D('',#1855,#1856,#1857);
#1855 = CARTESIAN_POINT('',(-1.149999783433,-1.250000213785,0.175));
#1856 = DIRECTION('',(-1.,-8.742279754729E-08,2.2E-16));
#1857 = DIRECTION('',(8.742279754729E-08,-1.,-2.5E-16));
#1858 = ADVANCED_FACE('',(#1859),#1870,.F.);
#1859 = FACE_BOUND('',#1860,.F.);
#1860 = EDGE_LOOP('',(#1861,#1862,#1868,#1869));
#1861 = ORIENTED_EDGE('',*,*,#1839,.T.);
#1862 = ORIENTED_EDGE('',*,*,#1863,.T.);
#1863 = EDGE_CURVE('',#1840,#1780,#1864,.T.);
#1864 = LINE('',#1865,#1866);
#1865 = CARTESIAN_POINT('',(-0.749999783433,-1.250000178816,1.E-16));
#1866 = VECTOR('',#1867,1.);
#1867 = DIRECTION('',(2.20000080429E-16,-9.19999980767E-16,1.));
#1868 = ORIENTED_EDGE('',*,*,#1779,.F.);
#1869 = ORIENTED_EDGE('',*,*,#1765,.F.);
#1870 = PLANE('',#1871);
#1871 = AXIS2_PLACEMENT_3D('',#1872,#1873,#1874);
#1872 = CARTESIAN_POINT('',(-0.749999789,-1.186327852115,
    9.789076052428E-02));
#1873 = DIRECTION('',(-1.,-8.742279754729E-08,2.2E-16));
#1874 = DIRECTION('',(6.741105417704E-08,-0.771092394757,-0.636723267007
    ));
#1875 = ADVANCED_FACE('',(#1876),#1901,.T.);
#1876 = FACE_BOUND('',#1877,.T.);
#1877 = EDGE_LOOP('',(#1878,#1886,#1887,#1895));
#1878 = ORIENTED_EDGE('',*,*,#1879,.F.);
#1879 = EDGE_CURVE('',#1780,#1880,#1882,.T.);
#1880 = VERTEX_POINT('',#1881);
#1881 = CARTESIAN_POINT('',(-0.749999761577,-1.500000178816,0.15));
#1882 = LINE('',#1883,#1884);
#1883 = CARTESIAN_POINT('',(-0.749999761577,-1.500000178816,0.15));
#1884 = VECTOR('',#1885,1.);
#1885 = DIRECTION('',(8.742279776729E-08,-1.,-2.2E-16));
#1886 = ORIENTED_EDGE('',*,*,#1788,.T.);
#1887 = ORIENTED_EDGE('',*,*,#1888,.T.);
#1888 = EDGE_CURVE('',#1789,#1889,#1891,.T.);
#1889 = VERTEX_POINT('',#1890);
#1890 = CARTESIAN_POINT('',(-1.149999761577,-1.500000213785,0.15));
#1891 = LINE('',#1892,#1893);
#1892 = CARTESIAN_POINT('',(-1.149999761577,-1.500000213785,0.15));
#1893 = VECTOR('',#1894,1.);
#1894 = DIRECTION('',(8.742279776729E-08,-1.,-2.2E-16));
#1895 = ORIENTED_EDGE('',*,*,#1896,.F.);
#1896 = EDGE_CURVE('',#1880,#1889,#1897,.T.);
#1897 = LINE('',#1898,#1899);
#1898 = CARTESIAN_POINT('',(-0.749999761577,-1.500000178816,0.15));
#1899 = VECTOR('',#1900,1.);
#1900 = DIRECTION('',(-1.,-8.742279776729E-08,0.));
#1901 = PLANE('',#1902);
#1902 = AXIS2_PLACEMENT_3D('',#1903,#1904,#1905);
#1903 = CARTESIAN_POINT('',(-0.749999761577,-1.500000178816,0.15));
#1904 = DIRECTION('',(1.92330155088E-23,-2.2E-16,1.));
#1905 = DIRECTION('',(-1.,-8.742279776729E-08,0.));
#1906 = ADVANCED_FACE('',(#1907),#1932,.T.);
#1907 = FACE_BOUND('',#1908,.T.);
#1908 = EDGE_LOOP('',(#1909,#1910,#1918,#1926));
#1909 = ORIENTED_EDGE('',*,*,#1896,.T.);
#1910 = ORIENTED_EDGE('',*,*,#1911,.T.);
#1911 = EDGE_CURVE('',#1889,#1912,#1914,.T.);
#1912 = VERTEX_POINT('',#1913);
#1913 = CARTESIAN_POINT('',(-1.149999761577,-1.500000213785,0.));
#1914 = LINE('',#1915,#1916);
#1915 = CARTESIAN_POINT('',(-1.149999761577,-1.500000213785,0.15));
#1916 = VECTOR('',#1917,1.);
#1917 = DIRECTION('',(1.92330155088E-23,-2.2E-16,-1.));
#1918 = ORIENTED_EDGE('',*,*,#1919,.T.);
#1919 = EDGE_CURVE('',#1912,#1920,#1922,.T.);
#1920 = VERTEX_POINT('',#1921);
#1921 = CARTESIAN_POINT('',(-0.749999761577,-1.500000178816,0.));
#1922 = LINE('',#1923,#1924);
#1923 = CARTESIAN_POINT('',(-1.149999761577,-1.500000213785,0.));
#1924 = VECTOR('',#1925,1.);
#1925 = DIRECTION('',(1.,8.742279776729E-08,0.));
#1926 = ORIENTED_EDGE('',*,*,#1927,.T.);
#1927 = EDGE_CURVE('',#1920,#1880,#1928,.T.);
#1928 = LINE('',#1929,#1930);
#1929 = CARTESIAN_POINT('',(-0.749999761577,-1.500000178816,0.));
#1930 = VECTOR('',#1931,1.);
#1931 = DIRECTION('',(-1.92330155088E-23,2.2E-16,1.));
#1932 = PLANE('',#1933);
#1933 = AXIS2_PLACEMENT_3D('',#1934,#1935,#1936);
#1934 = CARTESIAN_POINT('',(-0.949999761577,-1.5000001963,7.5E-02));
#1935 = DIRECTION('',(8.742279776729E-08,-1.,2.2E-16));
#1936 = DIRECTION('',(1.,8.742279776729E-08,0.));
#1937 = ADVANCED_FACE('',(#1938),#1949,.T.);
#1938 = FACE_BOUND('',#1939,.T.);
#1939 = EDGE_LOOP('',(#1940,#1941,#1942,#1948));
#1940 = ORIENTED_EDGE('',*,*,#1888,.F.);
#1941 = ORIENTED_EDGE('',*,*,#1813,.T.);
#1942 = ORIENTED_EDGE('',*,*,#1943,.T.);
#1943 = EDGE_CURVE('',#1814,#1912,#1944,.T.);
#1944 = LINE('',#1945,#1946);
#1945 = CARTESIAN_POINT('',(-1.149999761577,-1.500000213785,2.E-17));
#1946 = VECTOR('',#1947,1.);
#1947 = DIRECTION('',(8.742279754729E-08,-1.,2.2E-16));
#1948 = ORIENTED_EDGE('',*,*,#1911,.F.);
#1949 = PLANE('',#1950);
#1950 = AXIS2_PLACEMENT_3D('',#1951,#1952,#1953);
#1951 = CARTESIAN_POINT('',(-1.149999761577,-1.500000213785,0.15));
#1952 = DIRECTION('',(-1.,-8.742279754729E-08,0.));
#1953 = DIRECTION('',(1.92330154604E-23,-2.2E-16,-1.));
#1954 = ADVANCED_FACE('',(#1955),#1966,.T.);
#1955 = FACE_BOUND('',#1956,.T.);
#1956 = EDGE_LOOP('',(#1957,#1958,#1959,#1965));
#1957 = ORIENTED_EDGE('',*,*,#1943,.F.);
#1958 = ORIENTED_EDGE('',*,*,#1848,.F.);
#1959 = ORIENTED_EDGE('',*,*,#1960,.T.);
#1960 = EDGE_CURVE('',#1840,#1920,#1961,.T.);
#1961 = LINE('',#1962,#1963);
#1962 = CARTESIAN_POINT('',(-0.749999761577,-1.500000178816,0.));
#1963 = VECTOR('',#1964,1.);
#1964 = DIRECTION('',(8.742279776729E-08,-1.,-2.2E-16));
#1965 = ORIENTED_EDGE('',*,*,#1919,.F.);
#1966 = PLANE('',#1967);
#1967 = AXIS2_PLACEMENT_3D('',#1968,#1969,#1970);
#1968 = CARTESIAN_POINT('',(-1.149999761577,-1.500000213785,0.));
#1969 = DIRECTION('',(-1.92330155088E-23,2.2E-16,-1.));
#1970 = DIRECTION('',(1.,8.742279776729E-08,0.));
#1971 = ADVANCED_FACE('',(#1972),#1978,.T.);
#1972 = FACE_BOUND('',#1973,.T.);
#1973 = EDGE_LOOP('',(#1974,#1975,#1976,#1977));
#1974 = ORIENTED_EDGE('',*,*,#1960,.F.);
#1975 = ORIENTED_EDGE('',*,*,#1863,.T.);
#1976 = ORIENTED_EDGE('',*,*,#1879,.T.);
#1977 = ORIENTED_EDGE('',*,*,#1927,.F.);
#1978 = PLANE('',#1979);
#1979 = AXIS2_PLACEMENT_3D('',#1980,#1981,#1982);
#1980 = CARTESIAN_POINT('',(-0.749999761577,-1.500000178816,0.));
#1981 = DIRECTION('',(1.,8.742279754729E-08,0.));
#1982 = DIRECTION('',(-1.92330154604E-23,2.2E-16,1.));
#1983 = ( GEOMETRIC_REPRESENTATION_CONTEXT(3) 
GLOBAL_UNCERTAINTY_ASSIGNED_CONTEXT((#1987)) 
GLOBAL_UNIT_ASSIGNED_CONTEXT((#1984,#1985,#1986)) REPRESENTATION_CONTEXT
('Context #1','3D Context with UNIT and UNCERTAINTY') );
#1984 = ( LENGTH_UNIT() NAMED_UNIT(*) SI_UNIT(.MILLI.,.METRE.) );
#1985 = ( NAMED_UNIT(*) PLANE_ANGLE_UNIT() SI_UNIT($,.RADIAN.) );
#1986 = ( NAMED_UNIT(*) SI_UNIT($,.STERADIAN.) SOLID_ANGLE_UNIT() );
#1987 = UNCERTAINTY_MEASURE_WITH_UNIT(LENGTH_MEASURE(1.E-05),#1984,
  'distance_accuracy_value','confusion accuracy');
#1988 = PRODUCT_RELATED_PRODUCT_CATEGORY('part',$,(#7));
#1989 = MECHANICAL_DESIGN_GEOMETRIC_PRESENTATION_REPRESENTATION('',(
    #1990,#2001,#2010,#2018,#2025,#2032,#2039,#2046,#2053,#2060,#2067,
    #2074,#2081,#2088,#2095,#2102,#2109,#2118),#1983);
#1990 = STYLED_ITEM('color',(#1991),#15);
#1991 = PRESENTATION_STYLE_ASSIGNMENT((#1992,#1998));
#1992 = SURFACE_STYLE_USAGE(.BOTH.,#1993);
#1993 = SURFACE_SIDE_STYLE('',(#1994));
#1994 = SURFACE_STYLE_FILL_AREA(#1995);
#1995 = FILL_AREA_STYLE('',(#1996));
#1996 = FILL_AREA_STYLE_COLOUR('',#1997);
#1997 = COLOUR_RGB('',0.800000011921,0.800000011921,0.800000011921);
#1998 = CURVE_STYLE('',#1999,POSITIVE_LENGTH_MEASURE(0.1),#2000);
#1999 = DRAUGHTING_PRE_DEFINED_CURVE_FONT('continuous');
#2000 = COLOUR_RGB('',9.803921729326E-02,9.803921729326E-02,
  9.803921729326E-02);
#2001 = STYLED_ITEM('color',(#2002),#557);
#2002 = PRESENTATION_STYLE_ASSIGNMENT((#2003,#2008));
#2003 = SURFACE_STYLE_USAGE(.BOTH.,#2004);
#2004 = SURFACE_SIDE_STYLE('',(#2005));
#2005 = SURFACE_STYLE_FILL_AREA(#2006);
#2006 = FILL_AREA_STYLE('',(#2007));
#2007 = FILL_AREA_STYLE_COLOUR('',#1997);
#2008 = CURVE_STYLE('',#2009,POSITIVE_LENGTH_MEASURE(0.1),#2000);
#2009 = DRAUGHTING_PRE_DEFINED_CURVE_FONT('continuous');
#2010 = OVER_RIDING_STYLED_ITEM('overriding color',(#2011),#559,#2001);
#2011 = PRESENTATION_STYLE_ASSIGNMENT((#2012));
#2012 = SURFACE_STYLE_USAGE(.BOTH.,#2013);
#2013 = SURFACE_SIDE_STYLE('',(#2014));
#2014 = SURFACE_STYLE_FILL_AREA(#2015);
#2015 = FILL_AREA_STYLE('',(#2016));
#2016 = FILL_AREA_STYLE_COLOUR('',#2017);
#2017 = COLOUR_RGB('',0.101960785687,0.101960785687,0.101960785687);
#2018 = OVER_RIDING_STYLED_ITEM('overriding color',(#2019),#599,#2001);
#2019 = PRESENTATION_STYLE_ASSIGNMENT((#2020));
#2020 = SURFACE_STYLE_USAGE(.BOTH.,#2021);
#2021 = SURFACE_SIDE_STYLE('',(#2022));
#2022 = SURFACE_STYLE_FILL_AREA(#2023);
#2023 = FILL_AREA_STYLE('',(#2024));
#2024 = FILL_AREA_STYLE_COLOUR('',#2017);
#2025 = OVER_RIDING_STYLED_ITEM('overriding color',(#2026),#630,#2001);
#2026 = PRESENTATION_STYLE_ASSIGNMENT((#2027));
#2027 = SURFACE_STYLE_USAGE(.BOTH.,#2028);
#2028 = SURFACE_SIDE_STYLE('',(#2029));
#2029 = SURFACE_STYLE_FILL_AREA(#2030);
#2030 = FILL_AREA_STYLE('',(#2031));
#2031 = FILL_AREA_STYLE_COLOUR('',#2017);
#2032 = OVER_RIDING_STYLED_ITEM('overriding color',(#2033),#661,#2001);
#2033 = PRESENTATION_STYLE_ASSIGNMENT((#2034));
#2034 = SURFACE_STYLE_USAGE(.BOTH.,#2035);
#2035 = SURFACE_SIDE_STYLE('',(#2036));
#2036 = SURFACE_STYLE_FILL_AREA(#2037);
#2037 = FILL_AREA_STYLE('',(#2038));
#2038 = FILL_AREA_STYLE_COLOUR('',#2017);
#2039 = OVER_RIDING_STYLED_ITEM('overriding color',(#2040),#692,#2001);
#2040 = PRESENTATION_STYLE_ASSIGNMENT((#2041));
#2041 = SURFACE_STYLE_USAGE(.BOTH.,#2042);
#2042 = SURFACE_SIDE_STYLE('',(#2043));
#2043 = SURFACE_STYLE_FILL_AREA(#2044);
#2044 = FILL_AREA_STYLE('',(#2045));
#2045 = FILL_AREA_STYLE_COLOUR('',#2017);
#2046 = OVER_RIDING_STYLED_ITEM('overriding color',(#2047),#723,#2001);
#2047 = PRESENTATION_STYLE_ASSIGNMENT((#2048));
#2048 = SURFACE_STYLE_USAGE(.BOTH.,#2049);
#2049 = SURFACE_SIDE_STYLE('',(#2050));
#2050 = SURFACE_STYLE_FILL_AREA(#2051);
#2051 = FILL_AREA_STYLE('',(#2052));
#2052 = FILL_AREA_STYLE_COLOUR('',#2017);
#2053 = OVER_RIDING_STYLED_ITEM('overriding color',(#2054),#745,#2001);
#2054 = PRESENTATION_STYLE_ASSIGNMENT((#2055));
#2055 = SURFACE_STYLE_USAGE(.BOTH.,#2056);
#2056 = SURFACE_SIDE_STYLE('',(#2057));
#2057 = SURFACE_STYLE_FILL_AREA(#2058);
#2058 = FILL_AREA_STYLE('',(#2059));
#2059 = FILL_AREA_STYLE_COLOUR('',#2017);
#2060 = OVER_RIDING_STYLED_ITEM('overriding color',(#2061),#769,#2001);
#2061 = PRESENTATION_STYLE_ASSIGNMENT((#2062));
#2062 = SURFACE_STYLE_USAGE(.BOTH.,#2063);
#2063 = SURFACE_SIDE_STYLE('',(#2064));
#2064 = SURFACE_STYLE_FILL_AREA(#2065);
#2065 = FILL_AREA_STYLE('',(#2066));
#2066 = FILL_AREA_STYLE_COLOUR('',#2017);
#2067 = OVER_RIDING_STYLED_ITEM('overriding color',(#2068),#793,#2001);
#2068 = PRESENTATION_STYLE_ASSIGNMENT((#2069));
#2069 = SURFACE_STYLE_USAGE(.BOTH.,#2070);
#2070 = SURFACE_SIDE_STYLE('',(#2071));
#2071 = SURFACE_STYLE_FILL_AREA(#2072);
#2072 = FILL_AREA_STYLE('',(#2073));
#2073 = FILL_AREA_STYLE_COLOUR('',#2017);
#2074 = OVER_RIDING_STYLED_ITEM('overriding color',(#2075),#817,#2001);
#2075 = PRESENTATION_STYLE_ASSIGNMENT((#2076));
#2076 = SURFACE_STYLE_USAGE(.BOTH.,#2077);
#2077 = SURFACE_SIDE_STYLE('',(#2078));
#2078 = SURFACE_STYLE_FILL_AREA(#2079);
#2079 = FILL_AREA_STYLE('',(#2080));
#2080 = FILL_AREA_STYLE_COLOUR('',#2017);
#2081 = OVER_RIDING_STYLED_ITEM('overriding color',(#2082),#834,#2001);
#2082 = PRESENTATION_STYLE_ASSIGNMENT((#2083));
#2083 = SURFACE_STYLE_USAGE(.BOTH.,#2084);
#2084 = SURFACE_SIDE_STYLE('',(#2085));
#2085 = SURFACE_STYLE_FILL_AREA(#2086);
#2086 = FILL_AREA_STYLE('',(#2087));
#2087 = FILL_AREA_STYLE_COLOUR('',#2017);
#2088 = OVER_RIDING_STYLED_ITEM('overriding color',(#2089),#858,#2001);
#2089 = PRESENTATION_STYLE_ASSIGNMENT((#2090));
#2090 = SURFACE_STYLE_USAGE(.BOTH.,#2091);
#2091 = SURFACE_SIDE_STYLE('',(#2092));
#2092 = SURFACE_STYLE_FILL_AREA(#2093);
#2093 = FILL_AREA_STYLE('',(#2094));
#2094 = FILL_AREA_STYLE_COLOUR('',#2017);
#2095 = OVER_RIDING_STYLED_ITEM('overriding color',(#2096),#875,#2001);
#2096 = PRESENTATION_STYLE_ASSIGNMENT((#2097));
#2097 = SURFACE_STYLE_USAGE(.BOTH.,#2098);
#2098 = SURFACE_SIDE_STYLE('',(#2099));
#2099 = SURFACE_STYLE_FILL_AREA(#2100);
#2100 = FILL_AREA_STYLE('',(#2101));
#2101 = FILL_AREA_STYLE_COLOUR('',#2017);
#2102 = OVER_RIDING_STYLED_ITEM('overriding color',(#2103),#887,#2001);
#2103 = PRESENTATION_STYLE_ASSIGNMENT((#2104));
#2104 = SURFACE_STYLE_USAGE(.BOTH.,#2105);
#2105 = SURFACE_SIDE_STYLE('',(#2106));
#2106 = SURFACE_STYLE_FILL_AREA(#2107);
#2107 = FILL_AREA_STYLE('',(#2108));
#2108 = FILL_AREA_STYLE_COLOUR('',#2017);
#2109 = STYLED_ITEM('color',(#2110),#899);
#2110 = PRESENTATION_STYLE_ASSIGNMENT((#2111,#2116));
#2111 = SURFACE_STYLE_USAGE(.BOTH.,#2112);
#2112 = SURFACE_SIDE_STYLE('',(#2113));
#2113 = SURFACE_STYLE_FILL_AREA(#2114);
#2114 = FILL_AREA_STYLE('',(#2115));
#2115 = FILL_AREA_STYLE_COLOUR('',#1997);
#2116 = CURVE_STYLE('',#2117,POSITIVE_LENGTH_MEASURE(0.1),#2000);
#2117 = DRAUGHTING_PRE_DEFINED_CURVE_FONT('continuous');
#2118 = STYLED_ITEM('color',(#2119),#1441);
#2119 = PRESENTATION_STYLE_ASSIGNMENT((#2120,#2125));
#2120 = SURFACE_STYLE_USAGE(.BOTH.,#2121);
#2121 = SURFACE_SIDE_STYLE('',(#2122));
#2122 = SURFACE_STYLE_FILL_AREA(#2123);
#2123 = FILL_AREA_STYLE('',(#2124));
#2124 = FILL_AREA_STYLE_COLOUR('',#1997);
#2125 = CURVE_STYLE('',#2126,POSITIVE_LENGTH_MEASURE(0.1),#2000);
#2126 = DRAUGHTING_PRE_DEFINED_CURVE_FONT('continuous');
ENDSEC;
END-ISO-10303-21;
